%!PS-Adobe-3.0 EPSF-3.0
%%DocumentNeededResources: font Helvetica
%%+ font Helvetica-Bold
%%+ font Helvetica-Oblique
%%+ font Helvetica-BoldOblique
%%+ font Symbol
%%Title: R Graphics Output
%%Creator: R Software
%%Pages: (atend)
%%BoundingBox: 0 0 576 288
%%EndComments
%%BeginProlog
/bp  { gs sRGB gs } def
% begin .ps.prolog
/gs  { gsave } bind def
/gr  { grestore } bind def
/ep  { showpage gr gr } bind def
/m   { moveto } bind def
/l  { rlineto } bind def
/np  { newpath } bind def
/cp  { closepath } bind def
/f   { fill } bind def
/o   { stroke } bind def
/c   { newpath 0 360 arc } bind def
/r   { 4 2 roll moveto 1 copy 3 -1 roll exch 0 exch rlineto 0 rlineto -1 mul 0 exch rlineto closepath } bind def
/p1  { stroke } bind def
/p2  { gsave bg fill grestore newpath } bind def
/p3  { gsave bg fill grestore stroke } bind def
/p6  { gsave bg eofill grestore newpath } bind def
/p7  { gsave bg eofill grestore stroke } bind def
/t   { 5 -2 roll moveto gsave rotate
       1 index stringwidth pop
       mul neg 0 rmoveto show grestore } bind def
/ta  { 4 -2 roll moveto gsave rotate show } bind def
/tb  { 2 -1 roll 0 rmoveto show } bind def
/cl  { grestore gsave newpath 3 index 3 index moveto 1 index
       4 -1 roll lineto  exch 1 index lineto lineto
       closepath clip newpath } bind def
/rgb { setrgbcolor } bind def
/s   { scalefont setfont } bind def
% end   .ps.prolog
/sRGB { [ /CIEBasedABC
          << /DecodeLMN
               [ { dup 0.03928 le
                        {12.92321 div}
                        {0.055 add 1.055 div 2.4 exp }
                     ifelse
                 } bind dup dup
               ]
             /MatrixLMN [0.412457 0.212673 0.019334
                         0.357576 0.715152 0.119192
                         0.180437 0.072175 0.950301]
             /WhitePoint [0.9505 1.0 1.0890]
           >>
         ] setcolorspace } bind def
/srgb { setcolor } bind def
%%IncludeResource: font Helvetica
/Helvetica findfont
dup length dict begin
  {1 index /FID ne {def} {pop pop} ifelse} forall
  /Encoding ISOLatin1Encoding def
  currentdict
  end
/Font1 exch definefont pop
%%IncludeResource: font Helvetica-Bold
/Helvetica-Bold findfont
dup length dict begin
  {1 index /FID ne {def} {pop pop} ifelse} forall
  /Encoding ISOLatin1Encoding def
  currentdict
  end
/Font2 exch definefont pop
%%IncludeResource: font Helvetica-Oblique
/Helvetica-Oblique findfont
dup length dict begin
  {1 index /FID ne {def} {pop pop} ifelse} forall
  /Encoding ISOLatin1Encoding def
  currentdict
  end
/Font3 exch definefont pop
%%IncludeResource: font Helvetica-BoldOblique
/Helvetica-BoldOblique findfont
dup length dict begin
  {1 index /FID ne {def} {pop pop} ifelse} forall
  /Encoding ISOLatin1Encoding def
  currentdict
  end
/Font4 exch definefont pop
%%IncludeResource: font Symbol
/Symbol findfont
dup length dict begin
  {1 index /FID ne {def} {pop pop} ifelse} forall
  currentdict
  end
/Font5 exch definefont pop
%%EndProlog
%%Page: 1 1
bp
73.44 73.44 560.16 272.16 cl
/bg { 1 0 0 srgb } def
91.47 84.50 4.05 c p2
205.00 96.17 4.05 c p2
285.56 103.42 4.05 c p2
348.04 106.35 4.05 c p2
399.09 113.81 4.05 c p2
442.26 116.51 4.05 c p2
479.65 122.14 4.05 c p2
512.63 123.70 4.05 c p2
542.13 128.39 4.05 c p2
0.00 0.00 576.00 288.00 cl
0 0 0 srgb
0.75 setlinewidth
[] 0 setdash
1 setlinecap
1 setlinejoin
10.00 setmiterlimit
np
146.75 73.44 m
280.01 0 l
o
np
146.75 73.44 m
0 5.96 l
o
np
286.75 73.44 m
0 5.96 l
o
np
426.76 73.44 m
0 5.96 l
o
/Font1 findfont 12 s
146.75 47.52 (2.5) .5 0 t
286.75 47.52 (3.0) .5 0 t
426.76 47.52 (3.5) .5 0 t
np
73.44 80.80 m
0 184.00 l
o
np
73.44 80.80 m
5.96 0 l
o
np
73.44 142.13 m
5.96 0 l
o
np
73.44 203.47 m
5.96 0 l
o
np
73.44 264.80 m
5.96 0 l
o
56.16 80.80 (5) .5 90 t
56.16 142.13 (10) .5 90 t
56.16 203.47 (15) .5 90 t
56.16 264.80 (20) .5 90 t
np
73.44 73.44 m
486.72 0 l
0 198.72 l
-486.72 0 l
0 -198.72 l
o
0.00 0.00 576.00 288.00 cl
/Font1 findfont 14 s
0 0 0 srgb
297.58 22.16 (log) 0 0 t
/Font5 findfont 18 s
316.25 22.16 (\() 0 0 t
/Font1 findfont 14 s
322.25 22.16 (n) 0 0 t
/Font5 findfont 18 s
330.03 22.16 (\)) 0 0 t
/Font1 findfont 14 s
23.92 153.19 (log) 0 90 t
/Font5 findfont 18 s
23.92 171.87 (\() 0 90 t
/Font1 findfont 14 s
23.92 177.86 (T) 0 90 t
/Font5 findfont 18 s
23.92 186.41 (\)) 0 90 t
73.44 73.44 560.16 272.16 cl
/bg { 0 0 1 srgb } def
np
 91.47 113.39 m
5.45 -9.44 l
-10.91 0 l
cp p2
np
 205.00 130.55 m
5.46 -9.44 l
-10.91 0 l
cp p2
np
 285.56 140.36 m
5.45 -9.44 l
-10.91 0 l
cp p2
np
 348.04 152.47 m
5.46 -9.45 l
-10.91 0 l
cp p2
np
 399.09 158.59 m
5.46 -9.45 l
-10.91 0 l
cp p2
np
 442.26 164.40 m
5.45 -9.45 l
-10.91 0 l
cp p2
np
 479.65 167.73 m
5.45 -9.44 l
-10.90 0 l
cp p2
np
 512.63 173.96 m
5.46 -9.45 l
-10.91 0 l
cp p2
np
 542.13 176.17 m
5.46 -9.44 l
-10.91 0 l
cp p2
/bg { 0 1 0 srgb } def
np
 87.42 124.82 m
8.10 0 l
0 8.10 l
-8.10 0 l
cp p2
np
 200.95 151.51 m
8.10 0 l
0 8.10 l
-8.10 0 l
cp p2
np
 281.51 166.04 m
8.10 0 l
0 8.10 l
-8.10 0 l
cp p2
np
 343.99 177.26 m
8.10 0 l
0 8.10 l
-8.10 0 l
cp p2
np
 395.04 185.84 m
8.10 0 l
0 8.10 l
-8.10 0 l
cp p2
np
 438.21 196.63 m
8.10 0 l
0 8.10 l
-8.10 0 l
cp p2
np
 475.60 202.28 m
8.10 0 l
0 8.10 l
-8.10 0 l
cp p2
np
 508.58 204.74 m
8.10 0 l
0 8.10 l
-8.10 0 l
cp p2
np
 538.08 215.00 m
8.10 0 l
0 8.10 l
-8.10 0 l
cp p2
1 0 0 srgb
0.75 setlinewidth
[] 0 setdash
1 setlinecap
1 setlinejoin
10.00 setmiterlimit
np
91.47 84.46 m
113.53 10.74 l
80.56 7.62 l
62.48 5.91 l
51.05 4.83 l
43.17 4.08 l
37.39 3.54 l
32.98 3.12 l
29.50 2.79 l
o
0 0 1 srgb
np
91.47 107.94 m
113.53 15.99 l
80.56 11.33 l
62.48 8.80 l
51.05 7.19 l
43.17 6.07 l
37.39 5.26 l
32.98 4.65 l
29.50 4.15 l
o
0 1 0 srgb
np
91.47 131.47 m
113.53 21.83 l
80.56 15.49 l
62.48 12.01 l
51.05 9.82 l
43.17 8.30 l
37.39 7.19 l
32.98 6.34 l
29.50 5.67 l
o
/Font1 findfont 12 s
0 0 0 srgb
292.09 115.76 (2.093*log\(n\)+0.828) 0 5.50 t
292.31 151.24 (3.188*log\(n\)+0.341) 0 7.00 t
292.67 186.28 (4.274*log\(n\)-0.052) 0 9.00 t
0.6627 0.6627 0.6627 srgb
np
91.47 74.00 m
0 21.00 l
o
np
87.87 74.00 m
3.60 0 l
3.60 0 l
o
np
95.07 95.00 m
-3.60 0 l
-3.60 0 l
o
np
205.00 85.45 m
0 21.44 l
o
np
201.40 85.45 m
3.60 0 l
3.60 0 l
o
np
208.60 106.89 m
-3.60 0 l
-3.60 0 l
o
np
285.56 93.71 m
0 19.43 l
o
np
281.96 93.71 m
3.60 0 l
3.60 0 l
o
np
289.16 113.14 m
-3.60 0 l
-3.60 0 l
o
np
348.04 96.78 m
0 19.14 l
o
np
344.44 96.78 m
3.60 0 l
3.60 0 l
o
np
351.64 115.92 m
-3.60 0 l
-3.60 0 l
o
np
399.09 104.87 m
0 17.87 l
o
np
395.49 104.87 m
3.60 0 l
3.60 0 l
o
np
402.69 122.74 m
-3.60 0 l
-3.60 0 l
o
np
442.26 107.08 m
0 18.87 l
o
np
438.66 107.08 m
3.60 0 l
3.60 0 l
o
np
445.86 125.95 m
-3.60 0 l
-3.60 0 l
o
np
479.65 113.96 m
0 16.36 l
o
np
476.05 113.96 m
3.60 0 l
3.60 0 l
o
np
483.25 130.32 m
-3.60 0 l
-3.60 0 l
o
np
512.63 114.69 m
0 18.02 l
o
np
509.03 114.69 m
3.60 0 l
3.60 0 l
o
np
516.23 132.71 m
-3.60 0 l
-3.60 0 l
o
np
542.13 119.20 m
0 18.37 l
o
np
538.53 119.20 m
3.60 0 l
3.60 0 l
o
np
545.73 137.57 m
-3.60 0 l
-3.60 0 l
o
np
91.47 93.20 m
0 27.80 l
o
np
87.87 93.20 m
3.60 0 l
3.60 0 l
o
np
95.07 121.00 m
-3.60 0 l
-3.60 0 l
o
np
205.00 112.33 m
0 23.85 l
o
np
201.40 112.33 m
3.60 0 l
3.60 0 l
o
np
208.60 136.18 m
-3.60 0 l
-3.60 0 l
o
np
285.56 120.57 m
0 26.99 l
o
np
281.96 120.57 m
3.60 0 l
3.60 0 l
o
np
289.16 147.56 m
-3.60 0 l
-3.60 0 l
o
np
348.04 134.68 m
0 22.98 l
o
np
344.44 134.68 m
3.60 0 l
3.60 0 l
o
np
351.64 157.66 m
-3.60 0 l
-3.60 0 l
o
np
399.09 137.74 m
0 29.10 l
o
np
395.49 137.74 m
3.60 0 l
3.60 0 l
o
np
402.69 166.84 m
-3.60 0 l
-3.60 0 l
o
np
442.26 145.96 m
0 24.27 l
o
np
438.66 145.96 m
3.60 0 l
3.60 0 l
o
np
445.86 170.23 m
-3.60 0 l
-3.60 0 l
o
np
479.65 150.69 m
0 21.49 l
o
np
476.05 150.69 m
3.60 0 l
3.60 0 l
o
np
483.25 172.18 m
-3.60 0 l
-3.60 0 l
o
np
512.63 155.40 m
0 24.52 l
o
np
509.03 155.40 m
3.60 0 l
3.60 0 l
o
np
516.23 179.92 m
-3.60 0 l
-3.60 0 l
o
np
542.13 156.83 m
0 26.09 l
o
np
538.53 156.83 m
3.60 0 l
3.60 0 l
o
np
545.73 182.92 m
-3.60 0 l
-3.60 0 l
o
np
91.47 106.05 m
0 45.64 l
o
np
87.87 106.05 m
3.60 0 l
3.60 0 l
o
np
95.07 151.69 m
-3.60 0 l
-3.60 0 l
o
np
205.00 139.05 m
0 33.01 l
o
np
201.40 139.05 m
3.60 0 l
3.60 0 l
o
np
208.60 172.06 m
-3.60 0 l
-3.60 0 l
o
np
285.56 155.99 m
0 28.19 l
o
np
281.96 155.99 m
3.60 0 l
3.60 0 l
o
np
289.16 184.18 m
-3.60 0 l
-3.60 0 l
o
np
348.04 166.18 m
0 30.25 l
o
np
344.44 166.18 m
3.60 0 l
3.60 0 l
o
np
351.64 196.43 m
-3.60 0 l
-3.60 0 l
o
np
399.09 176.47 m
0 26.85 l
o
np
395.49 176.47 m
3.60 0 l
3.60 0 l
o
np
402.69 203.32 m
-3.60 0 l
-3.60 0 l
o
np
442.26 186.63 m
0 28.10 l
o
np
438.66 186.63 m
3.60 0 l
3.60 0 l
o
np
445.86 214.73 m
-3.60 0 l
-3.60 0 l
o
np
479.65 191.91 m
0 28.84 l
o
np
476.05 191.91 m
3.60 0 l
3.60 0 l
o
np
483.25 220.75 m
-3.60 0 l
-3.60 0 l
o
np
512.63 193.56 m
0 30.45 l
o
np
509.03 193.56 m
3.60 0 l
3.60 0 l
o
np
516.23 224.01 m
-3.60 0 l
-3.60 0 l
o
np
542.13 205.33 m
0 27.43 l
o
np
538.53 205.33 m
3.60 0 l
3.60 0 l
o
np
545.73 232.76 m
-3.60 0 l
-3.60 0 l
o
0 0 0 srgb
73.44 272.16 40.22 -46.08 r p1
/bg { 1 0 0 srgb } def
82.08 260.64 2.16 c p2
/bg { 0 0 1 srgb } def
np
 82.08 252.48 m
2.91 -5.04 l
-5.82 0 l
cp p2
/bg { 0 1 0 srgb } def
np
 79.92 235.44 m
4.32 0 l
0 4.32 l
-4.32 0 l
cp p2
/Font1 findfont 10 s
90.72 257.05 (w=2) 0 0 t
90.72 245.53 (w=3) 0 0 t
90.72 234.01 (w=4) 0 0 t
ep
%%Trailer
%%Pages: 1
%%EOF
