%!PS-Adobe-3.0 EPSF-3.0
%%DocumentNeededResources: font Helvetica
%%+ font Helvetica-Bold
%%+ font Helvetica-Oblique
%%+ font Helvetica-BoldOblique
%%+ font Symbol
%%Title: R Graphics Output
%%Creator: R Software
%%Pages: (atend)
%%BoundingBox: 0 0 576 216
%%EndComments
%%BeginProlog
/bp  { gs sRGB gs } def
% begin .ps.prolog
/gs  { gsave } bind def
/gr  { grestore } bind def
/ep  { showpage gr gr } bind def
/m   { moveto } bind def
/l  { rlineto } bind def
/np  { newpath } bind def
/cp  { closepath } bind def
/f   { fill } bind def
/o   { stroke } bind def
/c   { newpath 0 360 arc } bind def
/r   { 4 2 roll moveto 1 copy 3 -1 roll exch 0 exch rlineto 0 rlineto -1 mul 0 exch rlineto closepath } bind def
/p1  { stroke } bind def
/p2  { gsave bg fill grestore newpath } bind def
/p3  { gsave bg fill grestore stroke } bind def
/p6  { gsave bg eofill grestore newpath } bind def
/p7  { gsave bg eofill grestore stroke } bind def
/t   { 5 -2 roll moveto gsave rotate
       1 index stringwidth pop
       mul neg 0 rmoveto show grestore } bind def
/ta  { 4 -2 roll moveto gsave rotate show } bind def
/tb  { 2 -1 roll 0 rmoveto show } bind def
/cl  { grestore gsave newpath 3 index 3 index moveto 1 index
       4 -1 roll lineto  exch 1 index lineto lineto
       closepath clip newpath } bind def
/rgb { setrgbcolor } bind def
/s   { scalefont setfont } bind def
% end   .ps.prolog
/sRGB { [ /CIEBasedABC
          << /DecodeLMN
               [ { dup 0.03928 le
                        {12.92321 div}
                        {0.055 add 1.055 div 2.4 exp }
                     ifelse
                 } bind dup dup
               ]
             /MatrixLMN [0.412457 0.212673 0.019334
                         0.357576 0.715152 0.119192
                         0.180437 0.072175 0.950301]
             /WhitePoint [0.9505 1.0 1.0890]
           >>
         ] setcolorspace } bind def
/srgb { setcolor } bind def
%%IncludeResource: font Helvetica
/Helvetica findfont
dup length dict begin
  {1 index /FID ne {def} {pop pop} ifelse} forall
  /Encoding ISOLatin1Encoding def
  currentdict
  end
/Font1 exch definefont pop
%%IncludeResource: font Helvetica-Bold
/Helvetica-Bold findfont
dup length dict begin
  {1 index /FID ne {def} {pop pop} ifelse} forall
  /Encoding ISOLatin1Encoding def
  currentdict
  end
/Font2 exch definefont pop
%%IncludeResource: font Helvetica-Oblique
/Helvetica-Oblique findfont
dup length dict begin
  {1 index /FID ne {def} {pop pop} ifelse} forall
  /Encoding ISOLatin1Encoding def
  currentdict
  end
/Font3 exch definefont pop
%%IncludeResource: font Helvetica-BoldOblique
/Helvetica-BoldOblique findfont
dup length dict begin
  {1 index /FID ne {def} {pop pop} ifelse} forall
  /Encoding ISOLatin1Encoding def
  currentdict
  end
/Font4 exch definefont pop
%%IncludeResource: font Symbol
/Symbol findfont
dup length dict begin
  {1 index /FID ne {def} {pop pop} ifelse} forall
  currentdict
  end
/Font5 exch definefont pop
%%EndProlog
%%Page: 1 1
bp
66.24 59.04 279.36 207.36 cl
/bg { 1 0 0 srgb } def
74.13 64.54 4.05 c p2
98.80 64.54 4.05 c p2
123.47 64.54 4.05 c p2
148.13 64.55 4.05 c p2
172.80 64.55 4.05 c p2
197.47 64.56 4.05 c p2
222.13 64.57 4.05 c p2
246.80 64.58 4.05 c p2
271.47 64.60 4.05 c p2
0.00 0.00 576.00 216.00 cl
0 0 0 srgb
0.75 setlinewidth
[] 0 setdash
1 setlinecap
1 setlinejoin
10.00 setmiterlimit
np
74.13 59.04 m
197.34 0 l
o
np
74.13 59.04 m
0 4.45 l
o
np
123.47 59.04 m
0 4.45 l
o
np
172.80 59.04 m
0 4.45 l
o
np
222.13 59.04 m
0 4.45 l
o
np
271.47 59.04 m
0 4.45 l
o
/Font1 findfont 12 s
74.13 33.12 (10) .5 0 t
123.47 33.12 (20) .5 0 t
172.80 33.12 (30) .5 0 t
222.13 33.12 (40) .5 0 t
271.47 33.12 (50) .5 0 t
np
66.24 64.53 m
0 113.49 l
o
np
66.24 64.53 m
4.45 0 l
o
np
66.24 102.36 m
4.45 0 l
o
np
66.24 140.19 m
4.45 0 l
o
np
66.24 178.02 m
4.45 0 l
o
48.96 64.53 (0.0e+00) .5 90 t
48.96 140.19 (1.0e+07) .5 90 t
np
66.24 59.04 m
213.12 0 l
0 148.32 l
-213.12 0 l
0 -148.32 l
o
0.00 0.00 288.00 216.00 cl
/Font1 findfont 14 s
0 0 0 srgb
168.91 4.32 (n) 0 0 t
20.16 128.92 (T) 0 90 t
0.75 setlinewidth
[] 0 setdash
1 setlinecap
1 setlinejoin
10.00 setmiterlimit
np
8.10 128.92 m
0 8.56 l
o
66.24 59.04 279.36 207.36 cl
/bg { 0 0 1 srgb } def
np
 74.13 70.85 m
5.46 -9.45 l
-10.91 0 l
cp p2
np
 98.80 70.89 m
5.45 -9.45 l
-10.90 0 l
cp p2
np
 123.47 70.97 m
5.45 -9.44 l
-10.91 0 l
cp p2
np
 148.13 71.16 m
5.46 -9.45 l
-10.91 0 l
cp p2
np
 172.80 71.50 m
5.45 -9.44 l
-10.90 0 l
cp p2
np
 197.47 71.80 m
5.45 -9.45 l
-10.91 0 l
cp p2
np
 222.13 71.96 m
5.46 -9.45 l
-10.91 0 l
cp p2
np
 246.80 72.87 m
5.45 -9.45 l
-10.90 0 l
cp p2
np
 271.47 73.35 m
5.45 -9.45 l
-10.91 0 l
cp p2
/bg { 0 1 0 srgb } def
np
 70.08 60.61 m
8.10 0 l
0 8.10 l
-8.10 0 l
cp p2
np
 94.75 61.33 m
8.10 0 l
0 8.10 l
-8.10 0 l
cp p2
np
 119.42 63.13 m
8.10 0 l
0 8.10 l
-8.10 0 l
cp p2
np
 144.08 67.55 m
8.10 0 l
0 8.10 l
-8.10 0 l
cp p2
np
 168.75 74.21 m
8.10 0 l
0 8.10 l
-8.10 0 l
cp p2
np
 193.42 92.03 m
8.10 0 l
0 8.10 l
-8.10 0 l
cp p2
np
 218.08 114.49 m
8.10 0 l
0 8.10 l
-8.10 0 l
cp p2
np
 242.75 129.55 m
8.10 0 l
0 8.10 l
-8.10 0 l
cp p2
np
 267.42 197.82 m
8.10 0 l
0 8.10 l
-8.10 0 l
cp p2
1 0 0 srgb
0.75 setlinewidth
[] 0 setdash
1 setlinecap
1 setlinejoin
10.00 setmiterlimit
np
74.13 64.53 m
24.67 0.01 l
24.67 0 l
24.66 0.01 l
24.67 0 l
24.67 0.01 l
24.66 0.01 l
24.67 0.02 l
24.67 0.01 l
o
0 0 1 srgb
np
74.13 64.56 m
24.67 0.05 l
24.67 0.10 l
24.66 0.17 l
24.67 0.24 l
24.67 0.32 l
24.66 0.43 l
24.67 0.55 l
24.67 0.67 l
o
0 1 0 srgb
np
74.13 64.63 m
24.67 0.50 l
24.67 1.56 l
24.66 3.72 l
24.67 7.44 l
24.67 13.31 l
24.66 21.88 l
24.67 33.83 l
24.67 49.84 l
o
0 0 0 srgb
66.24 207.36 111.66 -47.40 r p1
/bg { 1 0 0 srgb } def
74.88 195.40 2.16 c p2
/bg { 0 0 1 srgb } def
np
 74.88 186.80 m
2.91 -5.04 l
-5.82 0 l
cp p2
/bg { 0 1 0 srgb } def
np
 72.72 169.32 m
4.32 0 l
0 4.32 l
-4.32 0 l
cp p2
/Font1 findfont 10 s
83.52 191.49 (w=2, ) 0 0 t
107.70 191.49 (Eq. ) 0 0 t
125.49 191.49 (0.815) 0 0 t
150.51 191.49 (n) 0 0 t
/Font1 findfont 7 s
156.07 196.46 (2.376) 0 0 t
/Font1 findfont 10 s
83.52 179.53 (w=3, ) 0 0 t
107.70 179.53 (Eq. ) 0 0 t
125.49 179.53 (4.181) 0 0 t
150.51 179.53 (n) 0 0 t
/Font1 findfont 7 s
156.07 184.50 (2.888) 0 0 t
/Font1 findfont 10 s
83.52 167.57 (w=4, ) 0 0 t
107.70 167.57 (Eq. ) 0 0 t
125.49 167.57 (0.407) 0 0 t
150.51 167.57 (n) 0 0 t
/Font1 findfont 7 s
156.07 172.54 (4.493) 0 0 t
354.24 59.04 567.36 207.36 cl
/bg { 1 0 0 srgb } def
362.13 70.28 4.05 c p2
411.85 79.25 4.05 c p2
447.12 84.30 4.05 c p2
474.48 86.23 4.05 c p2
496.83 91.35 4.05 c p2
515.73 93.85 4.05 c p2
532.11 97.34 4.05 c p2
546.55 99.00 4.05 c p2
559.47 102.35 4.05 c p2
0.00 0.00 576.00 216.00 cl
0 0 0 srgb
0.75 setlinewidth
[] 0 setdash
1 setlinecap
1 setlinejoin
10.00 setmiterlimit
np
386.34 59.04 m
122.61 0 l
o
np
386.34 59.04 m
0 4.45 l
o
np
447.64 59.04 m
0 4.45 l
o
np
508.95 59.04 m
0 4.45 l
o
/Font1 findfont 12 s
386.34 33.12 (2.5) .5 0 t
447.64 33.12 (3.0) .5 0 t
508.95 33.12 (3.5) .5 0 t
np
354.24 64.53 m
0 137.34 l
o
np
354.24 64.53 m
4.45 0 l
o
np
354.24 110.31 m
4.45 0 l
o
np
354.24 156.09 m
4.45 0 l
o
np
354.24 201.87 m
4.45 0 l
o
336.96 64.53 (5) .5 90 t
336.96 110.31 (10) .5 90 t
336.96 156.09 (15) .5 90 t
336.96 201.87 (20) .5 90 t
np
354.24 59.04 m
213.12 0 l
0 148.32 l
-213.12 0 l
0 -148.32 l
o
288.00 0.00 576.00 216.00 cl
/Font1 findfont 14 s
0 0 0 srgb
441.58 7.76 (log) 0 0 t
/Font5 findfont 18 s
460.25 7.76 (\() 0 0 t
/Font1 findfont 14 s
466.25 7.76 (n) 0 0 t
/Font5 findfont 18 s
474.03 7.76 (\)) 0 0 t
/Font1 findfont 14 s
304.72 113.59 (log) 0 90 t
/Font5 findfont 18 s
304.72 132.27 (\() 0 90 t
/Font1 findfont 14 s
304.72 138.26 (T) 0 90 t
0.75 setlinewidth
[] 0 setdash
1 setlinecap
1 setlinejoin
10.00 setmiterlimit
np
292.66 138.26 m
0 8.56 l
o
/Font5 findfont 18 s
304.72 146.82 (\)) 0 90 t
354.24 59.04 567.36 207.36 cl
/bg { 0 0 1 srgb } def
np
 362.13 94.96 m
5.46 -9.45 l
-10.91 0 l
cp p2
np
 411.85 106.90 m
5.45 -9.45 l
-10.91 0 l
cp p2
np
 447.12 115.18 m
5.45 -9.45 l
-10.90 0 l
cp p2
np
 474.48 122.82 m
5.45 -9.45 l
-10.90 0 l
cp p2
np
 496.83 129.40 m
5.46 -9.45 l
-10.91 0 l
cp p2
np
 515.73 132.73 m
5.46 -9.45 l
-10.91 0 l
cp p2
np
 532.11 134.11 m
5.45 -9.45 l
-10.91 0 l
cp p2
np
 546.55 139.54 m
5.45 -9.44 l
-10.91 0 l
cp p2
np
 559.47 141.46 m
5.45 -9.45 l
-10.91 0 l
cp p2
/bg { 0 1 0 srgb } def
np
 358.08 103.47 m
8.10 0 l
0 8.10 l
-8.10 0 l
cp p2
np
 407.80 121.14 m
8.10 0 l
0 8.10 l
-8.10 0 l
cp p2
np
 443.07 131.58 m
8.10 0 l
0 8.10 l
-8.10 0 l
cp p2
np
 470.43 140.57 m
8.10 0 l
0 8.10 l
-8.10 0 l
cp p2
np
 492.78 146.65 m
8.10 0 l
0 8.10 l
-8.10 0 l
cp p2
np
 511.68 154.27 m
8.10 0 l
0 8.10 l
-8.10 0 l
cp p2
np
 528.06 159.19 m
8.10 0 l
0 8.10 l
-8.10 0 l
cp p2
np
 542.50 161.44 m
8.10 0 l
0 8.10 l
-8.10 0 l
cp p2
np
 555.42 167.73 m
8.10 0 l
0 8.10 l
-8.10 0 l
cp p2
1 0 0 srgb
0.75 setlinewidth
[] 0 setdash
1 setlinecap
1 setlinejoin
10.00 setmiterlimit
np
362.13 70.45 m
49.72 7.77 l
35.27 5.51 l
27.36 4.28 l
22.35 3.49 l
18.90 2.96 l
16.38 2.55 l
14.44 2.26 l
12.92 2.02 l
o
0 0 1 srgb
np
362.13 89.07 m
49.72 11.84 l
35.27 8.39 l
27.36 6.51 l
22.35 5.32 l
18.90 4.50 l
16.38 3.90 l
14.44 3.44 l
12.92 3.07 l
o
0 1 0 srgb
np
362.13 108.39 m
49.72 15.87 l
35.27 11.26 l
27.36 8.73 l
22.35 7.14 l
18.90 6.03 l
16.38 5.22 l
14.44 4.61 l
12.92 4.13 l
o
0 0 0 srgb
354.24 207.36 145.01 -46.08 r p1
/bg { 1 0 0 srgb } def
362.88 195.84 2.16 c p2
/bg { 0 0 1 srgb } def
np
 362.88 187.68 m
2.91 -5.04 l
-5.82 0 l
cp p2
/bg { 0 1 0 srgb } def
np
 360.72 170.64 m
4.32 0 l
0 4.32 l
-4.32 0 l
cp p2
/Font1 findfont 10 s
371.52 192.25 (w=2, Eq. 2.093log\(n\)+0.828) 0 0 t
371.52 180.73 (w=3, Eq. 3.188log\(n\)+0.341) 0 0 t
371.52 169.21 (w=4, Eq. 4.274log\(n\)-0.052) 0 0 t
ep
%%Trailer
%%Pages: 1
%%EOF
