%!PS-Adobe-3.0 EPSF-3.0
%%DocumentNeededResources: font Helvetica
%%+ font Helvetica-Bold
%%+ font Helvetica-Oblique
%%+ font Helvetica-BoldOblique
%%+ font Symbol
%%Title: R Graphics Output
%%Creator: R Software
%%Pages: (atend)
%%BoundingBox: 0 0 360 360
%%EndComments
%%BeginProlog
/bp  { gs sRGB gs } def
% begin .ps.prolog
/gs  { gsave } bind def
/gr  { grestore } bind def
/ep  { showpage gr gr } bind def
/m   { moveto } bind def
/l  { rlineto } bind def
/np  { newpath } bind def
/cp  { closepath } bind def
/f   { fill } bind def
/o   { stroke } bind def
/c   { newpath 0 360 arc } bind def
/r   { 4 2 roll moveto 1 copy 3 -1 roll exch 0 exch rlineto 0 rlineto -1 mul 0 exch rlineto closepath } bind def
/p1  { stroke } bind def
/p2  { gsave bg fill grestore newpath } bind def
/p3  { gsave bg fill grestore stroke } bind def
/p6  { gsave bg eofill grestore newpath } bind def
/p7  { gsave bg eofill grestore stroke } bind def
/t   { 5 -2 roll moveto gsave rotate
       1 index stringwidth pop
       mul neg 0 rmoveto show grestore } bind def
/ta  { 4 -2 roll moveto gsave rotate show } bind def
/tb  { 2 -1 roll 0 rmoveto show } bind def
/cl  { grestore gsave newpath 3 index 3 index moveto 1 index
       4 -1 roll lineto  exch 1 index lineto lineto
       closepath clip newpath } bind def
/rgb { setrgbcolor } bind def
/s   { scalefont setfont } bind def
% end   .ps.prolog
/sRGB { [ /CIEBasedABC
          << /DecodeLMN
               [ { dup 0.03928 le
                        {12.92321 div}
                        {0.055 add 1.055 div 2.4 exp }
                     ifelse
                 } bind dup dup
               ]
             /MatrixLMN [0.412457 0.212673 0.019334
                         0.357576 0.715152 0.119192
                         0.180437 0.072175 0.950301]
             /WhitePoint [0.9505 1.0 1.0890]
           >>
         ] setcolorspace } bind def
/srgb { setcolor } bind def
%%IncludeResource: font Helvetica
/Helvetica findfont
dup length dict begin
  {1 index /FID ne {def} {pop pop} ifelse} forall
  /Encoding ISOLatin1Encoding def
  currentdict
  end
/Font1 exch definefont pop
%%IncludeResource: font Helvetica-Bold
/Helvetica-Bold findfont
dup length dict begin
  {1 index /FID ne {def} {pop pop} ifelse} forall
  /Encoding ISOLatin1Encoding def
  currentdict
  end
/Font2 exch definefont pop
%%IncludeResource: font Helvetica-Oblique
/Helvetica-Oblique findfont
dup length dict begin
  {1 index /FID ne {def} {pop pop} ifelse} forall
  /Encoding ISOLatin1Encoding def
  currentdict
  end
/Font3 exch definefont pop
%%IncludeResource: font Helvetica-BoldOblique
/Helvetica-BoldOblique findfont
dup length dict begin
  {1 index /FID ne {def} {pop pop} ifelse} forall
  /Encoding ISOLatin1Encoding def
  currentdict
  end
/Font4 exch definefont pop
%%IncludeResource: font Symbol
/Symbol findfont
dup length dict begin
  {1 index /FID ne {def} {pop pop} ifelse} forall
  currentdict
  end
/Font5 exch definefont pop
%%EndProlog
%%Page: 1 1
bp
59.04 73.44 344.16 329.76 cl
/bg { 1 0 0 srgb } def
69.60 92.87 2.70 c p2
136.11 108.36 2.70 c p2
183.30 117.09 2.70 c p2
219.90 120.43 2.70 c p2
249.81 129.28 2.70 c p2
275.09 133.60 2.70 c p2
297.00 139.63 2.70 c p2
316.32 142.49 2.70 c p2
333.60 148.28 2.70 c p2
0.00 0.00 360.00 360.00 cl
0 0 0 srgb
0.75 setlinewidth
[] 0 setdash
1 setlinecap
1 setlinejoin
10.00 setmiterlimit
np
101.98 73.44 m
164.03 0 l
o
np
101.98 73.44 m
0 -7.20 l
o
np
184.00 73.44 m
0 -7.20 l
o
np
266.01 73.44 m
0 -7.20 l
o
/Font1 findfont 12 s
101.98 47.52 (2.5) .5 0 t
184.00 47.52 (3.0) .5 0 t
266.01 47.52 (3.5) .5 0 t
np
59.04 82.93 m
0 237.34 l
o
np
59.04 82.93 m
-7.20 0 l
o
np
59.04 162.04 m
-7.20 0 l
o
np
59.04 241.16 m
-7.20 0 l
o
np
59.04 320.27 m
-7.20 0 l
o
41.76 82.93 (5) .5 90 t
41.76 162.04 (10) .5 90 t
41.76 241.16 (15) .5 90 t
41.76 320.27 (20) .5 90 t
np
59.04 73.44 m
285.12 0 l
0 256.32 l
-285.12 0 l
0 -256.32 l
o
0.00 0.00 360.00 360.00 cl
/Font1 findfont 12 s
0 0 0 srgb
127.57 18.72 (Logar) 0 ta
0.180 (ithm of prob) tb
-0.240 (lem siz) tb
-0.180 (e n) tb gr
12.96 123.23 (Logar) 90 ta
0.180 (ithm of a) tb
-0.240 (v) tb
-0.300 (er) tb
-0.120 (age r) tb
0.180 (untime) tb gr
59.04 73.44 344.16 329.76 cl
/bg { 0 0 1 srgb } def
np
 69.60 128.83 m
3.64 -6.30 l
-7.28 0 l
cp p2
np
 136.11 149.46 m
3.64 -6.30 l
-7.28 0 l
cp p2
np
 183.30 163.77 m
3.63 -6.30 l
-7.27 0 l
cp p2
np
 219.90 176.98 m
3.64 -6.30 l
-7.27 0 l
cp p2
np
 249.81 188.34 m
3.63 -6.30 l
-7.27 0 l
cp p2
np
 275.09 194.10 m
3.64 -6.30 l
-7.27 0 l
cp p2
np
 297.00 196.49 m
3.63 -6.30 l
-7.27 0 l
cp p2
np
 316.32 205.88 m
3.63 -6.30 l
-7.27 0 l
cp p2
np
 333.60 209.19 m
3.64 -6.30 l
-7.28 0 l
cp p2
/bg { 0 1 0 srgb } def
np
 66.90 154.52 m
5.40 0 l
0 5.40 l
-5.40 0 l
cp p2
np
 133.41 185.06 m
5.40 0 l
0 5.40 l
-5.40 0 l
cp p2
np
 180.60 203.10 m
5.40 0 l
0 5.40 l
-5.40 0 l
cp p2
np
 217.20 218.63 m
5.40 0 l
0 5.40 l
-5.40 0 l
cp p2
np
 247.11 229.14 m
5.40 0 l
0 5.40 l
-5.40 0 l
cp p2
np
 272.39 242.31 m
5.40 0 l
0 5.40 l
-5.40 0 l
cp p2
np
 294.30 250.81 m
5.40 0 l
0 5.40 l
-5.40 0 l
cp p2
np
 313.62 254.70 m
5.40 0 l
0 5.40 l
-5.40 0 l
cp p2
np
 330.90 265.58 m
5.40 0 l
0 5.40 l
-5.40 0 l
cp p2
1 0 0 srgb
0.75 setlinewidth
[] 0 setdash
1 setlinecap
1 setlinejoin
10.00 setmiterlimit
np
69.60 93.16 m
66.51 13.43 l
47.19 9.52 l
36.60 7.39 l
29.91 6.04 l
25.28 5.10 l
21.91 4.42 l
19.32 3.90 l
17.28 3.49 l
o
0.4784 0.4784 0.4784 srgb
1.50 setlinewidth
[ 0.00 6.00] 0 setdash
np
101.98 73.44 m
0 256.32 l
o
np
184.00 73.44 m
0 256.32 l
o
np
266.01 73.44 m
0 256.32 l
o
np
59.04 82.93 m
285.12 0 l
o
np
59.04 162.04 m
285.12 0 l
o
np
59.04 241.16 m
285.12 0 l
o
np
59.04 320.27 m
285.12 0 l
o
0 0 1 srgb
0.75 setlinewidth
[] 0 setdash
np
69.60 125.34 m
66.51 20.45 l
47.19 14.51 l
36.60 11.25 l
29.91 9.20 l
25.28 7.77 l
21.91 6.74 l
19.32 5.94 l
17.28 5.31 l
o
0.4784 0.4784 0.4784 srgb
1.50 setlinewidth
[ 0.00 6.00] 0 setdash
np
101.98 73.44 m
0 256.32 l
o
np
184.00 73.44 m
0 256.32 l
o
np
266.01 73.44 m
0 256.32 l
o
np
59.04 82.93 m
285.12 0 l
o
np
59.04 162.04 m
285.12 0 l
o
np
59.04 241.16 m
285.12 0 l
o
np
59.04 320.27 m
285.12 0 l
o
0 1 0 srgb
0.75 setlinewidth
[] 0 setdash
np
69.60 158.73 m
66.51 27.42 l
47.19 19.46 l
36.60 15.09 l
29.91 12.33 l
25.28 10.42 l
21.91 9.03 l
19.32 7.97 l
17.28 7.13 l
o
0.4784 0.4784 0.4784 srgb
1.50 setlinewidth
[ 0.00 6.00] 0 setdash
np
101.98 73.44 m
0 256.32 l
o
np
184.00 73.44 m
0 256.32 l
o
np
266.01 73.44 m
0 256.32 l
o
np
59.04 82.93 m
285.12 0 l
o
np
59.04 162.04 m
285.12 0 l
o
np
59.04 241.16 m
285.12 0 l
o
np
59.04 320.27 m
285.12 0 l
o
ep
%%Trailer
%%Pages: 1
%%EOF
