%!PS-Adobe-3.0 EPSF-3.0
%%DocumentNeededResources: font Helvetica
%%+ font Helvetica-Bold
%%+ font Helvetica-Oblique
%%+ font Helvetica-BoldOblique
%%+ font Symbol
%%Title: R Graphics Output
%%Creator: R Software
%%Pages: (atend)
%%BoundingBox: 0 0 576 216
%%EndComments
%%BeginProlog
/bp  { gs sRGB gs } def
% begin .ps.prolog
/gs  { gsave } bind def
/gr  { grestore } bind def
/ep  { showpage gr gr } bind def
/m   { moveto } bind def
/l  { rlineto } bind def
/np  { newpath } bind def
/cp  { closepath } bind def
/f   { fill } bind def
/o   { stroke } bind def
/c   { newpath 0 360 arc } bind def
/r   { 4 2 roll moveto 1 copy 3 -1 roll exch 0 exch rlineto 0 rlineto -1 mul 0 exch rlineto closepath } bind def
/p1  { stroke } bind def
/p2  { gsave bg fill grestore newpath } bind def
/p3  { gsave bg fill grestore stroke } bind def
/p6  { gsave bg eofill grestore newpath } bind def
/p7  { gsave bg eofill grestore stroke } bind def
/t   { 5 -2 roll moveto gsave rotate
       1 index stringwidth pop
       mul neg 0 rmoveto show grestore } bind def
/ta  { 4 -2 roll moveto gsave rotate show } bind def
/tb  { 2 -1 roll 0 rmoveto show } bind def
/cl  { grestore gsave newpath 3 index 3 index moveto 1 index
       4 -1 roll lineto  exch 1 index lineto lineto
       closepath clip newpath } bind def
/rgb { setrgbcolor } bind def
/s   { scalefont setfont } bind def
% end   .ps.prolog
/sRGB { [ /CIEBasedABC
          << /DecodeLMN
               [ { dup 0.03928 le
                        {12.92321 div}
                        {0.055 add 1.055 div 2.4 exp }
                     ifelse
                 } bind dup dup
               ]
             /MatrixLMN [0.412457 0.212673 0.019334
                         0.357576 0.715152 0.119192
                         0.180437 0.072175 0.950301]
             /WhitePoint [0.9505 1.0 1.0890]
           >>
         ] setcolorspace } bind def
/srgb { setcolor } bind def
%%IncludeResource: font Helvetica
/Helvetica findfont
dup length dict begin
  {1 index /FID ne {def} {pop pop} ifelse} forall
  /Encoding ISOLatin1Encoding def
  currentdict
  end
/Font1 exch definefont pop
%%IncludeResource: font Helvetica-Bold
/Helvetica-Bold findfont
dup length dict begin
  {1 index /FID ne {def} {pop pop} ifelse} forall
  /Encoding ISOLatin1Encoding def
  currentdict
  end
/Font2 exch definefont pop
%%IncludeResource: font Helvetica-Oblique
/Helvetica-Oblique findfont
dup length dict begin
  {1 index /FID ne {def} {pop pop} ifelse} forall
  /Encoding ISOLatin1Encoding def
  currentdict
  end
/Font3 exch definefont pop
%%IncludeResource: font Helvetica-BoldOblique
/Helvetica-BoldOblique findfont
dup length dict begin
  {1 index /FID ne {def} {pop pop} ifelse} forall
  /Encoding ISOLatin1Encoding def
  currentdict
  end
/Font4 exch definefont pop
%%IncludeResource: font Symbol
/Symbol findfont
dup length dict begin
  {1 index /FID ne {def} {pop pop} ifelse} forall
  currentdict
  end
/Font5 exch definefont pop
%%EndProlog
%%Page: 1 1
bp
66.24 66.24 567.36 207.36 cl
0 0 1 srgb
0.75 setlinewidth
[] 0 setdash
1 setlinecap
1 setlinejoin
10.00 setmiterlimit
np
84.80 120.63 m
58.00 -29.95 l
58.00 -9.23 l
58.00 -3.65 l
58.00 -2.57 l
58.00 -1.36 l
58.00 -0.53 l
58.00 -0.22 l
58.00 -0.32 l
o
/bg { 0 0 1 srgb } def
np
 84.80 126.93 m
5.45 -9.45 l
-10.90 0 l
cp p2
np
 142.80 96.98 m
5.45 -9.45 l
-10.90 0 l
cp p2
np
 200.80 87.75 m
5.45 -9.45 l
-10.90 0 l
cp p2
np
 258.80 84.10 m
5.45 -9.45 l
-10.90 0 l
cp p2
np
 316.80 81.53 m
5.45 -9.45 l
-10.90 0 l
cp p2
np
 374.80 80.16 m
5.45 -9.44 l
-10.90 0 l
cp p2
np
 432.80 79.64 m
5.45 -9.45 l
-10.90 0 l
cp p2
np
 490.80 79.42 m
5.45 -9.45 l
-10.90 0 l
cp p2
np
 548.80 79.10 m
5.45 -9.45 l
-10.90 0 l
cp p2
0.00 0.00 576.00 216.00 cl
0 0 0 srgb
0.75 setlinewidth
[] 0 setdash
1 setlinecap
1 setlinejoin
10.00 setmiterlimit
np
84.80 66.24 m
464.00 0 l
o
np
84.80 66.24 m
0 4.23 l
o
np
200.80 66.24 m
0 4.23 l
o
np
316.80 66.24 m
0 4.23 l
o
np
432.80 66.24 m
0 4.23 l
o
np
548.80 66.24 m
0 4.23 l
o
/Font1 findfont 12 s
84.80 40.32 (2) .5 0 t
200.80 40.32 (4) .5 0 t
316.80 40.32 (6) .5 0 t
432.80 40.32 (8) .5 0 t
548.80 40.32 (10) .5 0 t
np
66.24 71.47 m
0 123.14 l
o
np
66.24 71.47 m
4.23 0 l
o
np
66.24 91.99 m
4.23 0 l
o
np
66.24 112.52 m
4.23 0 l
o
np
66.24 133.04 m
4.23 0 l
o
np
66.24 153.57 m
4.23 0 l
o
np
66.24 174.09 m
4.23 0 l
o
np
66.24 194.61 m
4.23 0 l
o
48.96 71.47 (0) .5 90 t
48.96 112.52 (1000000) .5 90 t
48.96 174.09 (2500000) .5 90 t
np
66.24 66.24 m
501.12 0 l
0 141.12 l
-501.12 0 l
0 -141.12 l
o
0.00 0.00 576.00 216.00 cl
/Font1 findfont 12 s
0 0 0 srgb
316.80 11.52 (w) .5 0 t
20.16 133.13 (T) 0 90 t
0.75 setlinewidth
[] 0 setdash
1 setlinecap
1 setlinejoin
10.00 setmiterlimit
np
9.82 133.13 m
0 7.34 l
o
66.24 66.24 567.36 207.36 cl
0 1 0 srgb
0.75 setlinewidth
[] 0 setdash
1 setlinecap
1 setlinejoin
10.00 setmiterlimit
np
84.80 74.13 m
58.00 75.83 l
58.00 -29.17 l
58.00 -22.70 l
58.00 -5.92 l
58.00 -5.69 l
58.00 -5.76 l
58.00 -1.52 l
58.00 -1.10 l
o
/bg { 0 1 0 srgb } def
np
 80.75 70.08 m
8.10 0 l
0 8.10 l
-8.10 0 l
cp p2
np
 138.75 145.91 m
8.10 0 l
0 8.10 l
-8.10 0 l
cp p2
np
 196.75 116.74 m
8.10 0 l
0 8.10 l
-8.10 0 l
cp p2
np
 254.75 94.04 m
8.10 0 l
0 8.10 l
-8.10 0 l
cp p2
np
 312.75 88.12 m
8.10 0 l
0 8.10 l
-8.10 0 l
cp p2
np
 370.75 82.43 m
8.10 0 l
0 8.10 l
-8.10 0 l
cp p2
np
 428.75 76.67 m
8.10 0 l
0 8.10 l
-8.10 0 l
cp p2
np
 486.75 75.15 m
8.10 0 l
0 8.10 l
-8.10 0 l
cp p2
np
 544.75 74.05 m
8.10 0 l
0 8.10 l
-8.10 0 l
cp p2
1 0 0 srgb
np
84.80 72.89 m
58.00 129.24 l
o
/bg { 1 0 0 srgb } def
84.80 72.89 4.05 c p2
142.80 202.13 4.05 c p2
0 0 0 srgb
479.62 207.36 87.74 -46.08 r p1
488.26 195.84 2.16 c p2
/bg { 0 0 1 srgb } def
np
 488.26 187.68 m
2.91 -5.04 l
-5.82 0 l
cp p2
/bg { 0 1 0 srgb } def
np
 486.10 170.64 m
4.32 0 l
0 4.32 l
-4.32 0 l
cp p2
/Font1 findfont 10 s
496.90 192.25 (\(1+1\)EA) 0 0 t
496.90 180.73 (\(1+1\)MA-FILS) 0 0 t
496.90 169.21 (\(1+1\)MA-BILS) 0 0 t
ep
%%Trailer
%%Pages: 1
%%EOF
