%!PS-Adobe-3.0 EPSF-3.0
%%DocumentNeededResources: font Helvetica
%%+ font Helvetica-Bold
%%+ font Helvetica-Oblique
%%+ font Helvetica-BoldOblique
%%+ font Symbol
%%Title: R Graphics Output
%%Creator: R Software
%%Pages: (atend)
%%BoundingBox: 0 0 576 288
%%EndComments
%%BeginProlog
/bp  { gs sRGB gs } def
% begin .ps.prolog
/gs  { gsave } bind def
/gr  { grestore } bind def
/ep  { showpage gr gr } bind def
/m   { moveto } bind def
/l  { rlineto } bind def
/np  { newpath } bind def
/cp  { closepath } bind def
/f   { fill } bind def
/o   { stroke } bind def
/c   { newpath 0 360 arc } bind def
/r   { 4 2 roll moveto 1 copy 3 -1 roll exch 0 exch rlineto 0 rlineto -1 mul 0 exch rlineto closepath } bind def
/p1  { stroke } bind def
/p2  { gsave bg fill grestore newpath } bind def
/p3  { gsave bg fill grestore stroke } bind def
/p6  { gsave bg eofill grestore newpath } bind def
/p7  { gsave bg eofill grestore stroke } bind def
/t   { 5 -2 roll moveto gsave rotate
       1 index stringwidth pop
       mul neg 0 rmoveto show grestore } bind def
/ta  { 4 -2 roll moveto gsave rotate show } bind def
/tb  { 2 -1 roll 0 rmoveto show } bind def
/cl  { grestore gsave newpath 3 index 3 index moveto 1 index
       4 -1 roll lineto  exch 1 index lineto lineto
       closepath clip newpath } bind def
/rgb { setrgbcolor } bind def
/s   { scalefont setfont } bind def
% end   .ps.prolog
/sRGB { [ /CIEBasedABC
          << /DecodeLMN
               [ { dup 0.03928 le
                        {12.92321 div}
                        {0.055 add 1.055 div 2.4 exp }
                     ifelse
                 } bind dup dup
               ]
             /MatrixLMN [0.412457 0.212673 0.019334
                         0.357576 0.715152 0.119192
                         0.180437 0.072175 0.950301]
             /WhitePoint [0.9505 1.0 1.0890]
           >>
         ] setcolorspace } bind def
/srgb { setcolor } bind def
%%IncludeResource: font Helvetica
/Helvetica findfont
dup length dict begin
  {1 index /FID ne {def} {pop pop} ifelse} forall
  /Encoding ISOLatin1Encoding def
  currentdict
  end
/Font1 exch definefont pop
%%IncludeResource: font Helvetica-Bold
/Helvetica-Bold findfont
dup length dict begin
  {1 index /FID ne {def} {pop pop} ifelse} forall
  /Encoding ISOLatin1Encoding def
  currentdict
  end
/Font2 exch definefont pop
%%IncludeResource: font Helvetica-Oblique
/Helvetica-Oblique findfont
dup length dict begin
  {1 index /FID ne {def} {pop pop} ifelse} forall
  /Encoding ISOLatin1Encoding def
  currentdict
  end
/Font3 exch definefont pop
%%IncludeResource: font Helvetica-BoldOblique
/Helvetica-BoldOblique findfont
dup length dict begin
  {1 index /FID ne {def} {pop pop} ifelse} forall
  /Encoding ISOLatin1Encoding def
  currentdict
  end
/Font4 exch definefont pop
%%IncludeResource: font Symbol
/Symbol findfont
dup length dict begin
  {1 index /FID ne {def} {pop pop} ifelse} forall
  currentdict
  end
/Font5 exch definefont pop
%%EndProlog
%%Page: 1 1
bp
66.24 66.24 279.36 279.36 cl
1 0 0 srgb
0.75 setlinewidth
[] 0 setdash
1 setlinecap
1 setlinejoin
10.00 setmiterlimit
np
74.13 249.02 m
32.89 -38.98 l
32.89 -11.94 l
32.89 -5.76 l
32.89 7.66 l
32.89 5.30 l
32.89 6.47 l
o
/bg { 1 0 0 srgb } def
74.13 249.02 4.05 c p2
107.02 210.04 4.05 c p2
139.91 198.10 4.05 c p2
172.80 192.34 4.05 c p2
205.69 200.00 4.05 c p2
238.58 205.30 4.05 c p2
271.47 211.77 4.05 c p2
0.00 0.00 576.00 288.00 cl
0 0 0 srgb
0.75 setlinewidth
[] 0 setdash
1 setlinecap
1 setlinejoin
10.00 setmiterlimit
np
74.13 66.24 m
197.34 0 l
o
np
74.13 66.24 m
0 6.39 l
o
np
107.02 66.24 m
0 6.39 l
o
np
139.91 66.24 m
0 6.39 l
o
np
172.80 66.24 m
0 6.39 l
o
np
205.69 66.24 m
0 6.39 l
o
np
238.58 66.24 m
0 6.39 l
o
np
271.47 66.24 m
0 6.39 l
o
/Font1 findfont 12 s
74.13 40.32 (1) .5 0 t
107.02 40.32 (2) .5 0 t
139.91 40.32 (3) .5 0 t
172.80 40.32 (4) .5 0 t
205.69 40.32 (5) .5 0 t
238.58 40.32 (6) .5 0 t
271.47 40.32 (7) .5 0 t
np
66.24 74.13 m
0 197.34 l
o
np
66.24 74.13 m
6.39 0 l
o
np
66.24 113.60 m
6.39 0 l
o
np
66.24 153.07 m
6.39 0 l
o
np
66.24 192.53 m
6.39 0 l
o
np
66.24 232.00 m
6.39 0 l
o
np
66.24 271.47 m
6.39 0 l
o
48.96 74.13 (4) .5 90 t
48.96 113.60 (6) .5 90 t
48.96 153.07 (8) .5 90 t
48.96 192.53 (10) .5 90 t
48.96 232.00 (12) .5 90 t
48.96 271.47 (14) .5 90 t
np
66.24 66.24 m
213.12 0 l
0 213.12 l
-213.12 0 l
0 -213.12 l
o
0.00 0.00 288.00 288.00 cl
/Font1 findfont 14 s
0 0 0 srgb
119.50 11.52 (Mutation r) 0 ta
-0.140 (ate \(/n\)) tb gr
16.72 153.19 (log) 0 90 t
/Font5 findfont 18 s
16.72 171.87 (\() 0 90 t
/Font1 findfont 14 s
16.72 177.86 (T) 0 90 t
0.75 setlinewidth
[] 0 setdash
1 setlinecap
1 setlinejoin
10.00 setmiterlimit
np
4.66 177.86 m
0 8.55 l
o
/Font5 findfont 18 s
16.72 186.41 (\)) 0 90 t
66.24 66.24 279.36 279.36 cl
0 0 1 srgb
0.75 setlinewidth
[] 0 setdash
1 setlinecap
1 setlinejoin
10.00 setmiterlimit
np
74.13 136.41 m
32.89 0.89 l
32.89 2.73 l
32.89 4.40 l
32.89 8.16 l
32.89 5.05 l
32.89 12.80 l
o
/bg { 0 0 1 srgb } def
np
 74.13 142.71 m
5.46 -9.45 l
-10.91 0 l
cp p2
np
 107.02 143.60 m
5.46 -9.45 l
-10.91 0 l
cp p2
np
 139.91 146.33 m
5.46 -9.45 l
-10.91 0 l
cp p2
np
 172.80 150.73 m
5.45 -9.45 l
-10.90 0 l
cp p2
np
 205.69 158.89 m
5.45 -9.45 l
-10.91 0 l
cp p2
np
 238.58 163.94 m
5.45 -9.44 l
-10.91 0 l
cp p2
np
 271.47 176.74 m
5.45 -9.45 l
-10.91 0 l
cp p2
0 1 0 srgb
np
74.13 166.40 m
32.89 -7.52 l
32.89 1.51 l
32.89 2.34 l
32.89 11.80 l
32.89 3.96 l
32.89 14.21 l
o
/bg { 0 1 0 srgb } def
np
 70.08 162.35 m
8.10 0 l
0 8.10 l
-8.10 0 l
cp p2
np
 102.97 154.83 m
8.10 0 l
0 8.10 l
-8.10 0 l
cp p2
np
 135.86 156.34 m
8.10 0 l
0 8.10 l
-8.10 0 l
cp p2
np
 168.75 158.68 m
8.10 0 l
0 8.10 l
-8.10 0 l
cp p2
np
 201.64 170.48 m
8.10 0 l
0 8.10 l
-8.10 0 l
cp p2
np
 234.53 174.44 m
8.10 0 l
0 8.10 l
-8.10 0 l
cp p2
np
 267.42 188.65 m
8.10 0 l
0 8.10 l
-8.10 0 l
cp p2
0 0 0 srgb
191.62 112.32 87.74 -46.08 r p1
/bg { 1 0 0 srgb } def
200.26 100.80 2.16 c p2
/bg { 0 0 1 srgb } def
np
 200.26 92.64 m
2.91 -5.04 l
-5.82 0 l
cp p2
/bg { 0 1 0 srgb } def
np
 198.10 75.60 m
4.32 0 l
0 4.32 l
-4.32 0 l
cp p2
/Font1 findfont 10 s
208.90 97.21 (\(1+1\)EA) 0 0 t
208.90 85.69 (\(1+1\)MA-FILS) 0 0 t
208.90 74.17 (\(1+1\)MA-BILS) 0 0 t
1.12 setlinewidth
[] 0 setdash
np
172.80 241.87 m
0 -29.60 l
o
np
169.20 218.50 m
3.60 -6.23 l
3.60 6.23 l
o
np
107.02 198.45 m
0 -29.60 l
o
np
103.42 175.09 m
3.60 -6.24 l
3.60 6.24 l
o
np
74.13 93.87 m
0 29.60 l
o
np
77.73 117.23 m
-3.60 6.24 l
-3.60 -6.24 l
o
354.24 66.24 567.36 279.36 cl
0 0 1 srgb
0.75 setlinewidth
[] 0 setdash
1 setlinecap
1 setlinejoin
10.00 setmiterlimit
np
362.13 148.38 m
24.67 -45.23 l
24.67 -13.94 l
24.66 -5.51 l
24.67 -3.88 l
24.67 -2.06 l
24.66 -0.79 l
24.67 -0.34 l
24.67 -0.49 l
o
/bg { 0 0 1 srgb } def
np
 362.13 154.68 m
5.46 -9.45 l
-10.91 0 l
cp p2
np
 386.80 109.44 m
5.45 -9.44 l
-10.90 0 l
cp p2
np
 411.47 95.51 m
5.45 -9.45 l
-10.91 0 l
cp p2
np
 436.13 90.00 m
5.46 -9.45 l
-10.91 0 l
cp p2
np
 460.80 86.12 m
5.45 -9.45 l
-10.90 0 l
cp p2
np
 485.47 84.05 m
5.45 -9.44 l
-10.91 0 l
cp p2
np
 510.13 83.26 m
5.46 -9.44 l
-10.91 0 l
cp p2
np
 534.80 82.92 m
5.45 -9.44 l
-10.90 0 l
cp p2
np
 559.47 82.44 m
5.45 -9.44 l
-10.91 0 l
cp p2
0.00 0.00 576.00 288.00 cl
0 0 0 srgb
0.75 setlinewidth
[] 0 setdash
1 setlinecap
1 setlinejoin
10.00 setmiterlimit
np
362.13 66.24 m
197.34 0 l
o
np
362.13 66.24 m
0 6.39 l
o
np
411.47 66.24 m
0 6.39 l
o
np
460.80 66.24 m
0 6.39 l
o
np
510.13 66.24 m
0 6.39 l
o
np
559.47 66.24 m
0 6.39 l
o
/Font1 findfont 12 s
362.13 40.32 (2) .5 0 t
411.47 40.32 (4) .5 0 t
460.80 40.32 (6) .5 0 t
510.13 40.32 (8) .5 0 t
559.47 40.32 (10) .5 0 t
np
354.24 74.13 m
0 185.98 l
o
np
354.24 74.13 m
6.39 0 l
o
np
354.24 105.13 m
6.39 0 l
o
np
354.24 136.13 m
6.39 0 l
o
np
354.24 167.12 m
6.39 0 l
o
np
354.24 198.12 m
6.39 0 l
o
np
354.24 229.12 m
6.39 0 l
o
np
354.24 260.11 m
6.39 0 l
o
336.96 74.13 (0) .5 90 t
336.96 136.13 (1000000) .5 90 t
336.96 198.12 (2000000) .5 90 t
336.96 260.11 (3000000) .5 90 t
np
354.24 66.24 m
213.12 0 l
0 213.12 l
-213.12 0 l
0 -213.12 l
o
288.00 0.00 576.00 288.00 cl
/Font1 findfont 12 s
0 0 0 srgb
460.80 11.52 (w) .5 0 t
308.16 169.13 (T) 0 90 t
0.75 setlinewidth
[] 0 setdash
1 setlinecap
1 setlinejoin
10.00 setmiterlimit
np
297.82 169.13 m
0 7.34 l
o
354.24 66.24 567.36 279.36 cl
0 1 0 srgb
0.75 setlinewidth
[] 0 setdash
1 setlinecap
1 setlinejoin
10.00 setmiterlimit
np
362.13 78.16 m
24.67 114.52 l
24.67 -44.06 l
24.66 -34.28 l
24.67 -8.95 l
24.67 -8.59 l
24.66 -8.70 l
24.67 -2.29 l
24.67 -1.65 l
o
/bg { 0 1 0 srgb } def
np
 358.08 74.11 m
8.10 0 l
0 8.10 l
-8.10 0 l
cp p2
np
 382.75 188.63 m
8.10 0 l
0 8.10 l
-8.10 0 l
cp p2
np
 407.42 144.57 m
8.10 0 l
0 8.10 l
-8.10 0 l
cp p2
np
 432.08 110.29 m
8.10 0 l
0 8.10 l
-8.10 0 l
cp p2
np
 456.75 101.34 m
8.10 0 l
0 8.10 l
-8.10 0 l
cp p2
np
 481.42 92.75 m
8.10 0 l
0 8.10 l
-8.10 0 l
cp p2
np
 506.08 84.05 m
8.10 0 l
0 8.10 l
-8.10 0 l
cp p2
np
 530.75 81.76 m
8.10 0 l
0 8.10 l
-8.10 0 l
cp p2
np
 555.42 80.11 m
8.10 0 l
0 8.10 l
-8.10 0 l
cp p2
1 0 0 srgb
np
362.13 76.29 m
24.67 195.18 l
o
/bg { 1 0 0 srgb } def
362.13 76.29 4.05 c p2
386.80 271.47 4.05 c p2
0 0 0 srgb
479.62 279.36 87.74 -46.08 r p1
488.26 267.84 2.16 c p2
/bg { 0 0 1 srgb } def
np
 488.26 259.68 m
2.91 -5.04 l
-5.82 0 l
cp p2
/bg { 0 1 0 srgb } def
np
 486.10 242.64 m
4.32 0 l
0 4.32 l
-4.32 0 l
cp p2
/Font1 findfont 10 s
496.90 264.25 (\(1+1\)EA) 0 0 t
496.90 252.73 (\(1+1\)MA-FILS) 0 0 t
496.90 241.21 (\(1+1\)MA-BILS) 0 0 t
ep
%%Trailer
%%Pages: 1
%%EOF
