%!PS-Adobe-3.0 EPSF-3.0
%%DocumentNeededResources: font Helvetica
%%+ font Helvetica-Bold
%%+ font Helvetica-Oblique
%%+ font Helvetica-BoldOblique
%%+ font Symbol
%%Title: R Graphics Output
%%Creator: R Software
%%Pages: (atend)
%%BoundingBox: 0 0 288 216
%%EndComments
%%BeginProlog
/bp  { gs sRGB gs } def
% begin .ps.prolog
/gs  { gsave } bind def
/gr  { grestore } bind def
/ep  { showpage gr gr } bind def
/m   { moveto } bind def
/l  { rlineto } bind def
/np  { newpath } bind def
/cp  { closepath } bind def
/f   { fill } bind def
/o   { stroke } bind def
/c   { newpath 0 360 arc } bind def
/r   { 4 2 roll moveto 1 copy 3 -1 roll exch 0 exch rlineto 0 rlineto -1 mul 0 exch rlineto closepath } bind def
/p1  { stroke } bind def
/p2  { gsave bg fill grestore newpath } bind def
/p3  { gsave bg fill grestore stroke } bind def
/p6  { gsave bg eofill grestore newpath } bind def
/p7  { gsave bg eofill grestore stroke } bind def
/t   { 5 -2 roll moveto gsave rotate
       1 index stringwidth pop
       mul neg 0 rmoveto show grestore } bind def
/ta  { 4 -2 roll moveto gsave rotate show } bind def
/tb  { 2 -1 roll 0 rmoveto show } bind def
/cl  { grestore gsave newpath 3 index 3 index moveto 1 index
       4 -1 roll lineto  exch 1 index lineto lineto
       closepath clip newpath } bind def
/rgb { setrgbcolor } bind def
/s   { scalefont setfont } bind def
% end   .ps.prolog
/sRGB { [ /CIEBasedABC
          << /DecodeLMN
               [ { dup 0.03928 le
                        {12.92321 div}
                        {0.055 add 1.055 div 2.4 exp }
                     ifelse
                 } bind dup dup
               ]
             /MatrixLMN [0.412457 0.212673 0.019334
                         0.357576 0.715152 0.119192
                         0.180437 0.072175 0.950301]
             /WhitePoint [0.9505 1.0 1.0890]
           >>
         ] setcolorspace } bind def
/srgb { setcolor } bind def
%%IncludeResource: font Helvetica
/Helvetica findfont
dup length dict begin
  {1 index /FID ne {def} {pop pop} ifelse} forall
  /Encoding ISOLatin1Encoding def
  currentdict
  end
/Font1 exch definefont pop
%%IncludeResource: font Helvetica-Bold
/Helvetica-Bold findfont
dup length dict begin
  {1 index /FID ne {def} {pop pop} ifelse} forall
  /Encoding ISOLatin1Encoding def
  currentdict
  end
/Font2 exch definefont pop
%%IncludeResource: font Helvetica-Oblique
/Helvetica-Oblique findfont
dup length dict begin
  {1 index /FID ne {def} {pop pop} ifelse} forall
  /Encoding ISOLatin1Encoding def
  currentdict
  end
/Font3 exch definefont pop
%%IncludeResource: font Helvetica-BoldOblique
/Helvetica-BoldOblique findfont
dup length dict begin
  {1 index /FID ne {def} {pop pop} ifelse} forall
  /Encoding ISOLatin1Encoding def
  currentdict
  end
/Font4 exch definefont pop
%%IncludeResource: font Symbol
/Symbol findfont
dup length dict begin
  {1 index /FID ne {def} {pop pop} ifelse} forall
  currentdict
  end
/Font5 exch definefont pop
%%EndProlog
%%Page: 1 1
bp
59.04 73.44 272.16 200.16 cl
1 0 0 srgb
0.75 setlinewidth
[] 0 setdash
1 setlinecap
1 setlinejoin
10.00 setmiterlimit
np
66.93 170.48 m
39.47 -82.58 l
39.47 -9.77 l
39.46 12.83 l
39.47 57.57 l
39.47 46.94 l
o
/bg { 1 0 0 srgb } def
66.93 170.48 4.05 c p2
106.40 87.90 4.05 c p2
145.87 78.13 4.05 c p2
185.33 90.96 4.05 c p2
224.80 148.53 4.05 c p2
264.27 195.47 4.05 c p2
0.00 0.00 288.00 216.00 cl
0 0 0 srgb
0.75 setlinewidth
[] 0 setdash
1 setlinecap
1 setlinejoin
10.00 setmiterlimit
np
66.93 73.44 m
197.34 0 l
o
np
66.93 73.44 m
0 3.80 l
o
np
106.40 73.44 m
0 3.80 l
o
np
145.87 73.44 m
0 3.80 l
o
np
185.33 73.44 m
0 3.80 l
o
np
224.80 73.44 m
0 3.80 l
o
np
264.27 73.44 m
0 3.80 l
o
/Font1 findfont 12 s
66.93 47.52 (2) .5 0 t
106.40 47.52 (3) .5 0 t
145.87 47.52 (4) .5 0 t
185.33 47.52 (5) .5 0 t
224.80 47.52 (6) .5 0 t
264.27 47.52 (7) .5 0 t
np
59.04 79.44 m
0 115.25 l
o
np
59.04 79.44 m
3.80 0 l
o
np
59.04 108.25 m
3.80 0 l
o
np
59.04 137.07 m
3.80 0 l
o
np
59.04 165.88 m
3.80 0 l
o
np
59.04 194.69 m
3.80 0 l
o
41.76 79.44 (20000) .5 90 t
41.76 137.07 (40000) .5 90 t
41.76 194.69 (60000) .5 90 t
np
59.04 73.44 m
213.12 0 l
0 126.72 l
-213.12 0 l
0 -126.72 l
o
0.00 0.00 288.00 216.00 cl
/Font1 findfont 14 s
0 0 0 srgb
112.30 18.72 (Mutation r) 0 ta
-0.140 (ate \(/n\)) tb gr
12.96 85.45 (A) 90 ta
-0.560 (v) tb
-0.350 (er) tb
-0.140 (age r) tb
0.210 (untime) tb gr
59.04 73.44 272.16 200.16 cl
0.4784 0.4784 0.4784 srgb
1.50 setlinewidth
[ 0.00 6.00] 0 setdash
1 setlinecap
1 setlinejoin
10.00 setmiterlimit
np
66.93 73.44 m
0 126.72 l
o
np
106.40 73.44 m
0 126.72 l
o
np
145.87 73.44 m
0 126.72 l
o
np
185.33 73.44 m
0 126.72 l
o
np
224.80 73.44 m
0 126.72 l
o
np
264.27 73.44 m
0 126.72 l
o
np
59.04 79.44 m
213.12 0 l
o
np
59.04 108.25 m
213.12 0 l
o
np
59.04 137.07 m
213.12 0 l
o
np
59.04 165.88 m
213.12 0 l
o
np
59.04 194.69 m
213.12 0 l
o
ep
%%Trailer
%%Pages: 1
%%EOF
