%!PS-Adobe-3.0 EPSF-3.0
%%DocumentNeededResources: font Helvetica
%%+ font Helvetica-Bold
%%+ font Helvetica-Oblique
%%+ font Helvetica-BoldOblique
%%+ font Symbol
%%Title: R Graphics Output
%%Creator: R Software
%%Pages: (atend)
%%BoundingBox: 0 0 720 288
%%EndComments
%%BeginProlog
/bp  { gs sRGB gs } def
% begin .ps.prolog
/gs  { gsave } bind def
/gr  { grestore } bind def
/ep  { showpage gr gr } bind def
/m   { moveto } bind def
/l  { rlineto } bind def
/np  { newpath } bind def
/cp  { closepath } bind def
/f   { fill } bind def
/o   { stroke } bind def
/c   { newpath 0 360 arc } bind def
/r   { 4 2 roll moveto 1 copy 3 -1 roll exch 0 exch rlineto 0 rlineto -1 mul 0 exch rlineto closepath } bind def
/p1  { stroke } bind def
/p2  { gsave bg fill grestore newpath } bind def
/p3  { gsave bg fill grestore stroke } bind def
/p6  { gsave bg eofill grestore newpath } bind def
/p7  { gsave bg eofill grestore stroke } bind def
/t   { 5 -2 roll moveto gsave rotate
       1 index stringwidth pop
       mul neg 0 rmoveto show grestore } bind def
/ta  { 4 -2 roll moveto gsave rotate show } bind def
/tb  { 2 -1 roll 0 rmoveto show } bind def
/cl  { grestore gsave newpath 3 index 3 index moveto 1 index
       4 -1 roll lineto  exch 1 index lineto lineto
       closepath clip newpath } bind def
/rgb { setrgbcolor } bind def
/s   { scalefont setfont } bind def
% end   .ps.prolog
/sRGB { [ /CIEBasedABC
          << /DecodeLMN
               [ { dup 0.03928 le
                        {12.92321 div}
                        {0.055 add 1.055 div 2.4 exp }
                     ifelse
                 } bind dup dup
               ]
             /MatrixLMN [0.412457 0.212673 0.019334
                         0.357576 0.715152 0.119192
                         0.180437 0.072175 0.950301]
             /WhitePoint [0.9505 1.0 1.0890]
           >>
         ] setcolorspace } bind def
/srgb { setcolor } bind def
%%IncludeResource: font Helvetica
/Helvetica findfont
dup length dict begin
  {1 index /FID ne {def} {pop pop} ifelse} forall
  /Encoding ISOLatin1Encoding def
  currentdict
  end
/Font1 exch definefont pop
%%IncludeResource: font Helvetica-Bold
/Helvetica-Bold findfont
dup length dict begin
  {1 index /FID ne {def} {pop pop} ifelse} forall
  /Encoding ISOLatin1Encoding def
  currentdict
  end
/Font2 exch definefont pop
%%IncludeResource: font Helvetica-Oblique
/Helvetica-Oblique findfont
dup length dict begin
  {1 index /FID ne {def} {pop pop} ifelse} forall
  /Encoding ISOLatin1Encoding def
  currentdict
  end
/Font3 exch definefont pop
%%IncludeResource: font Helvetica-BoldOblique
/Helvetica-BoldOblique findfont
dup length dict begin
  {1 index /FID ne {def} {pop pop} ifelse} forall
  /Encoding ISOLatin1Encoding def
  currentdict
  end
/Font4 exch definefont pop
%%IncludeResource: font Symbol
/Symbol findfont
dup length dict begin
  {1 index /FID ne {def} {pop pop} ifelse} forall
  currentdict
  end
/Font5 exch definefont pop
%%EndProlog
%%Page: 1 1
bp
66.24 66.24 344.16 272.16 cl
0 0 1 srgb
1.50 setlinewidth
[] 0 setdash
1 setlinecap
1 setlinejoin
10.00 setmiterlimit
np
76.53 264.53 m
12.87 -33.16 l
12.87 -8.29 l
12.86 16.58 l
12.87 -33.16 l
12.87 -8.29 l
12.86 16.58 l
12.87 -33.16 l
12.87 -8.29 l
12.86 16.58 l
12.87 -33.15 l
12.87 -8.29 l
12.86 16.58 l
12.87 -33.16 l
12.87 -8.29 l
12.86 16.58 l
12.87 -33.16 l
12.87 -8.29 l
12.86 16.58 l
12.87 -33.16 l
12.87 -8.29 l
o
/bg { 0 0 1 srgb } def
76.53 264.53 2.70 c p2
89.40 231.37 2.70 c p2
102.27 223.08 2.70 c p2
115.13 239.66 2.70 c p2
128.00 206.50 2.70 c p2
140.87 198.21 2.70 c p2
153.73 214.79 2.70 c p2
166.60 181.63 2.70 c p2
179.47 173.34 2.70 c p2
192.33 189.92 2.70 c p2
205.20 156.77 2.70 c p2
218.07 148.48 2.70 c p2
230.93 165.06 2.70 c p2
243.80 131.90 2.70 c p2
256.67 123.61 2.70 c p2
269.53 140.19 2.70 c p2
282.40 107.03 2.70 c p2
295.27 98.74 2.70 c p2
308.13 115.32 2.70 c p2
321.00 82.16 2.70 c p2
333.87 73.87 2.70 c p2
0.00 0.00 720.00 288.00 cl
0 0 0 srgb
0.75 setlinewidth
[] 0 setdash
1 setlinecap
1 setlinejoin
10.00 setmiterlimit
np
76.53 66.24 m
257.34 0 l
o
np
76.53 66.24 m
0 6.18 l
o
np
140.87 66.24 m
0 6.18 l
o
np
205.20 66.24 m
0 6.18 l
o
np
269.53 66.24 m
0 6.18 l
o
np
333.87 66.24 m
0 6.18 l
o
/Font1 findfont 14 s
76.53 40.32 (0) .5 0 t
140.87 40.32 (5) .5 0 t
205.20 40.32 (10) .5 0 t
269.53 40.32 (15) .5 0 t
333.87 40.32 (20) .5 0 t
np
66.24 115.32 m
0 149.21 l
o
np
66.24 115.32 m
6.18 0 l
o
np
66.24 165.06 m
6.18 0 l
o
np
66.24 214.79 m
6.18 0 l
o
np
66.24 264.53 m
6.18 0 l
o
48.96 115.32 (-6) .5 90 t
48.96 165.06 (-4) .5 90 t
48.96 214.79 (-2) .5 90 t
48.96 264.53 (0) .5 90 t
np
66.24 66.24 m
277.92 0 l
0 205.92 l
-277.92 0 l
0 -205.92 l
o
0.00 0.00 360.00 288.00 cl
/Font1 findfont 14 s
0 0 0 srgb
205.20 11.52 (Number of 0-bits) .5 0 t
20.16 129.91 (Hurdle v) 90 ta
-0.350 (alue) tb gr
66.24 66.24 344.16 272.16 cl
0.4784 0.4784 0.4784 srgb
1.50 setlinewidth
[ 0.00 6.00] 0 setdash
1 setlinecap
1 setlinejoin
10.00 setmiterlimit
np
76.53 66.24 m
0 205.92 l
o
np
140.87 66.24 m
0 205.92 l
o
np
205.20 66.24 m
0 205.92 l
o
np
269.53 66.24 m
0 205.92 l
o
np
333.87 66.24 m
0 205.92 l
o
np
66.24 115.32 m
277.92 0 l
o
np
66.24 165.06 m
277.92 0 l
o
np
66.24 214.79 m
277.92 0 l
o
np
66.24 264.53 m
277.92 0 l
o
426.24 66.24 704.16 272.16 cl
0 0 1 srgb
1.50 setlinewidth
[] 0 setdash
1 setlinecap
1 setlinejoin
10.00 setmiterlimit
np
436.53 264.53 m
12.87 -51.33 l
12.87 -7.33 l
12.86 -7.34 l
12.87 -7.33 l
12.87 -7.33 l
12.86 36.66 l
12.87 -51.33 l
12.87 -7.33 l
12.86 -7.34 l
12.87 -7.33 l
12.87 -7.33 l
12.86 36.66 l
12.87 -51.33 l
12.87 -7.33 l
12.86 -7.34 l
12.87 -7.33 l
12.87 -7.33 l
12.86 36.66 l
12.87 -51.33 l
12.87 -7.33 l
o
/bg { 0 0 1 srgb } def
436.53 264.53 2.70 c p2
449.40 213.20 2.70 c p2
462.27 205.87 2.70 c p2
475.13 198.53 2.70 c p2
488.00 191.20 2.70 c p2
500.87 183.87 2.70 c p2
513.73 220.53 2.70 c p2
526.60 169.20 2.70 c p2
539.47 161.87 2.70 c p2
552.33 154.53 2.70 c p2
565.20 147.20 2.70 c p2
578.07 139.87 2.70 c p2
590.93 176.53 2.70 c p2
603.80 125.20 2.70 c p2
616.67 117.87 2.70 c p2
629.53 110.53 2.70 c p2
642.40 103.20 2.70 c p2
655.27 95.87 2.70 c p2
668.13 132.53 2.70 c p2
681.00 81.20 2.70 c p2
693.87 73.87 2.70 c p2
0.00 0.00 720.00 288.00 cl
0 0 0 srgb
0.75 setlinewidth
[] 0 setdash
1 setlinecap
1 setlinejoin
10.00 setmiterlimit
np
436.53 66.24 m
257.34 0 l
o
np
436.53 66.24 m
0 6.18 l
o
np
500.87 66.24 m
0 6.18 l
o
np
565.20 66.24 m
0 6.18 l
o
np
629.53 66.24 m
0 6.18 l
o
np
693.87 66.24 m
0 6.18 l
o
/Font1 findfont 14 s
436.53 40.32 (0) .5 0 t
500.87 40.32 (5) .5 0 t
565.20 40.32 (10) .5 0 t
629.53 40.32 (15) .5 0 t
693.87 40.32 (20) .5 0 t
np
426.24 88.53 m
0 176.00 l
o
np
426.24 88.53 m
6.18 0 l
o
np
426.24 132.53 m
6.18 0 l
o
np
426.24 176.53 m
6.18 0 l
o
np
426.24 220.53 m
6.18 0 l
o
np
426.24 264.53 m
6.18 0 l
o
408.96 88.53 (-4) .5 90 t
408.96 132.53 (-3) .5 90 t
408.96 176.53 (-2) .5 90 t
408.96 220.53 (-1) .5 90 t
408.96 264.53 (0) .5 90 t
np
426.24 66.24 m
277.92 0 l
0 205.92 l
-277.92 0 l
0 -205.92 l
o
360.00 0.00 720.00 288.00 cl
/Font1 findfont 14 s
0 0 0 srgb
565.20 11.52 (Number of 0-bits) .5 0 t
380.16 129.91 (Hurdle v) 90 ta
-0.350 (alue) tb gr
426.24 66.24 704.16 272.16 cl
0.4784 0.4784 0.4784 srgb
1.50 setlinewidth
[ 0.00 6.00] 0 setdash
1 setlinecap
1 setlinejoin
10.00 setmiterlimit
np
436.53 66.24 m
0 205.92 l
o
np
500.87 66.24 m
0 205.92 l
o
np
565.20 66.24 m
0 205.92 l
o
np
629.53 66.24 m
0 205.92 l
o
np
693.87 66.24 m
0 205.92 l
o
np
426.24 88.53 m
277.92 0 l
o
np
426.24 132.53 m
277.92 0 l
o
np
426.24 176.53 m
277.92 0 l
o
np
426.24 220.53 m
277.92 0 l
o
np
426.24 264.53 m
277.92 0 l
o
ep
%%Trailer
%%Pages: 1
%%EOF
