%!PS-Adobe-3.0 EPSF-3.0
%%DocumentNeededResources: font Helvetica
%%+ font Helvetica-Bold
%%+ font Helvetica-Oblique
%%+ font Helvetica-BoldOblique
%%+ font Symbol
%%Title: R Graphics Output
%%Creator: R Software
%%Pages: (atend)
%%BoundingBox: 0 0 576 288
%%EndComments
%%BeginProlog
/bp  { gs sRGB gs } def
% begin .ps.prolog
/gs  { gsave } bind def
/gr  { grestore } bind def
/ep  { showpage gr gr } bind def
/m   { moveto } bind def
/l  { rlineto } bind def
/np  { newpath } bind def
/cp  { closepath } bind def
/f   { fill } bind def
/o   { stroke } bind def
/c   { newpath 0 360 arc } bind def
/r   { 4 2 roll moveto 1 copy 3 -1 roll exch 0 exch rlineto 0 rlineto -1 mul 0 exch rlineto closepath } bind def
/p1  { stroke } bind def
/p2  { gsave bg fill grestore newpath } bind def
/p3  { gsave bg fill grestore stroke } bind def
/p6  { gsave bg eofill grestore newpath } bind def
/p7  { gsave bg eofill grestore stroke } bind def
/t   { 5 -2 roll moveto gsave rotate
       1 index stringwidth pop
       mul neg 0 rmoveto show grestore } bind def
/ta  { 4 -2 roll moveto gsave rotate show } bind def
/tb  { 2 -1 roll 0 rmoveto show } bind def
/cl  { grestore gsave newpath 3 index 3 index moveto 1 index
       4 -1 roll lineto  exch 1 index lineto lineto
       closepath clip newpath } bind def
/rgb { setrgbcolor } bind def
/s   { scalefont setfont } bind def
% end   .ps.prolog
/sRGB { [ /CIEBasedABC
          << /DecodeLMN
               [ { dup 0.03928 le
                        {12.92321 div}
                        {0.055 add 1.055 div 2.4 exp }
                     ifelse
                 } bind dup dup
               ]
             /MatrixLMN [0.412457 0.212673 0.019334
                         0.357576 0.715152 0.119192
                         0.180437 0.072175 0.950301]
             /WhitePoint [0.9505 1.0 1.0890]
           >>
         ] setcolorspace } bind def
/srgb { setcolor } bind def
%%IncludeResource: font Helvetica
/Helvetica findfont
dup length dict begin
  {1 index /FID ne {def} {pop pop} ifelse} forall
  /Encoding ISOLatin1Encoding def
  currentdict
  end
/Font1 exch definefont pop
%%IncludeResource: font Helvetica-Bold
/Helvetica-Bold findfont
dup length dict begin
  {1 index /FID ne {def} {pop pop} ifelse} forall
  /Encoding ISOLatin1Encoding def
  currentdict
  end
/Font2 exch definefont pop
%%IncludeResource: font Helvetica-Oblique
/Helvetica-Oblique findfont
dup length dict begin
  {1 index /FID ne {def} {pop pop} ifelse} forall
  /Encoding ISOLatin1Encoding def
  currentdict
  end
/Font3 exch definefont pop
%%IncludeResource: font Helvetica-BoldOblique
/Helvetica-BoldOblique findfont
dup length dict begin
  {1 index /FID ne {def} {pop pop} ifelse} forall
  /Encoding ISOLatin1Encoding def
  currentdict
  end
/Font4 exch definefont pop
%%IncludeResource: font Symbol
/Symbol findfont
dup length dict begin
  {1 index /FID ne {def} {pop pop} ifelse} forall
  currentdict
  end
/Font5 exch definefont pop
%%EndProlog
%%Page: 1 1
bp
66.24 66.24 279.36 279.36 cl
0 0 1 srgb
0.75 setlinewidth
[] 0 setdash
1 setlinecap
1 setlinejoin
10.00 setmiterlimit
np
74.13 191.85 m
24.67 -71.72 l
24.67 -22.09 l
24.66 -8.73 l
24.67 -6.17 l
24.67 -3.26 l
24.66 -1.26 l
24.67 -0.53 l
24.67 -0.77 l
o
/bg { 0 0 1 srgb } def
np
 74.13 198.15 m
5.46 -9.45 l
-10.91 0 l
cp p2
np
 98.80 126.43 m
5.45 -9.45 l
-10.90 0 l
cp p2
np
 123.47 104.34 m
5.45 -9.45 l
-10.91 0 l
cp p2
np
 148.13 95.60 m
5.46 -9.44 l
-10.91 0 l
cp p2
np
 172.80 89.44 m
5.45 -9.44 l
-10.90 0 l
cp p2
np
 197.47 86.17 m
5.45 -9.44 l
-10.91 0 l
cp p2
np
 222.13 84.92 m
5.46 -9.45 l
-10.91 0 l
cp p2
np
 246.80 84.38 m
5.45 -9.44 l
-10.90 0 l
cp p2
np
 271.47 83.62 m
5.45 -9.45 l
-10.91 0 l
cp p2
0.00 0.00 576.00 288.00 cl
0 0 0 srgb
0.75 setlinewidth
[] 0 setdash
1 setlinecap
1 setlinejoin
10.00 setmiterlimit
np
74.13 66.24 m
197.34 0 l
o
np
74.13 66.24 m
0 6.39 l
o
np
123.47 66.24 m
0 6.39 l
o
np
172.80 66.24 m
0 6.39 l
o
np
222.13 66.24 m
0 6.39 l
o
np
271.47 66.24 m
0 6.39 l
o
/Font1 findfont 12 s
74.13 40.32 (2) .5 0 t
123.47 40.32 (4) .5 0 t
172.80 40.32 (6) .5 0 t
222.13 40.32 (8) .5 0 t
271.47 40.32 (10) .5 0 t
np
66.24 74.13 m
0 196.57 l
o
np
66.24 74.13 m
6.39 0 l
o
np
66.24 123.27 m
6.39 0 l
o
np
66.24 172.42 m
6.39 0 l
o
np
66.24 221.56 m
6.39 0 l
o
np
66.24 270.70 m
6.39 0 l
o
48.96 74.13 (0) .5 90 t
48.96 123.27 (500000) .5 90 t
48.96 221.56 (1500000) .5 90 t
np
66.24 66.24 m
213.12 0 l
0 213.12 l
-213.12 0 l
0 -213.12 l
o
0.00 0.00 288.00 288.00 cl
/Font1 findfont 12 s
0 0 0 srgb
172.80 11.52 (w) .5 0 t
20.16 169.13 (T) 0 90 t
0.75 setlinewidth
[] 0 setdash
1 setlinecap
1 setlinejoin
10.00 setmiterlimit
np
9.82 169.13 m
0 7.34 l
o
66.24 66.24 279.36 279.36 cl
0 1 0 srgb
0.75 setlinewidth
[] 0 setdash
1 setlinecap
1 setlinejoin
10.00 setmiterlimit
np
74.13 80.52 m
24.67 181.55 l
24.67 -69.85 l
24.66 -54.35 l
24.67 -14.18 l
24.67 -13.62 l
24.66 -13.79 l
24.67 -3.63 l
24.67 -2.63 l
o
/bg { 0 1 0 srgb } def
np
 70.08 76.47 m
8.10 0 l
0 8.10 l
-8.10 0 l
cp p2
np
 94.75 258.02 m
8.10 0 l
0 8.10 l
-8.10 0 l
cp p2
np
 119.42 188.17 m
8.10 0 l
0 8.10 l
-8.10 0 l
cp p2
np
 144.08 133.82 m
8.10 0 l
0 8.10 l
-8.10 0 l
cp p2
np
 168.75 119.64 m
8.10 0 l
0 8.10 l
-8.10 0 l
cp p2
np
 193.42 106.02 m
8.10 0 l
0 8.10 l
-8.10 0 l
cp p2
np
 218.08 92.23 m
8.10 0 l
0 8.10 l
-8.10 0 l
cp p2
np
 242.75 88.60 m
8.10 0 l
0 8.10 l
-8.10 0 l
cp p2
np
 267.42 85.97 m
8.10 0 l
0 8.10 l
-8.10 0 l
cp p2
0.6275 0.1255 0.9412 srgb
np
74.13 176.23 m
24.67 -91.25 l
24.67 -6.11 l
24.66 -1.75 l
24.67 -0.80 l
24.67 -0.33 l
24.66 -0.31 l
24.67 -0.36 l
24.67 -0.12 l
o
/bg { 0.6275 0.1255 0.9412 srgb } def
np
 74.13 182.53 m
5.46 -9.45 l
-10.91 0 l
cp p2
np
 98.80 91.28 m
5.45 -9.45 l
-10.90 0 l
cp p2
np
 123.47 85.17 m
5.45 -9.45 l
-10.91 0 l
cp p2
np
 148.13 83.41 m
5.46 -9.44 l
-10.91 0 l
cp p2
np
 172.80 82.62 m
5.45 -9.45 l
-10.90 0 l
cp p2
np
 197.47 82.29 m
5.45 -9.45 l
-10.91 0 l
cp p2
np
 222.13 81.98 m
5.46 -9.44 l
-10.91 0 l
cp p2
np
 246.80 81.62 m
5.45 -9.45 l
-10.90 0 l
cp p2
np
 271.47 81.50 m
5.45 -9.45 l
-10.91 0 l
cp p2
1 0 0 srgb
np
74.13 77.90 m
24.67 28.86 l
24.67 -20.46 l
24.66 -3.95 l
24.67 -1.36 l
24.67 -1.91 l
24.66 -0.24 l
24.67 -1.43 l
24.67 0.03 l
o
/bg { 1 0 0 srgb } def
np
 70.08 73.85 m
8.10 0 l
0 8.10 l
-8.10 0 l
cp p2
np
 94.75 102.71 m
8.10 0 l
0 8.10 l
-8.10 0 l
cp p2
np
 119.42 82.25 m
8.10 0 l
0 8.10 l
-8.10 0 l
cp p2
np
 144.08 78.30 m
8.10 0 l
0 8.10 l
-8.10 0 l
cp p2
np
 168.75 76.94 m
8.10 0 l
0 8.10 l
-8.10 0 l
cp p2
np
 193.42 75.03 m
8.10 0 l
0 8.10 l
-8.10 0 l
cp p2
np
 218.08 74.79 m
8.10 0 l
0 8.10 l
-8.10 0 l
cp p2
np
 242.75 73.36 m
8.10 0 l
0 8.10 l
-8.10 0 l
cp p2
np
 267.42 73.39 m
8.10 0 l
0 8.10 l
-8.10 0 l
cp p2
0 0 0 srgb
172.99 279.36 106.37 -72.00 r p1
/bg { 0 0 1 srgb } def
np
 183.79 269.16 m
3.64 -6.30 l
-7.27 0 l
cp p2
/bg { 0 1 0 srgb } def
np
 181.09 247.86 m
5.40 0 l
0 5.40 l
-5.40 0 l
cp p2
/bg { 0.6275 0.1255 0.9412 srgb } def
np
 183.79 240.36 m
3.64 -6.30 l
-7.27 0 l
cp p2
/bg { 1 0 0 srgb } def
np
 181.09 219.06 m
5.40 0 l
0 5.40 l
-5.40 0 l
cp p2
/Font1 findfont 12 s
194.59 260.65 (\(1+1\)MA-FILS) 0 0 t
194.59 246.25 (\(1+1\)MA-BILS) 0 0 t
194.59 231.85 (\(2+1\)MA-FILS) 0 0 t
194.59 217.45 (\(2+1\)MA-BILS) 0 0 t
354.24 66.24 567.36 279.36 cl
1 0 0 srgb
0.75 setlinewidth
[] 0 setdash
1 setlinecap
1 setlinejoin
10.00 setmiterlimit
np
362.13 74.13 m
24.67 100.11 l
24.67 97.23 l
24.66 -48.10 l
24.67 -13.05 l
24.67 0.84 l
24.66 -62.98 l
24.67 23.32 l
24.67 -20.91 l
o
/bg { 1 0 0 srgb } def
np
 358.08 70.08 m
8.10 0 l
0 8.10 l
-8.10 0 l
cp p2
np
 382.75 170.19 m
8.10 0 l
0 8.10 l
-8.10 0 l
cp p2
np
 407.42 267.42 m
8.10 0 l
0 8.10 l
-8.10 0 l
cp p2
np
 432.08 219.32 m
8.10 0 l
0 8.10 l
-8.10 0 l
cp p2
np
 456.75 206.27 m
8.10 0 l
0 8.10 l
-8.10 0 l
cp p2
np
 481.42 207.11 m
8.10 0 l
0 8.10 l
-8.10 0 l
cp p2
np
 506.08 144.13 m
8.10 0 l
0 8.10 l
-8.10 0 l
cp p2
np
 530.75 167.45 m
8.10 0 l
0 8.10 l
-8.10 0 l
cp p2
np
 555.42 146.54 m
8.10 0 l
0 8.10 l
-8.10 0 l
cp p2
0.00 0.00 576.00 288.00 cl
0 0 0 srgb
0.75 setlinewidth
[] 0 setdash
1 setlinecap
1 setlinejoin
10.00 setmiterlimit
np
362.13 66.24 m
197.34 0 l
o
np
362.13 66.24 m
0 6.39 l
o
np
411.47 66.24 m
0 6.39 l
o
np
460.80 66.24 m
0 6.39 l
o
np
510.13 66.24 m
0 6.39 l
o
np
559.47 66.24 m
0 6.39 l
o
/Font1 findfont 12 s
362.13 40.32 (2) .5 0 t
411.47 40.32 (4) .5 0 t
460.80 40.32 (6) .5 0 t
510.13 40.32 (8) .5 0 t
559.47 40.32 (10) .5 0 t
np
354.24 81.63 m
0 197.04 l
o
np
354.24 81.63 m
6.39 0 l
o
np
354.24 130.89 m
6.39 0 l
o
np
354.24 180.15 m
6.39 0 l
o
np
354.24 229.41 m
6.39 0 l
o
np
354.24 278.67 m
6.39 0 l
o
336.96 81.63 (2) .5 90 t
336.96 130.89 (4) .5 90 t
336.96 180.15 (6) .5 90 t
336.96 229.41 (8) .5 90 t
336.96 278.67 (10) .5 90 t
np
354.24 66.24 m
213.12 0 l
0 213.12 l
-213.12 0 l
0 -213.12 l
o
288.00 0.00 576.00 288.00 cl
/Font1 findfont 12 s
0 0 0 srgb
460.80 11.52 (w) .5 0 t
308.16 172.80 (speedup \(times\)) .5 90 t
354.24 66.24 567.36 279.36 cl
0 0 1 srgb
0.75 setlinewidth
[] 0 setdash
1 setlinecap
1 setlinejoin
10.00 setmiterlimit
np
362.13 60.77 m
24.67 76.07 l
24.67 19.88 l
24.66 0.98 l
24.67 -23.80 l
24.67 -25.40 l
24.66 -4.85 l
24.67 10.54 l
24.67 -8.32 l
o
/bg { 0 0 1 srgb } def
np
 362.13 67.07 m
5.46 -9.45 l
-10.91 0 l
cp p2
np
 386.80 143.14 m
5.45 -9.45 l
-10.90 0 l
cp p2
np
 411.47 163.02 m
5.45 -9.45 l
-10.91 0 l
cp p2
np
 436.13 164.00 m
5.46 -9.45 l
-10.91 0 l
cp p2
np
 460.80 140.20 m
5.45 -9.45 l
-10.90 0 l
cp p2
np
 485.47 114.80 m
5.45 -9.45 l
-10.91 0 l
cp p2
np
 510.13 109.95 m
5.46 -9.45 l
-10.91 0 l
cp p2
np
 534.80 120.49 m
5.45 -9.45 l
-10.90 0 l
cp p2
np
 559.47 112.17 m
5.45 -9.44 l
-10.91 0 l
cp p2
0 0 0 srgb
489.34 279.36 78.02 -43.20 r p1
/bg { 1 0 0 srgb } def
np
 497.44 262.26 m
5.40 0 l
0 5.40 l
-5.40 0 l
cp p2
/bg { 0 0 1 srgb } def
np
 500.14 254.76 m
3.63 -6.30 l
-7.27 0 l
cp p2
/Font1 findfont 12 s
510.94 260.65 (MA-BILS) 0 0 t
510.94 246.25 (MA-FILS) 0 0 t
ep
%%Trailer
%%Pages: 1
%%EOF
