%!PS-Adobe-3.0 EPSF-3.0
%%DocumentNeededResources: font Helvetica
%%+ font Helvetica-Bold
%%+ font Helvetica-Oblique
%%+ font Helvetica-BoldOblique
%%+ font Symbol
%%Title: R Graphics Output
%%Creator: R Software
%%Pages: (atend)
%%BoundingBox: 0 0 576 216
%%EndComments
%%BeginProlog
/bp  { gs sRGB gs } def
% begin .ps.prolog
/gs  { gsave } bind def
/gr  { grestore } bind def
/ep  { showpage gr gr } bind def
/m   { moveto } bind def
/l  { rlineto } bind def
/np  { newpath } bind def
/cp  { closepath } bind def
/f   { fill } bind def
/o   { stroke } bind def
/c   { newpath 0 360 arc } bind def
/r   { 4 2 roll moveto 1 copy 3 -1 roll exch 0 exch rlineto 0 rlineto -1 mul 0 exch rlineto closepath } bind def
/p1  { stroke } bind def
/p2  { gsave bg fill grestore newpath } bind def
/p3  { gsave bg fill grestore stroke } bind def
/p6  { gsave bg eofill grestore newpath } bind def
/p7  { gsave bg eofill grestore stroke } bind def
/t   { 5 -2 roll moveto gsave rotate
       1 index stringwidth pop
       mul neg 0 rmoveto show grestore } bind def
/ta  { 4 -2 roll moveto gsave rotate show } bind def
/tb  { 2 -1 roll 0 rmoveto show } bind def
/cl  { grestore gsave newpath 3 index 3 index moveto 1 index
       4 -1 roll lineto  exch 1 index lineto lineto
       closepath clip newpath } bind def
/rgb { setrgbcolor } bind def
/s   { scalefont setfont } bind def
% end   .ps.prolog
/sRGB { [ /CIEBasedABC
          << /DecodeLMN
               [ { dup 0.03928 le
                        {12.92321 div}
                        {0.055 add 1.055 div 2.4 exp }
                     ifelse
                 } bind dup dup
               ]
             /MatrixLMN [0.412457 0.212673 0.019334
                         0.357576 0.715152 0.119192
                         0.180437 0.072175 0.950301]
             /WhitePoint [0.9505 1.0 1.0890]
           >>
         ] setcolorspace } bind def
/srgb { setcolor } bind def
%%IncludeResource: font Helvetica
/Helvetica findfont
dup length dict begin
  {1 index /FID ne {def} {pop pop} ifelse} forall
  /Encoding ISOLatin1Encoding def
  currentdict
  end
/Font1 exch definefont pop
%%IncludeResource: font Helvetica-Bold
/Helvetica-Bold findfont
dup length dict begin
  {1 index /FID ne {def} {pop pop} ifelse} forall
  /Encoding ISOLatin1Encoding def
  currentdict
  end
/Font2 exch definefont pop
%%IncludeResource: font Helvetica-Oblique
/Helvetica-Oblique findfont
dup length dict begin
  {1 index /FID ne {def} {pop pop} ifelse} forall
  /Encoding ISOLatin1Encoding def
  currentdict
  end
/Font3 exch definefont pop
%%IncludeResource: font Helvetica-BoldOblique
/Helvetica-BoldOblique findfont
dup length dict begin
  {1 index /FID ne {def} {pop pop} ifelse} forall
  /Encoding ISOLatin1Encoding def
  currentdict
  end
/Font4 exch definefont pop
%%IncludeResource: font Symbol
/Symbol findfont
dup length dict begin
  {1 index /FID ne {def} {pop pop} ifelse} forall
  currentdict
  end
/Font5 exch definefont pop
%%EndProlog
%%Page: 1 1
bp
59.04 73.44 560.16 200.16 cl
1 0 0 srgb
0.75 setlinewidth
[] 0 setdash
1 setlinecap
1 setlinejoin
10.00 setmiterlimit
np
77.60 84.54 m
5.45 -9.45 l
-10.90 0 l
5.45 9.45 l
o
np
129.16 85.30 m
5.45 -9.45 l
-10.91 0 l
5.46 9.45 l
o
np
180.71 85.70 m
5.46 -9.45 l
-10.91 0 l
5.45 9.45 l
o
np
232.27 87.42 m
5.45 -9.44 l
-10.91 0 l
5.46 9.44 l
o
np
283.82 90.20 m
5.46 -9.45 l
-10.91 0 l
5.45 9.45 l
o
np
335.38 89.78 m
5.45 -9.44 l
-10.91 0 l
5.46 9.44 l
o
np
386.93 93.82 m
5.46 -9.45 l
-10.91 0 l
5.45 9.45 l
o
np
438.49 98.72 m
5.45 -9.45 l
-10.91 0 l
5.46 9.45 l
o
np
490.04 103.59 m
5.46 -9.45 l
-10.91 0 l
5.45 9.45 l
o
np
541.60 112.84 m
5.45 -9.45 l
-10.90 0 l
5.45 9.45 l
o
0.00 0.00 576.00 216.00 cl
0 0 0 srgb
0.75 setlinewidth
[] 0 setdash
1 setlinecap
1 setlinejoin
10.00 setmiterlimit
np
129.16 73.44 m
412.44 0 l
o
np
129.16 73.44 m
0 3.80 l
o
np
232.27 73.44 m
0 3.80 l
o
np
335.38 73.44 m
0 3.80 l
o
np
438.49 73.44 m
0 3.80 l
o
np
541.60 73.44 m
0 3.80 l
o
/Font1 findfont 12 s
129.16 47.52 (20) .5 0 t
232.27 47.52 (40) .5 0 t
335.38 47.52 (60) .5 0 t
438.49 47.52 (80) .5 0 t
541.60 47.52 (100) .5 0 t
np
59.04 78.13 m
0 115.60 l
o
np
59.04 78.13 m
3.80 0 l
o
np
59.04 101.25 m
3.80 0 l
o
np
59.04 124.37 m
3.80 0 l
o
np
59.04 147.49 m
3.80 0 l
o
np
59.04 170.61 m
3.80 0 l
o
np
59.04 193.73 m
3.80 0 l
o
41.76 78.13 (0e+00) .5 90 t
41.76 124.37 (4e+05) .5 90 t
41.76 170.61 (8e+05) .5 90 t
np
59.04 73.44 m
501.12 0 l
0 126.72 l
-501.12 0 l
0 -126.72 l
o
0.00 0.00 576.00 216.00 cl
/Font1 findfont 14 s
0 0 0 srgb
235.30 18.72 (Prob) 0 ta
-0.280 (lem instance siz) tb
-0.210 (e n) tb gr
12.96 85.45 (A) 90 ta
-0.560 (v) tb
-0.350 (er) tb
-0.140 (age r) tb
0.210 (untime) tb gr
59.04 73.44 560.16 200.16 cl
/bg { 1 0 0 srgb } def
np
 77.60 84.47 m
5.45 -9.45 l
-10.90 0 l
cp p2
np
 129.16 84.61 m
5.45 -9.45 l
-10.91 0 l
cp p2
np
 180.71 84.83 m
5.46 -9.44 l
-10.91 0 l
cp p2
np
 232.27 84.99 m
5.45 -9.45 l
-10.91 0 l
cp p2
np
 283.82 85.22 m
5.46 -9.45 l
-10.91 0 l
cp p2
np
 335.38 86.06 m
5.45 -9.45 l
-10.91 0 l
cp p2
np
 386.93 86.12 m
5.46 -9.45 l
-10.91 0 l
cp p2
np
 438.49 87.27 m
5.45 -9.44 l
-10.91 0 l
cp p2
np
 490.04 87.59 m
5.46 -9.45 l
-10.91 0 l
cp p2
np
 541.60 87.89 m
5.45 -9.45 l
-10.90 0 l
cp p2
0 0 1 srgb
0.75 setlinewidth
[] 0 setdash
1 setlinecap
1 setlinejoin
10.00 setmiterlimit
74.01 74.57 7.18 7.18 r p1
125.57 74.73 7.18 7.18 r p1
177.12 79.59 7.18 7.18 r p1
228.68 88.74 7.18 7.18 r p1
280.23 102.18 7.18 7.18 r p1
331.79 102.21 7.18 7.18 r p1
383.34 123.32 7.18 7.18 r p1
434.90 134.84 7.18 7.18 r p1
486.46 170.64 7.18 7.18 r p1
538.01 191.88 7.18 7.18 r p1
/bg { 0 0 1 srgb } def
np
 73.55 74.22 m
8.10 0 l
0 8.10 l
-8.10 0 l
cp p2
np
 125.11 74.82 m
8.10 0 l
0 8.10 l
-8.10 0 l
cp p2
np
 176.66 75.85 m
8.10 0 l
0 8.10 l
-8.10 0 l
cp p2
np
 228.22 76.85 m
8.10 0 l
0 8.10 l
-8.10 0 l
cp p2
np
 279.77 78.90 m
8.10 0 l
0 8.10 l
-8.10 0 l
cp p2
np
 331.33 80.83 m
8.10 0 l
0 8.10 l
-8.10 0 l
cp p2
np
 382.88 82.48 m
8.10 0 l
0 8.10 l
-8.10 0 l
cp p2
np
 434.44 88.84 m
8.10 0 l
0 8.10 l
-8.10 0 l
cp p2
np
 485.99 90.34 m
8.10 0 l
0 8.10 l
-8.10 0 l
cp p2
np
 537.55 90.36 m
8.10 0 l
0 8.10 l
-8.10 0 l
cp p2
0 0 0 srgb
59.04 200.16 177.72 -72.00 r p1
1 0 0 srgb
np
69.84 189.96 m
3.64 -6.30 l
-7.28 0 l
3.64 6.30 l
o
/bg { 1 0 0 srgb } def
np
 69.84 175.56 m
3.64 -6.30 l
-7.28 0 l
cp p2
0 0 1 srgb
67.45 154.57 4.79 4.79 r p1
/bg { 0 0 1 srgb } def
np
 67.14 139.86 m
5.40 0 l
0 5.40 l
-5.40 0 l
cp p2
/Font1 findfont 12 s
0 0 0 srgb
80.64 181.45 (\(1+1\)MA-FILS; small hurdle) 0 0 t
80.64 167.05 (\(1+1\)MA-FILS; large hurdle) 0 0 t
80.64 152.65 (\(1+1\)MA-BILS; small hurdle) 0 0 t
80.64 138.25 (\(1+1\)MA-BILS; large hurdle) 0 0 t
0.4784 0.4784 0.4784 srgb
1.50 setlinewidth
[ 0.00 6.00] 0 setdash
np
129.16 73.44 m
0 126.72 l
o
np
232.27 73.44 m
0 126.72 l
o
np
335.38 73.44 m
0 126.72 l
o
np
438.49 73.44 m
0 126.72 l
o
np
541.60 73.44 m
0 126.72 l
o
np
59.04 78.13 m
501.12 0 l
o
np
59.04 101.25 m
501.12 0 l
o
np
59.04 124.37 m
501.12 0 l
o
np
59.04 147.49 m
501.12 0 l
o
np
59.04 170.61 m
501.12 0 l
o
np
59.04 193.73 m
501.12 0 l
o
ep
%%Trailer
%%Pages: 1
%%EOF
