%!PS-Adobe-3.0 EPSF-3.0
%%DocumentNeededResources: font Helvetica
%%+ font Helvetica-Bold
%%+ font Helvetica-Oblique
%%+ font Helvetica-BoldOblique
%%+ font Symbol
%%Title: R Graphics Output
%%Creator: R Software
%%Pages: (atend)
%%BoundingBox: 0 0 576 576
%%EndComments
%%BeginProlog
/bp  { gs sRGB gs } def
% begin .ps.prolog
/gs  { gsave } bind def
/gr  { grestore } bind def
/ep  { showpage gr gr } bind def
/m   { moveto } bind def
/l  { rlineto } bind def
/np  { newpath } bind def
/cp  { closepath } bind def
/f   { fill } bind def
/o   { stroke } bind def
/c   { newpath 0 360 arc } bind def
/r   { 4 2 roll moveto 1 copy 3 -1 roll exch 0 exch rlineto 0 rlineto -1 mul 0 exch rlineto closepath } bind def
/p1  { stroke } bind def
/p2  { gsave bg fill grestore newpath } bind def
/p3  { gsave bg fill grestore stroke } bind def
/p6  { gsave bg eofill grestore newpath } bind def
/p7  { gsave bg eofill grestore stroke } bind def
/t   { 5 -2 roll moveto gsave rotate
       1 index stringwidth pop
       mul neg 0 rmoveto show grestore } bind def
/ta  { 4 -2 roll moveto gsave rotate show } bind def
/tb  { 2 -1 roll 0 rmoveto show } bind def
/cl  { grestore gsave newpath 3 index 3 index moveto 1 index
       4 -1 roll lineto  exch 1 index lineto lineto
       closepath clip newpath } bind def
/rgb { setrgbcolor } bind def
/s   { scalefont setfont } bind def
% end   .ps.prolog
/sRGB { [ /CIEBasedABC
          << /DecodeLMN
               [ { dup 0.03928 le
                        {12.92321 div}
                        {0.055 add 1.055 div 2.4 exp }
                     ifelse
                 } bind dup dup
               ]
             /MatrixLMN [0.412457 0.212673 0.019334
                         0.357576 0.715152 0.119192
                         0.180437 0.072175 0.950301]
             /WhitePoint [0.9505 1.0 1.0890]
           >>
         ] setcolorspace } bind def
/srgb { setcolor } bind def
%%IncludeResource: font Helvetica
/Helvetica findfont
dup length dict begin
  {1 index /FID ne {def} {pop pop} ifelse} forall
  /Encoding ISOLatin1Encoding def
  currentdict
  end
/Font1 exch definefont pop
%%IncludeResource: font Helvetica-Bold
/Helvetica-Bold findfont
dup length dict begin
  {1 index /FID ne {def} {pop pop} ifelse} forall
  /Encoding ISOLatin1Encoding def
  currentdict
  end
/Font2 exch definefont pop
%%IncludeResource: font Helvetica-Oblique
/Helvetica-Oblique findfont
dup length dict begin
  {1 index /FID ne {def} {pop pop} ifelse} forall
  /Encoding ISOLatin1Encoding def
  currentdict
  end
/Font3 exch definefont pop
%%IncludeResource: font Helvetica-BoldOblique
/Helvetica-BoldOblique findfont
dup length dict begin
  {1 index /FID ne {def} {pop pop} ifelse} forall
  /Encoding ISOLatin1Encoding def
  currentdict
  end
/Font4 exch definefont pop
%%IncludeResource: font Symbol
/Symbol findfont
dup length dict begin
  {1 index /FID ne {def} {pop pop} ifelse} forall
  currentdict
  end
/Font5 exch definefont pop
%%EndProlog
%%Page: 1 1
bp
60.96 337.00 274.85 550.90 cl
/bg { 1 0 0 srgb } def
np
 70.86 345.83 m
15.84 0 l
0 1.66 l
-15.84 0 l
cp p2
0 0 0 srgb
2.25 setlinewidth
[] 0 setdash
0 setlinecap
1 setlinejoin
10.00 setmiterlimit
np
70.86 346.33 m
15.84 0 l
o
0.75 setlinewidth
[ 2.25 3.75] 0 setdash
1 setlinecap
np
78.78 344.93 m
0 0.90 l
o
np
78.78 349.64 m
0 -2.15 l
o
0.75 setlinewidth
[] 0 setdash
np
74.82 344.93 m
7.92 0 l
o
np
74.82 349.64 m
7.92 0 l
o
np
70.86 345.83 m
15.84 0 l
0 1.66 l
-15.84 0 l
0 -1.66 l
o
78.78 352.37 1.86 c p1
78.78 350.38 1.86 c p1
78.78 350.13 1.86 c p1
78.78 351.21 1.86 c p1
78.78 350.80 1.86 c p1
np
 90.66 346.78 m
15.85 0 l
0 1.84 l
-15.85 0 l
cp p2
2.25 setlinewidth
[] 0 setdash
0 setlinecap
np
90.66 347.27 m
15.85 0 l
o
0.75 setlinewidth
[ 2.25 3.75] 0 setdash
1 setlinecap
np
98.59 345.35 m
0 1.43 l
o
np
98.59 351.22 m
0 -2.60 l
o
0.75 setlinewidth
[] 0 setdash
np
94.62 345.35 m
7.93 0 l
o
np
94.62 351.22 m
7.93 0 l
o
np
90.66 346.78 m
15.85 0 l
0 1.84 l
-15.85 0 l
0 -1.84 l
o
98.59 353.25 1.86 c p1
98.59 351.50 1.86 c p1
98.59 351.68 1.86 c p1
98.59 351.64 1.86 c p1
np
 110.47 361.10 m
15.84 0 l
0 22.02 l
-15.84 0 l
cp p2
2.25 setlinewidth
[] 0 setdash
0 setlinecap
np
110.47 368.49 m
15.84 0 l
o
0.75 setlinewidth
[ 2.25 3.75] 0 setdash
1 setlinecap
np
118.39 350.70 m
0 10.40 l
o
np
118.39 408.63 m
0 -25.51 l
o
0.75 setlinewidth
[] 0 setdash
np
114.43 350.70 m
7.92 0 l
o
np
114.43 408.63 m
7.92 0 l
o
np
110.47 361.10 m
15.84 0 l
0 22.02 l
-15.84 0 l
0 -22.02 l
o
118.39 419.42 1.86 c p1
118.39 425.65 1.86 c p1
118.39 526.79 1.86 c p1
np
 130.27 362.21 m
15.85 0 l
0 39.83 l
-15.85 0 l
cp p2
2.25 setlinewidth
[] 0 setdash
0 setlinecap
np
130.27 378.69 m
15.85 0 l
o
0.75 setlinewidth
[ 2.25 3.75] 0 setdash
1 setlinecap
np
138.20 351.94 m
0 10.27 l
o
np
138.20 459.53 m
0 -57.49 l
o
0.75 setlinewidth
[] 0 setdash
np
134.23 351.94 m
7.93 0 l
o
np
134.23 459.53 m
7.93 0 l
o
np
130.27 362.21 m
15.85 0 l
0 39.83 l
-15.85 0 l
0 -39.83 l
o
138.20 480.33 1.86 c p1
np
 150.08 366.34 m
15.84 0 l
0 40.30 l
-15.84 0 l
cp p2
2.25 setlinewidth
[] 0 setdash
0 setlinecap
np
150.08 378.20 m
15.84 0 l
o
0.75 setlinewidth
[ 2.25 3.75] 0 setdash
1 setlinecap
np
158.00 348.52 m
0 17.82 l
o
np
158.00 466.89 m
0 -60.25 l
o
0.75 setlinewidth
[] 0 setdash
np
154.04 348.52 m
7.92 0 l
o
np
154.04 466.89 m
7.92 0 l
o
np
150.08 366.34 m
15.84 0 l
0 40.30 l
-15.84 0 l
0 -40.30 l
o
158.00 502.74 1.86 c p1
158.00 528.83 1.86 c p1
158.00 475.75 1.86 c p1
158.00 542.98 1.86 c p1
np
 169.88 357.18 m
15.85 0 l
0 25.07 l
-15.85 0 l
cp p2
2.25 setlinewidth
[] 0 setdash
0 setlinecap
np
169.88 369.36 m
15.85 0 l
o
0.75 setlinewidth
[ 2.25 3.75] 0 setdash
1 setlinecap
np
177.81 350.05 m
0 7.13 l
o
np
177.81 417.90 m
0 -35.65 l
o
0.75 setlinewidth
[] 0 setdash
np
173.85 350.05 m
7.92 0 l
o
np
173.85 417.90 m
7.92 0 l
o
np
169.88 357.18 m
15.85 0 l
0 25.07 l
-15.85 0 l
0 -25.07 l
o
177.81 452.60 1.86 c p1
177.81 506.75 1.86 c p1
np
 189.69 360.77 m
15.84 0 l
0 27.64 l
-15.84 0 l
cp p2
2.25 setlinewidth
[] 0 setdash
0 setlinecap
np
189.69 374.63 m
15.84 0 l
o
0.75 setlinewidth
[ 2.25 3.75] 0 setdash
1 setlinecap
np
197.61 349.73 m
0 11.04 l
o
np
197.61 418.04 m
0 -29.63 l
o
0.75 setlinewidth
[] 0 setdash
np
193.65 349.73 m
7.92 0 l
o
np
193.65 418.04 m
7.92 0 l
o
np
189.69 360.77 m
15.84 0 l
0 27.64 l
-15.84 0 l
0 -27.64 l
o
197.61 439.51 1.86 c p1
197.61 447.76 1.86 c p1
197.61 442.49 1.86 c p1
197.61 458.69 1.86 c p1
197.61 435.42 1.86 c p1
197.61 445.49 1.86 c p1
197.61 465.22 1.86 c p1
np
 209.50 359.67 m
15.84 0 l
0 25.59 l
-15.84 0 l
cp p2
2.25 setlinewidth
[] 0 setdash
0 setlinecap
np
209.50 369.09 m
15.84 0 l
o
0.75 setlinewidth
[ 2.25 3.75] 0 setdash
1 setlinecap
np
217.42 350.02 m
0 9.65 l
o
np
217.42 418.13 m
0 -32.87 l
o
0.75 setlinewidth
[] 0 setdash
np
213.46 350.02 m
7.92 0 l
o
np
213.46 418.13 m
7.92 0 l
o
np
209.50 359.67 m
15.84 0 l
0 25.59 l
-15.84 0 l
0 -25.59 l
o
217.42 433.91 1.86 c p1
217.42 428.89 1.86 c p1
217.42 423.99 1.86 c p1
217.42 434.85 1.86 c p1
217.42 441.11 1.86 c p1
np
 229.30 362.22 m
15.84 0 l
0 30.71 l
-15.84 0 l
cp p2
2.25 setlinewidth
[] 0 setdash
0 setlinecap
np
229.30 373.49 m
15.84 0 l
o
0.75 setlinewidth
[ 2.25 3.75] 0 setdash
1 setlinecap
np
237.22 349.71 m
0 12.51 l
o
np
237.22 438.99 m
0 -46.06 l
o
0.75 setlinewidth
[] 0 setdash
np
233.26 349.71 m
7.92 0 l
o
np
233.26 438.99 m
7.92 0 l
o
np
229.30 362.22 m
15.84 0 l
0 30.71 l
-15.84 0 l
0 -30.71 l
o
237.22 450.70 1.86 c p1
237.22 483.38 1.86 c p1
237.22 460.51 1.86 c p1
np
 249.11 360.81 m
15.84 0 l
0 28.99 l
-15.84 0 l
cp p2
2.25 setlinewidth
[] 0 setdash
0 setlinecap
np
249.11 370.99 m
15.84 0 l
o
0.75 setlinewidth
[ 2.25 3.75] 0 setdash
1 setlinecap
np
257.03 350.86 m
0 9.95 l
o
np
257.03 431.96 m
0 -42.16 l
o
0.75 setlinewidth
[] 0 setdash
np
253.07 350.86 m
7.92 0 l
o
np
253.07 431.96 m
7.92 0 l
o
np
249.11 360.81 m
15.84 0 l
0 28.99 l
-15.84 0 l
0 -28.99 l
o
257.03 434.41 1.86 c p1
257.03 446.71 1.86 c p1
257.03 455.79 1.86 c p1
257.03 446.30 1.86 c p1
0.00 0.00 576.00 576.00 cl
0 0 0 srgb
0.75 setlinewidth
[] 0 setdash
1 setlinecap
1 setlinejoin
10.00 setmiterlimit
np
78.78 337.00 m
178.25 0 l
o
np
78.78 337.00 m
0 -5.97 l
o
np
98.59 337.00 m
0 -5.97 l
o
np
118.39 337.00 m
0 -5.97 l
o
np
138.20 337.00 m
0 -5.97 l
o
np
158.00 337.00 m
0 -5.97 l
o
np
177.81 337.00 m
0 -5.97 l
o
np
197.61 337.00 m
0 -5.97 l
o
np
217.42 337.00 m
0 -5.97 l
o
np
237.22 337.00 m
0 -5.97 l
o
np
257.03 337.00 m
0 -5.97 l
o
/Font1 findfont 10 s
78.78 315.49 (10) .5 0 t
98.59 315.49 (20) .5 0 t
118.39 315.49 (30) .5 0 t
138.20 315.49 (40) .5 0 t
158.00 315.49 (50) .5 0 t
177.81 315.49 (60) .5 0 t
197.61 315.49 (70) .5 0 t
217.42 315.49 (80) .5 0 t
237.22 315.49 (90) .5 0 t
np
60.96 344.93 m
0 187.15 l
o
np
60.96 344.93 m
-5.98 0 l
o
np
60.96 376.12 m
-5.98 0 l
o
np
60.96 407.31 m
-5.98 0 l
o
np
60.96 438.50 m
-5.98 0 l
o
np
60.96 469.70 m
-5.98 0 l
o
np
60.96 500.89 m
-5.98 0 l
o
np
60.96 532.08 m
-5.98 0 l
o
46.61 344.93 (0) .5 90 t
46.61 376.12 (20) .5 90 t
46.61 407.31 (40) .5 90 t
46.61 438.50 (60) .5 90 t
46.61 469.70 (80) .5 90 t
46.61 500.89 (100) .5 90 t
46.61 532.08 (120) .5 90 t
0.00 288.00 288.00 576.00 cl
/Font1 findfont 12 s
0 0 0 srgb
100.16 560.35 (\(1+1\) MA-BILS) 0 ta
-0.240 (, w=log\(n\)) tb gr
/Font1 findfont 10 s
165.12 291.59 (n) 0 0 t
20.42 421.39 (T) 0 90 t
0.75 setlinewidth
[] 0 setdash
1 setlinecap
1 setlinejoin
10.00 setmiterlimit
np
11.80 421.39 m
0 6.11 l
o
np
21.68 428.81 m
-9.71 2.61 l
o
/Font5 findfont 12 s
20.42 432.73 (\() 0 90 t
/Font1 findfont 10 s
20.42 436.73 (n) 0 90 t
/Font1 findfont 7 s
15.45 442.28 (3) 0 90 t
np
21.68 447.48 m
-9.71 2.62 l
o
/Font1 findfont 10 s
20.42 451.41 (w) 0 90 t
/Font1 findfont 7 s
15.45 458.63 (2) 0 90 t
/Font5 findfont 12 s
20.42 462.52 (\)) 0 90 t
0.00 0.00 576.00 576.00 cl
0 0 0 srgb
0.75 setlinewidth
[] 0 setdash
1 setlinecap
1 setlinejoin
10.00 setmiterlimit
np
60.96 337.00 m
213.89 0 l
0 213.90 l
-213.89 0 l
0 -213.90 l
o
348.96 337.00 562.85 550.90 cl
/bg { 1 0 0 srgb } def
np
 358.86 357.94 m
15.84 0 l
0 25.77 l
-15.84 0 l
cp p2
0 0 0 srgb
2.25 setlinewidth
[] 0 setdash
0 setlinecap
1 setlinejoin
10.00 setmiterlimit
np
358.86 369.53 m
15.84 0 l
o
0.75 setlinewidth
[ 2.25 3.75] 0 setdash
1 setlinecap
np
366.78 344.93 m
0 13.01 l
o
np
366.78 420.96 m
0 -37.25 l
o
0.75 setlinewidth
[] 0 setdash
np
362.82 344.93 m
7.92 0 l
o
np
362.82 420.96 m
7.92 0 l
o
np
358.86 357.94 m
15.84 0 l
0 25.77 l
-15.84 0 l
0 -25.77 l
o
366.78 471.22 1.86 c p1
366.78 512.72 1.86 c p1
366.78 448.14 1.86 c p1
366.78 424.21 1.86 c p1
366.78 426.29 1.86 c p1
366.78 442.32 1.86 c p1
366.78 435.96 1.86 c p1
366.78 433.93 1.86 c p1
np
 378.66 365.99 m
15.85 0 l
0 51.96 l
-15.85 0 l
cp p2
2.25 setlinewidth
[] 0 setdash
0 setlinecap
np
378.66 382.77 m
15.85 0 l
o
0.75 setlinewidth
[ 2.25 3.75] 0 setdash
1 setlinecap
np
386.59 350.81 m
0 15.18 l
o
np
386.59 487.34 m
0 -69.39 l
o
0.75 setlinewidth
[] 0 setdash
np
382.62 350.81 m
7.93 0 l
o
np
382.62 487.34 m
7.93 0 l
o
np
378.66 365.99 m
15.85 0 l
0 51.96 l
-15.85 0 l
0 -51.96 l
o
386.59 508.72 1.86 c p1
386.59 496.15 1.86 c p1
386.59 502.28 1.86 c p1
386.59 527.00 1.86 c p1
386.59 508.53 1.86 c p1
386.59 523.05 1.86 c p1
386.59 531.03 1.86 c p1
386.59 516.11 1.86 c p1
np
 398.47 358.31 m
15.84 0 l
0 30.77 l
-15.84 0 l
cp p2
2.25 setlinewidth
[] 0 setdash
0 setlinecap
np
398.47 368.79 m
15.84 0 l
o
0.75 setlinewidth
[ 2.25 3.75] 0 setdash
1 setlinecap
np
406.39 345.78 m
0 12.53 l
o
np
406.39 432.93 m
0 -43.85 l
o
0.75 setlinewidth
[] 0 setdash
np
402.43 345.78 m
7.92 0 l
o
np
402.43 432.93 m
7.92 0 l
o
np
398.47 358.31 m
15.84 0 l
0 30.77 l
-15.84 0 l
0 -30.77 l
o
406.39 456.94 1.86 c p1
406.39 445.66 1.86 c p1
np
 418.27 360.77 m
15.85 0 l
0 23.60 l
-15.85 0 l
cp p2
2.25 setlinewidth
[] 0 setdash
0 setlinecap
np
418.27 369.92 m
15.85 0 l
o
0.75 setlinewidth
[ 2.25 3.75] 0 setdash
1 setlinecap
np
426.20 347.68 m
0 13.09 l
o
np
426.20 407.36 m
0 -22.99 l
o
0.75 setlinewidth
[] 0 setdash
np
422.23 347.68 m
7.93 0 l
o
np
422.23 407.36 m
7.93 0 l
o
np
418.27 360.77 m
15.85 0 l
0 23.60 l
-15.85 0 l
0 -23.60 l
o
426.20 428.50 1.86 c p1
426.20 430.31 1.86 c p1
426.20 501.81 1.86 c p1
426.20 454.58 1.86 c p1
426.20 510.79 1.86 c p1
426.20 499.67 1.86 c p1
426.20 430.67 1.86 c p1
426.20 452.54 1.86 c p1
426.20 451.59 1.86 c p1
426.20 420.01 1.86 c p1
426.20 445.11 1.86 c p1
426.20 421.33 1.86 c p1
np
 438.08 364.63 m
15.84 0 l
0 29.40 l
-15.84 0 l
cp p2
2.25 setlinewidth
[] 0 setdash
0 setlinecap
np
438.08 372.48 m
15.84 0 l
o
0.75 setlinewidth
[ 2.25 3.75] 0 setdash
1 setlinecap
np
446.00 350.77 m
0 13.86 l
o
np
446.00 432.09 m
0 -38.06 l
o
0.75 setlinewidth
[] 0 setdash
np
442.04 350.77 m
7.92 0 l
o
np
442.04 432.09 m
7.92 0 l
o
np
438.08 364.63 m
15.84 0 l
0 29.40 l
-15.84 0 l
0 -29.40 l
o
446.00 450.25 1.86 c p1
446.00 459.89 1.86 c p1
446.00 442.71 1.86 c p1
446.00 449.96 1.86 c p1
446.00 535.98 1.86 c p1
446.00 483.77 1.86 c p1
446.00 443.70 1.86 c p1
446.00 482.07 1.86 c p1
446.00 449.50 1.86 c p1
np
 457.88 354.74 m
15.85 0 l
0 20.69 l
-15.85 0 l
cp p2
2.25 setlinewidth
[] 0 setdash
0 setlinecap
np
457.88 364.68 m
15.85 0 l
o
0.75 setlinewidth
[ 2.25 3.75] 0 setdash
1 setlinecap
np
465.81 345.48 m
0 9.26 l
o
np
465.81 405.07 m
0 -29.64 l
o
0.75 setlinewidth
[] 0 setdash
np
461.85 345.48 m
7.92 0 l
o
np
461.85 405.07 m
7.92 0 l
o
np
457.88 354.74 m
15.85 0 l
0 20.69 l
-15.85 0 l
0 -20.69 l
o
465.81 411.07 1.86 c p1
465.81 419.77 1.86 c p1
np
 477.69 357.56 m
15.84 0 l
0 21.72 l
-15.84 0 l
cp p2
2.25 setlinewidth
[] 0 setdash
0 setlinecap
np
477.69 367.36 m
15.84 0 l
o
0.75 setlinewidth
[ 2.25 3.75] 0 setdash
1 setlinecap
np
485.61 348.11 m
0 9.45 l
o
np
485.61 409.12 m
0 -29.84 l
o
0.75 setlinewidth
[] 0 setdash
np
481.65 348.11 m
7.92 0 l
o
np
481.65 409.12 m
7.92 0 l
o
np
477.69 357.56 m
15.84 0 l
0 21.72 l
-15.84 0 l
0 -21.72 l
o
485.61 421.66 1.86 c p1
485.61 427.51 1.86 c p1
485.61 416.54 1.86 c p1
485.61 420.18 1.86 c p1
485.61 423.22 1.86 c p1
485.61 420.54 1.86 c p1
485.61 415.22 1.86 c p1
np
 497.50 358.20 m
15.84 0 l
0 25.58 l
-15.84 0 l
cp p2
2.25 setlinewidth
[] 0 setdash
0 setlinecap
np
497.50 369.82 m
15.84 0 l
o
0.75 setlinewidth
[ 2.25 3.75] 0 setdash
1 setlinecap
np
505.42 348.78 m
0 9.42 l
o
np
505.42 421.62 m
0 -37.84 l
o
0.75 setlinewidth
[] 0 setdash
np
501.46 348.78 m
7.92 0 l
o
np
501.46 421.62 m
7.92 0 l
o
np
497.50 358.20 m
15.84 0 l
0 25.58 l
-15.84 0 l
0 -25.58 l
o
505.42 467.16 1.86 c p1
505.42 452.22 1.86 c p1
np
 517.30 359.16 m
15.84 0 l
0 23.57 l
-15.84 0 l
cp p2
2.25 setlinewidth
[] 0 setdash
0 setlinecap
np
517.30 371.16 m
15.84 0 l
o
0.75 setlinewidth
[ 2.25 3.75] 0 setdash
1 setlinecap
np
525.22 346.79 m
0 12.37 l
o
np
525.22 413.56 m
0 -30.83 l
o
0.75 setlinewidth
[] 0 setdash
np
521.26 346.79 m
7.92 0 l
o
np
521.26 413.56 m
7.92 0 l
o
np
517.30 359.16 m
15.84 0 l
0 23.57 l
-15.84 0 l
0 -23.57 l
o
525.22 422.41 1.86 c p1
525.22 481.10 1.86 c p1
525.22 454.98 1.86 c p1
525.22 446.85 1.86 c p1
np
 537.11 358.47 m
15.84 0 l
0 30.85 l
-15.84 0 l
cp p2
2.25 setlinewidth
[] 0 setdash
0 setlinecap
np
537.11 369.57 m
15.84 0 l
o
0.75 setlinewidth
[ 2.25 3.75] 0 setdash
1 setlinecap
np
545.03 349.53 m
0 8.94 l
o
np
545.03 426.98 m
0 -37.66 l
o
0.75 setlinewidth
[] 0 setdash
np
541.07 349.53 m
7.92 0 l
o
np
541.07 426.98 m
7.92 0 l
o
np
537.11 358.47 m
15.84 0 l
0 30.85 l
-15.84 0 l
0 -30.85 l
o
545.03 436.53 1.86 c p1
545.03 542.98 1.86 c p1
545.03 478.23 1.86 c p1
545.03 451.75 1.86 c p1
0.00 0.00 576.00 576.00 cl
0 0 0 srgb
0.75 setlinewidth
[] 0 setdash
1 setlinecap
1 setlinejoin
10.00 setmiterlimit
np
366.78 337.00 m
178.25 0 l
o
np
366.78 337.00 m
0 -5.97 l
o
np
386.59 337.00 m
0 -5.97 l
o
np
406.39 337.00 m
0 -5.97 l
o
np
426.20 337.00 m
0 -5.97 l
o
np
446.00 337.00 m
0 -5.97 l
o
np
465.81 337.00 m
0 -5.97 l
o
np
485.61 337.00 m
0 -5.97 l
o
np
505.42 337.00 m
0 -5.97 l
o
np
525.22 337.00 m
0 -5.97 l
o
np
545.03 337.00 m
0 -5.97 l
o
/Font1 findfont 10 s
366.78 315.49 (10) .5 0 t
386.59 315.49 (20) .5 0 t
406.39 315.49 (30) .5 0 t
426.20 315.49 (40) .5 0 t
446.00 315.49 (50) .5 0 t
465.81 315.49 (60) .5 0 t
485.61 315.49 (70) .5 0 t
505.42 315.49 (80) .5 0 t
525.22 315.49 (90) .5 0 t
np
348.96 343.07 m
0 202.09 l
o
np
348.96 343.07 m
-5.98 0 l
o
np
348.96 376.75 m
-5.98 0 l
o
np
348.96 410.43 m
-5.98 0 l
o
np
348.96 444.11 m
-5.98 0 l
o
np
348.96 477.80 m
-5.98 0 l
o
np
348.96 511.48 m
-5.98 0 l
o
np
348.96 545.16 m
-5.98 0 l
o
334.61 343.07 (0) .5 90 t
334.61 376.75 (5) .5 90 t
334.61 410.43 (10) .5 90 t
334.61 444.11 (15) .5 90 t
334.61 477.80 (20) .5 90 t
334.61 511.48 (25) .5 90 t
334.61 545.16 (30) .5 90 t
288.00 288.00 576.00 576.00 cl
/Font1 findfont 12 s
0 0 0 srgb
388.50 560.35 (\(1+1\) MA-FILS) 0 ta
-0.240 (, w=log\(n\)) tb gr
/Font1 findfont 10 s
455.90 291.59 (n) .5 0 t
308.42 421.39 (T) 0 90 t
0.75 setlinewidth
[] 0 setdash
1 setlinecap
1 setlinejoin
10.00 setmiterlimit
np
299.80 421.39 m
0 6.11 l
o
np
309.68 428.81 m
-9.71 2.61 l
o
/Font5 findfont 12 s
308.42 432.73 (\() 0 90 t
/Font1 findfont 10 s
308.42 436.73 (n) 0 90 t
/Font1 findfont 7 s
303.45 442.29 (3) 0 90 t
np
309.68 447.48 m
-9.71 2.62 l
o
/Font1 findfont 10 s
308.42 451.41 (w) 0 90 t
/Font1 findfont 7 s
303.45 458.63 (2) 0 90 t
/Font5 findfont 12 s
308.42 462.52 (\)) 0 90 t
0.00 0.00 576.00 576.00 cl
0 0 0 srgb
0.75 setlinewidth
[] 0 setdash
1 setlinecap
1 setlinejoin
10.00 setmiterlimit
np
348.96 337.00 m
213.89 0 l
0 213.90 l
-213.89 0 l
0 -213.90 l
o
60.96 49.00 274.85 262.90 cl
/bg { 1 0 0 srgb } def
np
 70.86 65.36 m
15.84 0 l
0 20.91 l
-15.84 0 l
cp p2
0 0 0 srgb
2.25 setlinewidth
[] 0 setdash
0 setlinecap
1 setlinejoin
10.00 setmiterlimit
np
70.86 72.96 m
15.84 0 l
o
0.75 setlinewidth
[ 2.25 3.75] 0 setdash
1 setlinecap
np
78.78 56.93 m
0 8.43 l
o
np
78.78 109.43 m
0 -23.16 l
o
0.75 setlinewidth
[] 0 setdash
np
74.82 56.93 m
7.92 0 l
o
np
74.82 109.43 m
7.92 0 l
o
np
70.86 65.36 m
15.84 0 l
0 20.91 l
-15.84 0 l
0 -20.91 l
o
78.78 131.56 1.86 c p1
78.78 133.43 1.86 c p1
78.78 148.43 1.86 c p1
78.78 124.81 1.86 c p1
78.78 123.49 1.86 c p1
78.78 152.00 1.86 c p1
78.78 154.81 1.86 c p1
np
 90.66 69.96 m
15.85 0 l
0 26.58 l
-15.85 0 l
cp p2
2.25 setlinewidth
[] 0 setdash
0 setlinecap
np
90.66 79.05 m
15.85 0 l
o
0.75 setlinewidth
[ 2.25 3.75] 0 setdash
1 setlinecap
np
98.59 58.52 m
0 11.44 l
o
np
98.59 130.43 m
0 -33.89 l
o
0.75 setlinewidth
[] 0 setdash
np
94.62 58.52 m
7.93 0 l
o
np
94.62 130.43 m
7.93 0 l
o
np
90.66 69.96 m
15.85 0 l
0 26.58 l
-15.85 0 l
0 -26.58 l
o
98.59 162.68 1.86 c p1
98.59 142.99 1.86 c p1
98.59 151.53 1.86 c p1
98.59 136.99 1.86 c p1
98.59 147.78 1.86 c p1
np
 110.47 70.05 m
15.84 0 l
0 31.54 l
-15.84 0 l
cp p2
2.25 setlinewidth
[] 0 setdash
0 setlinecap
np
110.47 85.15 m
15.84 0 l
o
0.75 setlinewidth
[ 2.25 3.75] 0 setdash
1 setlinecap
np
118.39 57.68 m
0 12.37 l
o
np
118.39 127.68 m
0 -26.09 l
o
0.75 setlinewidth
[] 0 setdash
np
114.43 57.68 m
7.92 0 l
o
np
114.43 127.68 m
7.92 0 l
o
np
110.47 70.05 m
15.84 0 l
0 31.54 l
-15.84 0 l
0 -31.54 l
o
118.39 150.06 1.86 c p1
118.39 149.12 1.86 c p1
118.39 160.68 1.86 c p1
118.39 163.37 1.86 c p1
np
 130.27 69.42 m
15.85 0 l
0 24.12 l
-15.85 0 l
cp p2
2.25 setlinewidth
[] 0 setdash
0 setlinecap
np
130.27 80.08 m
15.85 0 l
o
0.75 setlinewidth
[ 2.25 3.75] 0 setdash
1 setlinecap
np
138.20 58.71 m
0 10.71 l
o
np
138.20 127.76 m
0 -34.22 l
o
0.75 setlinewidth
[] 0 setdash
np
134.23 58.71 m
7.93 0 l
o
np
134.23 127.76 m
7.93 0 l
o
np
130.27 69.42 m
15.85 0 l
0 24.12 l
-15.85 0 l
0 -24.12 l
o
138.20 131.84 1.86 c p1
138.20 168.73 1.86 c p1
np
 150.08 68.16 m
15.84 0 l
0 30.94 l
-15.84 0 l
cp p2
2.25 setlinewidth
[] 0 setdash
0 setlinecap
np
150.08 82.22 m
15.84 0 l
o
0.75 setlinewidth
[ 2.25 3.75] 0 setdash
1 setlinecap
np
158.00 59.36 m
0 8.80 l
o
np
158.00 135.16 m
0 -36.06 l
o
0.75 setlinewidth
[] 0 setdash
np
154.04 59.36 m
7.92 0 l
o
np
154.04 135.16 m
7.92 0 l
o
np
150.08 68.16 m
15.84 0 l
0 30.94 l
-15.84 0 l
0 -30.94 l
o
158.00 254.98 1.86 c p1
158.00 147.20 1.86 c p1
158.00 157.51 1.86 c p1
np
 169.88 72.07 m
15.85 0 l
0 24.17 l
-15.85 0 l
cp p2
2.25 setlinewidth
[] 0 setdash
0 setlinecap
np
169.88 81.04 m
15.85 0 l
o
0.75 setlinewidth
[ 2.25 3.75] 0 setdash
1 setlinecap
np
177.81 60.30 m
0 11.77 l
o
np
177.81 132.28 m
0 -36.04 l
o
0.75 setlinewidth
[] 0 setdash
np
173.85 60.30 m
7.92 0 l
o
np
173.85 132.28 m
7.92 0 l
o
np
169.88 72.07 m
15.85 0 l
0 24.17 l
-15.85 0 l
0 -24.17 l
o
177.81 159.78 1.86 c p1
177.81 168.34 1.86 c p1
177.81 140.53 1.86 c p1
np
 189.69 70.17 m
15.84 0 l
0 21.34 l
-15.84 0 l
cp p2
2.25 setlinewidth
[] 0 setdash
0 setlinecap
np
189.69 77.55 m
15.84 0 l
o
0.75 setlinewidth
[ 2.25 3.75] 0 setdash
1 setlinecap
np
197.61 59.90 m
0 10.27 l
o
np
197.61 119.77 m
0 -28.26 l
o
0.75 setlinewidth
[] 0 setdash
np
193.65 59.90 m
7.92 0 l
o
np
193.65 119.77 m
7.92 0 l
o
np
189.69 70.17 m
15.84 0 l
0 21.34 l
-15.84 0 l
0 -21.34 l
o
197.61 162.31 1.86 c p1
197.61 186.47 1.86 c p1
197.61 148.38 1.86 c p1
197.61 138.36 1.86 c p1
np
 209.50 72.47 m
15.84 0 l
0 33.85 l
-15.84 0 l
cp p2
2.25 setlinewidth
[] 0 setdash
0 setlinecap
np
209.50 82.98 m
15.84 0 l
o
0.75 setlinewidth
[ 2.25 3.75] 0 setdash
1 setlinecap
np
217.42 62.62 m
0 9.85 l
o
np
217.42 152.04 m
0 -45.72 l
o
0.75 setlinewidth
[] 0 setdash
np
213.46 62.62 m
7.92 0 l
o
np
213.46 152.04 m
7.92 0 l
o
np
209.50 72.47 m
15.84 0 l
0 33.85 l
-15.84 0 l
0 -33.85 l
o
217.42 162.12 1.86 c p1
217.42 182.61 1.86 c p1
217.42 166.46 1.86 c p1
np
 229.30 72.43 m
15.84 0 l
0 25.42 l
-15.84 0 l
cp p2
2.25 setlinewidth
[] 0 setdash
0 setlinecap
np
229.30 84.43 m
15.84 0 l
o
0.75 setlinewidth
[ 2.25 3.75] 0 setdash
1 setlinecap
np
237.22 59.38 m
0 13.05 l
o
np
237.22 134.68 m
0 -36.83 l
o
0.75 setlinewidth
[] 0 setdash
np
233.26 59.38 m
7.92 0 l
o
np
233.26 134.68 m
7.92 0 l
o
np
229.30 72.43 m
15.84 0 l
0 25.42 l
-15.84 0 l
0 -25.42 l
o
237.22 143.70 1.86 c p1
237.22 199.65 1.86 c p1
237.22 163.56 1.86 c p1
237.22 144.60 1.86 c p1
np
 249.11 67.86 m
15.84 0 l
0 21.80 l
-15.84 0 l
cp p2
2.25 setlinewidth
[] 0 setdash
0 setlinecap
np
249.11 78.35 m
15.84 0 l
o
0.75 setlinewidth
[ 2.25 3.75] 0 setdash
1 setlinecap
np
257.03 58.99 m
0 8.87 l
o
np
257.03 121.34 m
0 -31.68 l
o
0.75 setlinewidth
[] 0 setdash
np
253.07 58.99 m
7.92 0 l
o
np
253.07 121.34 m
7.92 0 l
o
np
249.11 67.86 m
15.84 0 l
0 21.80 l
-15.84 0 l
0 -21.80 l
o
257.03 170.26 1.86 c p1
257.03 172.72 1.86 c p1
257.03 127.90 1.86 c p1
257.03 166.87 1.86 c p1
0.00 0.00 576.00 576.00 cl
0 0 0 srgb
0.75 setlinewidth
[] 0 setdash
1 setlinecap
1 setlinejoin
10.00 setmiterlimit
np
78.78 49.00 m
178.25 0 l
o
np
78.78 49.00 m
0 -5.97 l
o
np
98.59 49.00 m
0 -5.97 l
o
np
118.39 49.00 m
0 -5.97 l
o
np
138.20 49.00 m
0 -5.97 l
o
np
158.00 49.00 m
0 -5.97 l
o
np
177.81 49.00 m
0 -5.97 l
o
np
197.61 49.00 m
0 -5.97 l
o
np
217.42 49.00 m
0 -5.97 l
o
np
237.22 49.00 m
0 -5.97 l
o
np
257.03 49.00 m
0 -5.97 l
o
/Font1 findfont 10 s
78.78 27.49 (10) .5 0 t
98.59 27.49 (20) .5 0 t
118.39 27.49 (30) .5 0 t
138.20 27.49 (40) .5 0 t
158.00 27.49 (50) .5 0 t
177.81 27.49 (60) .5 0 t
197.61 27.49 (70) .5 0 t
217.42 27.49 (80) .5 0 t
237.22 27.49 (90) .5 0 t
np
60.96 56.18 m
0 187.51 l
o
np
60.96 56.18 m
-5.98 0 l
o
np
60.96 93.68 m
-5.98 0 l
o
np
60.96 131.18 m
-5.98 0 l
o
np
60.96 168.68 m
-5.98 0 l
o
np
60.96 206.19 m
-5.98 0 l
o
np
60.96 243.69 m
-5.98 0 l
o
46.61 56.18 (0) .5 90 t
46.61 93.68 (20) .5 90 t
46.61 131.18 (40) .5 90 t
46.61 168.68 (60) .5 90 t
46.61 206.19 (80) .5 90 t
46.61 243.69 (100) .5 90 t
0.00 0.00 288.00 288.00 cl
/Font1 findfont 12 s
0 0 0 srgb
108.40 272.21 (\(1+1\) MA-BILS) 0 ta
-0.240 (, w=) tb gr
0.75 setlinewidth
[] 0 setdash
1 setlinecap
1 setlinejoin
10.00 setmiterlimit
np
213.20 274.79 m
1.56 0.65 l
1.55 -3.23 l
2.06 8.97 l
8.49 0 l
o
219.63 272.21 (n) 0 0 t
/Font1 findfont 10 s
167.90 3.59 (n) .5 0 t
21.45 145.56 (T) 0 90 t
np
12.83 145.56 m
0 6.11 l
o
np
22.71 152.97 m
-9.71 2.62 l
o
21.45 156.90 (n) 0 90 t
/Font1 findfont 7 s
16.48 162.46 (2) 0 90 t
0.00 0.00 576.00 576.00 cl
0 0 0 srgb
0.75 setlinewidth
[] 0 setdash
1 setlinecap
1 setlinejoin
10.00 setmiterlimit
np
60.96 49.00 m
213.89 0 l
0 213.90 l
-213.89 0 l
0 -213.90 l
o
348.96 49.00 562.85 262.90 cl
/bg { 1 0 0 srgb } def
np
 358.86 67.10 m
15.84 0 l
0 28.69 l
-15.84 0 l
cp p2
0 0 0 srgb
2.25 setlinewidth
[] 0 setdash
0 setlinecap
1 setlinejoin
10.00 setmiterlimit
np
358.86 80.15 m
15.84 0 l
o
0.75 setlinewidth
[ 2.25 3.75] 0 setdash
1 setlinecap
np
366.78 56.93 m
0 10.17 l
o
np
366.78 134.25 m
0 -38.46 l
o
0.75 setlinewidth
[] 0 setdash
np
362.82 56.93 m
7.92 0 l
o
np
362.82 134.25 m
7.92 0 l
o
np
358.86 67.10 m
15.84 0 l
0 28.69 l
-15.84 0 l
0 -28.69 l
o
366.78 145.99 1.86 c p1
366.78 210.46 1.86 c p1
366.78 152.67 1.86 c p1
366.78 148.42 1.86 c p1
366.78 147.00 1.86 c p1
366.78 156.92 1.86 c p1
366.78 139.31 1.86 c p1
np
 378.66 73.50 m
15.85 0 l
0 30.56 l
-15.85 0 l
cp p2
2.25 setlinewidth
[] 0 setdash
0 setlinecap
np
378.66 84.02 m
15.85 0 l
o
0.75 setlinewidth
[ 2.25 3.75] 0 setdash
1 setlinecap
np
386.59 58.37 m
0 15.13 l
o
np
386.59 146.32 m
0 -42.26 l
o
0.75 setlinewidth
[] 0 setdash
np
382.62 58.37 m
7.93 0 l
o
np
382.62 146.32 m
7.93 0 l
o
np
378.66 73.50 m
15.85 0 l
0 30.56 l
-15.85 0 l
0 -30.56 l
o
386.59 215.19 1.86 c p1
386.59 160.97 1.86 c p1
386.59 152.80 1.86 c p1
386.59 178.05 1.86 c p1
386.59 241.41 1.86 c p1
386.59 161.25 1.86 c p1
np
 398.47 75.90 m
15.84 0 l
0 30.80 l
-15.84 0 l
cp p2
2.25 setlinewidth
[] 0 setdash
0 setlinecap
np
398.47 87.61 m
15.84 0 l
o
0.75 setlinewidth
[ 2.25 3.75] 0 setdash
1 setlinecap
np
406.39 58.87 m
0 17.03 l
o
np
406.39 148.50 m
0 -41.80 l
o
0.75 setlinewidth
[] 0 setdash
np
402.43 58.87 m
7.92 0 l
o
np
402.43 148.50 m
7.92 0 l
o
np
398.47 75.90 m
15.84 0 l
0 30.80 l
-15.84 0 l
0 -30.80 l
o
406.39 172.90 1.86 c p1
406.39 164.29 1.86 c p1
406.39 154.33 1.86 c p1
406.39 195.22 1.86 c p1
np
 418.27 70.66 m
15.85 0 l
0 24.46 l
-15.85 0 l
cp p2
2.25 setlinewidth
[] 0 setdash
0 setlinecap
np
418.27 81.08 m
15.85 0 l
o
0.75 setlinewidth
[ 2.25 3.75] 0 setdash
1 setlinecap
np
426.20 57.95 m
0 12.71 l
o
np
426.20 130.09 m
0 -34.97 l
o
0.75 setlinewidth
[] 0 setdash
np
422.23 57.95 m
7.93 0 l
o
np
422.23 130.09 m
7.93 0 l
o
np
418.27 70.66 m
15.85 0 l
0 24.46 l
-15.85 0 l
0 -24.46 l
o
426.20 170.13 1.86 c p1
426.20 137.84 1.86 c p1
426.20 139.92 1.86 c p1
426.20 138.96 1.86 c p1
np
 438.08 67.78 m
15.84 0 l
0 23.13 l
-15.84 0 l
cp p2
2.25 setlinewidth
[] 0 setdash
0 setlinecap
np
438.08 76.34 m
15.84 0 l
o
0.75 setlinewidth
[ 2.25 3.75] 0 setdash
1 setlinecap
np
446.00 58.28 m
0 9.50 l
o
np
446.00 125.01 m
0 -34.10 l
o
0.75 setlinewidth
[] 0 setdash
np
442.04 58.28 m
7.92 0 l
o
np
442.04 125.01 m
7.92 0 l
o
np
438.08 67.78 m
15.84 0 l
0 23.13 l
-15.84 0 l
0 -23.13 l
o
446.00 131.49 1.86 c p1
446.00 180.03 1.86 c p1
446.00 132.16 1.86 c p1
446.00 141.85 1.86 c p1
446.00 140.84 1.86 c p1
446.00 126.34 1.86 c p1
446.00 127.14 1.86 c p1
np
 457.88 75.40 m
15.85 0 l
0 29.94 l
-15.85 0 l
cp p2
2.25 setlinewidth
[] 0 setdash
0 setlinecap
np
457.88 87.70 m
15.85 0 l
o
0.75 setlinewidth
[ 2.25 3.75] 0 setdash
1 setlinecap
np
465.81 57.16 m
0 18.24 l
o
np
465.81 145.58 m
0 -40.24 l
o
0.75 setlinewidth
[] 0 setdash
np
461.85 57.16 m
7.92 0 l
o
np
461.85 145.58 m
7.92 0 l
o
np
457.88 75.40 m
15.85 0 l
0 29.94 l
-15.85 0 l
0 -29.94 l
o
465.81 191.74 1.86 c p1
465.81 152.52 1.86 c p1
465.81 164.65 1.86 c p1
465.81 173.26 1.86 c p1
465.81 254.98 1.86 c p1
np
 477.69 69.66 m
15.84 0 l
0 22.11 l
-15.84 0 l
cp p2
2.25 setlinewidth
[] 0 setdash
0 setlinecap
np
477.69 76.34 m
15.84 0 l
o
0.75 setlinewidth
[ 2.25 3.75] 0 setdash
1 setlinecap
np
485.61 57.92 m
0 11.74 l
o
np
485.61 123.47 m
0 -31.70 l
o
0.75 setlinewidth
[] 0 setdash
np
481.65 57.92 m
7.92 0 l
o
np
481.65 123.47 m
7.92 0 l
o
np
477.69 69.66 m
15.84 0 l
0 22.11 l
-15.84 0 l
0 -22.11 l
o
485.61 136.38 1.86 c p1
485.61 127.60 1.86 c p1
485.61 126.38 1.86 c p1
485.61 136.48 1.86 c p1
485.61 146.85 1.86 c p1
485.61 175.08 1.86 c p1
485.61 137.17 1.86 c p1
485.61 168.50 1.86 c p1
np
 497.50 73.19 m
15.84 0 l
0 37.77 l
-15.84 0 l
cp p2
2.25 setlinewidth
[] 0 setdash
0 setlinecap
np
497.50 86.69 m
15.84 0 l
o
0.75 setlinewidth
[ 2.25 3.75] 0 setdash
1 setlinecap
np
505.42 59.66 m
0 13.53 l
o
np
505.42 163.66 m
0 -52.70 l
o
0.75 setlinewidth
[] 0 setdash
np
501.46 59.66 m
7.92 0 l
o
np
501.46 163.66 m
7.92 0 l
o
np
497.50 73.19 m
15.84 0 l
0 37.77 l
-15.84 0 l
0 -37.77 l
o
505.42 237.33 1.86 c p1
np
 517.30 74.41 m
15.84 0 l
0 23.81 l
-15.84 0 l
cp p2
2.25 setlinewidth
[] 0 setdash
0 setlinecap
np
517.30 80.21 m
15.84 0 l
o
0.75 setlinewidth
[ 2.25 3.75] 0 setdash
1 setlinecap
np
525.22 57.60 m
0 16.81 l
o
np
525.22 124.27 m
0 -26.05 l
o
0.75 setlinewidth
[] 0 setdash
np
521.26 57.60 m
7.92 0 l
o
np
521.26 124.27 m
7.92 0 l
o
np
517.30 74.41 m
15.84 0 l
0 23.81 l
-15.84 0 l
0 -23.81 l
o
525.22 141.31 1.86 c p1
525.22 140.30 1.86 c p1
525.22 158.34 1.86 c p1
525.22 153.58 1.86 c p1
525.22 159.37 1.86 c p1
525.22 144.18 1.86 c p1
525.22 178.39 1.86 c p1
np
 537.11 67.77 m
15.84 0 l
0 24.17 l
-15.84 0 l
cp p2
2.25 setlinewidth
[] 0 setdash
0 setlinecap
np
537.11 82.86 m
15.84 0 l
o
0.75 setlinewidth
[ 2.25 3.75] 0 setdash
1 setlinecap
np
545.03 58.14 m
0 9.63 l
o
np
545.03 123.82 m
0 -31.88 l
o
0.75 setlinewidth
[] 0 setdash
np
541.07 58.14 m
7.92 0 l
o
np
541.07 123.82 m
7.92 0 l
o
np
537.11 67.77 m
15.84 0 l
0 24.17 l
-15.84 0 l
0 -24.17 l
o
545.03 132.78 1.86 c p1
545.03 138.20 1.86 c p1
545.03 128.28 1.86 c p1
545.03 154.04 1.86 c p1
545.03 133.49 1.86 c p1
545.03 173.39 1.86 c p1
0.00 0.00 576.00 576.00 cl
0 0 0 srgb
0.75 setlinewidth
[] 0 setdash
1 setlinecap
1 setlinejoin
10.00 setmiterlimit
np
366.78 49.00 m
178.25 0 l
o
np
366.78 49.00 m
0 -5.97 l
o
np
386.59 49.00 m
0 -5.97 l
o
np
406.39 49.00 m
0 -5.97 l
o
np
426.20 49.00 m
0 -5.97 l
o
np
446.00 49.00 m
0 -5.97 l
o
np
465.81 49.00 m
0 -5.97 l
o
np
485.61 49.00 m
0 -5.97 l
o
np
505.42 49.00 m
0 -5.97 l
o
np
525.22 49.00 m
0 -5.97 l
o
np
545.03 49.00 m
0 -5.97 l
o
/Font1 findfont 10 s
366.78 27.49 (10) .5 0 t
386.59 27.49 (20) .5 0 t
406.39 27.49 (30) .5 0 t
426.20 27.49 (40) .5 0 t
446.00 27.49 (50) .5 0 t
465.81 27.49 (60) .5 0 t
485.61 27.49 (70) .5 0 t
505.42 27.49 (80) .5 0 t
525.22 27.49 (90) .5 0 t
np
348.96 55.10 m
0 202.42 l
o
np
348.96 55.10 m
-5.98 0 l
o
np
348.96 105.71 m
-5.98 0 l
o
np
348.96 156.31 m
-5.98 0 l
o
np
348.96 206.92 m
-5.98 0 l
o
np
348.96 257.52 m
-5.98 0 l
o
334.61 55.10 (0) .5 90 t
334.61 105.71 (5) .5 90 t
334.61 156.31 (10) .5 90 t
334.61 206.92 (15) .5 90 t
334.61 257.52 (20) .5 90 t
288.00 0.00 576.00 288.00 cl
/Font1 findfont 12 s
0 0 0 srgb
396.73 272.21 (\(1+1\) MA-FILS) 0 ta
-0.240 (, w=) tb gr
0.75 setlinewidth
[] 0 setdash
1 setlinecap
1 setlinejoin
10.00 setmiterlimit
np
500.87 274.79 m
1.55 0.65 l
1.55 -3.23 l
2.07 8.97 l
8.48 0 l
o
507.29 272.21 (n) 0 0 t
/Font1 findfont 10 s
455.90 3.59 (n) .5 0 t
309.45 145.56 (T) 0 90 t
np
300.83 145.56 m
0 6.11 l
o
np
310.71 152.97 m
-9.71 2.62 l
o
309.45 156.90 (n) 0 90 t
/Font1 findfont 7 s
304.48 162.46 (2) 0 90 t
0.00 0.00 576.00 576.00 cl
0 0 0 srgb
0.75 setlinewidth
[] 0 setdash
1 setlinecap
1 setlinejoin
10.00 setmiterlimit
np
348.96 49.00 m
213.89 0 l
0 213.90 l
-213.89 0 l
0 -213.90 l
o
ep
%%Trailer
%%Pages: 1
%%EOF
