%!PS-Adobe-3.0 EPSF-3.0
%%DocumentNeededResources: font Helvetica
%%+ font Helvetica-Bold
%%+ font Helvetica-Oblique
%%+ font Helvetica-BoldOblique
%%+ font Symbol
%%Title: R Graphics Output
%%Creator: R Software
%%Pages: (atend)
%%BoundingBox: 0 0 576 288
%%EndComments
%%BeginProlog
/bp  { gs sRGB gs } def
% begin .ps.prolog
/gs  { gsave } bind def
/gr  { grestore } bind def
/ep  { showpage gr gr } bind def
/m   { moveto } bind def
/l  { rlineto } bind def
/np  { newpath } bind def
/cp  { closepath } bind def
/f   { fill } bind def
/o   { stroke } bind def
/c   { newpath 0 360 arc } bind def
/r   { 4 2 roll moveto 1 copy 3 -1 roll exch 0 exch rlineto 0 rlineto -1 mul 0 exch rlineto closepath } bind def
/p1  { stroke } bind def
/p2  { gsave bg fill grestore newpath } bind def
/p3  { gsave bg fill grestore stroke } bind def
/p6  { gsave bg eofill grestore newpath } bind def
/p7  { gsave bg eofill grestore stroke } bind def
/t   { 5 -2 roll moveto gsave rotate
       1 index stringwidth pop
       mul neg 0 rmoveto show grestore } bind def
/ta  { 4 -2 roll moveto gsave rotate show } bind def
/tb  { 2 -1 roll 0 rmoveto show } bind def
/cl  { grestore gsave newpath 3 index 3 index moveto 1 index
       4 -1 roll lineto  exch 1 index lineto lineto
       closepath clip newpath } bind def
/rgb { setrgbcolor } bind def
/s   { scalefont setfont } bind def
% end   .ps.prolog
/sRGB { [ /CIEBasedABC
          << /DecodeLMN
               [ { dup 0.03928 le
                        {12.92321 div}
                        {0.055 add 1.055 div 2.4 exp }
                     ifelse
                 } bind dup dup
               ]
             /MatrixLMN [0.412457 0.212673 0.019334
                         0.357576 0.715152 0.119192
                         0.180437 0.072175 0.950301]
             /WhitePoint [0.9505 1.0 1.0890]
           >>
         ] setcolorspace } bind def
/srgb { setcolor } bind def
%%IncludeResource: font Helvetica
/Helvetica findfont
dup length dict begin
  {1 index /FID ne {def} {pop pop} ifelse} forall
  /Encoding ISOLatin1Encoding def
  currentdict
  end
/Font1 exch definefont pop
%%IncludeResource: font Helvetica-Bold
/Helvetica-Bold findfont
dup length dict begin
  {1 index /FID ne {def} {pop pop} ifelse} forall
  /Encoding ISOLatin1Encoding def
  currentdict
  end
/Font2 exch definefont pop
%%IncludeResource: font Helvetica-Oblique
/Helvetica-Oblique findfont
dup length dict begin
  {1 index /FID ne {def} {pop pop} ifelse} forall
  /Encoding ISOLatin1Encoding def
  currentdict
  end
/Font3 exch definefont pop
%%IncludeResource: font Helvetica-BoldOblique
/Helvetica-BoldOblique findfont
dup length dict begin
  {1 index /FID ne {def} {pop pop} ifelse} forall
  /Encoding ISOLatin1Encoding def
  currentdict
  end
/Font4 exch definefont pop
%%IncludeResource: font Symbol
/Symbol findfont
dup length dict begin
  {1 index /FID ne {def} {pop pop} ifelse} forall
  currentdict
  end
/Font5 exch definefont pop
%%EndProlog
%%Page: 1 1
bp
59.04 73.44 272.16 272.16 cl
/bg { 1 0 0 srgb } def
66.93 80.97 4.05 c p2
88.86 82.16 4.05 c p2
110.79 82.79 4.05 c p2
132.71 85.49 4.05 c p2
154.64 89.84 4.05 c p2
176.56 89.19 4.05 c p2
198.49 95.53 4.05 c p2
220.41 103.21 4.05 c p2
242.34 110.84 4.05 c p2
264.27 125.34 4.05 c p2
0.00 0.00 576.00 288.00 cl
0 0 0 srgb
0.75 setlinewidth
[] 0 setdash
1 setlinecap
1 setlinejoin
10.00 setmiterlimit
np
88.86 73.44 m
175.41 0 l
o
np
88.86 73.44 m
0 5.96 l
o
np
132.71 73.44 m
0 5.96 l
o
np
176.56 73.44 m
0 5.96 l
o
np
220.41 73.44 m
0 5.96 l
o
np
264.27 73.44 m
0 5.96 l
o
/Font1 findfont 12 s
88.86 47.52 (20) .5 0 t
132.71 47.52 (40) .5 0 t
176.56 47.52 (60) .5 0 t
220.41 47.52 (80) .5 0 t
264.27 47.52 (100) .5 0 t
np
59.04 80.80 m
0 181.28 l
o
np
59.04 80.80 m
5.96 0 l
o
np
59.04 117.06 m
5.96 0 l
o
np
59.04 153.31 m
5.96 0 l
o
np
59.04 189.57 m
5.96 0 l
o
np
59.04 225.82 m
5.96 0 l
o
np
59.04 262.08 m
5.96 0 l
o
41.76 80.80 (0e+00) .5 90 t
41.76 153.31 (4e+05) .5 90 t
41.76 225.82 (8e+05) .5 90 t
np
59.04 73.44 m
213.12 0 l
0 198.72 l
-213.12 0 l
0 -198.72 l
o
0.00 0.00 288.00 288.00 cl
/Font1 findfont 14 s
0 0 0 srgb
91.29 18.72 (Prob) 0 ta
-0.280 (lem instance siz) tb
-0.210 (e n) tb gr
12.96 121.45 (A) 90 ta
-0.560 (v) tb
-0.350 (er) tb
-0.140 (age r) tb
0.210 (untime) tb gr
59.04 73.44 272.16 272.16 cl
/bg { 0 0 1 srgb } def
np
 66.93 87.14 m
5.46 -9.45 l
-10.91 0 l
cp p2
np
 88.86 87.40 m
5.45 -9.45 l
-10.91 0 l
cp p2
np
 110.79 95.01 m
5.45 -9.45 l
-10.91 0 l
cp p2
np
 132.71 109.37 m
5.46 -9.45 l
-10.91 0 l
cp p2
np
 154.64 130.43 m
5.45 -9.45 l
-10.91 0 l
cp p2
np
 176.56 130.48 m
5.46 -9.45 l
-10.91 0 l
cp p2
np
 198.49 163.59 m
5.45 -9.44 l
-10.91 0 l
cp p2
np
 220.41 181.65 m
5.46 -9.45 l
-10.91 0 l
cp p2
np
 242.34 237.79 m
5.46 -9.45 l
-10.91 0 l
cp p2
np
 264.27 271.10 m
5.45 -9.45 l
-10.91 0 l
cp p2
0 0 0 srgb
0.75 setlinewidth
[] 0 setdash
1 setlinecap
1 setlinejoin
10.00 setmiterlimit
59.04 272.16 106.37 -43.20 r p1
/bg { 1 0 0 srgb } def
69.84 257.76 2.70 c p2
/bg { 0 0 1 srgb } def
np
 69.84 247.56 m
3.64 -6.30 l
-7.28 0 l
cp p2
/Font1 findfont 12 s
80.64 253.45 (\(1+1\)MA-FILS) 0 0 t
80.64 239.05 (\(1+1\)MA-BILS) 0 0 t
0.4784 0.4784 0.4784 srgb
1.50 setlinewidth
[ 0.00 6.00] 0 setdash
np
88.86 73.44 m
0 198.72 l
o
np
132.71 73.44 m
0 198.72 l
o
np
176.56 73.44 m
0 198.72 l
o
np
220.41 73.44 m
0 198.72 l
o
np
264.27 73.44 m
0 198.72 l
o
np
59.04 80.80 m
213.12 0 l
o
np
59.04 117.06 m
213.12 0 l
o
np
59.04 153.31 m
213.12 0 l
o
np
59.04 189.57 m
213.12 0 l
o
np
59.04 225.82 m
213.12 0 l
o
np
59.04 262.08 m
213.12 0 l
o
347.04 73.44 560.16 272.16 cl
/bg { 1 0 0 srgb } def
354.93 81.22 4.05 c p2
376.86 82.80 4.05 c p2
398.79 85.35 4.05 c p2
420.71 87.14 4.05 c p2
442.64 89.69 4.05 c p2
464.56 99.22 4.05 c p2
486.49 99.86 4.05 c p2
508.41 112.94 4.05 c p2
530.34 116.46 4.05 c p2
552.27 119.87 4.05 c p2
0.00 0.00 576.00 288.00 cl
0 0 0 srgb
0.75 setlinewidth
[] 0 setdash
1 setlinecap
1 setlinejoin
10.00 setmiterlimit
np
376.86 73.44 m
175.41 0 l
o
np
376.86 73.44 m
0 5.96 l
o
np
420.71 73.44 m
0 5.96 l
o
np
464.56 73.44 m
0 5.96 l
o
np
508.41 73.44 m
0 5.96 l
o
np
552.27 73.44 m
0 5.96 l
o
/Font1 findfont 12 s
376.86 47.52 (20) .5 0 t
420.71 47.52 (40) .5 0 t
464.56 47.52 (60) .5 0 t
508.41 47.52 (80) .5 0 t
552.27 47.52 (100) .5 0 t
np
347.04 80.80 m
0 182.96 l
o
np
347.04 80.80 m
5.96 0 l
o
np
347.04 106.94 m
5.96 0 l
o
np
347.04 133.07 m
5.96 0 l
o
np
347.04 159.21 m
5.96 0 l
o
np
347.04 185.35 m
5.96 0 l
o
np
347.04 211.48 m
5.96 0 l
o
np
347.04 237.62 m
5.96 0 l
o
np
347.04 263.76 m
5.96 0 l
o
329.76 80.80 (0) .5 90 t
329.76 133.07 (40000) .5 90 t
329.76 185.35 (80000) .5 90 t
329.76 237.62 (120000) .5 90 t
np
347.04 73.44 m
213.12 0 l
0 198.72 l
-213.12 0 l
0 -198.72 l
o
288.00 0.00 576.00 288.00 cl
/Font1 findfont 14 s
0 0 0 srgb
379.30 18.72 (Prob) 0 ta
-0.280 (lem instance siz) tb
-0.210 (e n) tb gr
300.96 121.45 (A) 90 ta
-0.560 (v) tb
-0.350 (er) tb
-0.140 (age r) tb
0.210 (untime) tb gr
347.04 73.44 560.16 272.16 cl
/bg { 0 0 1 srgb } def
np
 354.93 88.65 m
5.46 -9.45 l
-10.91 0 l
cp p2
np
 376.86 95.39 m
5.45 -9.44 l
-10.91 0 l
cp p2
np
 398.79 107.09 m
5.45 -9.44 l
-10.91 0 l
cp p2
np
 420.71 118.40 m
5.46 -9.44 l
-10.91 0 l
cp p2
np
 442.64 141.57 m
5.45 -9.44 l
-10.91 0 l
cp p2
np
 464.56 163.42 m
5.46 -9.45 l
-10.91 0 l
cp p2
np
 486.49 181.97 m
5.45 -9.45 l
-10.91 0 l
cp p2
np
 508.41 253.96 m
5.46 -9.45 l
-10.91 0 l
cp p2
np
 530.34 270.93 m
5.46 -9.45 l
-10.91 0 l
cp p2
np
 552.27 271.10 m
5.45 -9.45 l
-10.91 0 l
cp p2
0 0 0 srgb
0.75 setlinewidth
[] 0 setdash
1 setlinecap
1 setlinejoin
10.00 setmiterlimit
347.04 272.16 106.37 -43.20 r p1
/bg { 1 0 0 srgb } def
357.84 257.76 2.70 c p2
/bg { 0 0 1 srgb } def
np
 357.84 247.56 m
3.64 -6.30 l
-7.28 0 l
cp p2
/Font1 findfont 12 s
368.64 253.45 (\(1+1\)MA-FILS) 0 0 t
368.64 239.05 (\(1+1\)MA-BILS) 0 0 t
0.4784 0.4784 0.4784 srgb
1.50 setlinewidth
[ 0.00 6.00] 0 setdash
np
376.86 73.44 m
0 198.72 l
o
np
420.71 73.44 m
0 198.72 l
o
np
464.56 73.44 m
0 198.72 l
o
np
508.41 73.44 m
0 198.72 l
o
np
552.27 73.44 m
0 198.72 l
o
np
347.04 80.80 m
213.12 0 l
o
np
347.04 106.94 m
213.12 0 l
o
np
347.04 133.07 m
213.12 0 l
o
np
347.04 159.21 m
213.12 0 l
o
np
347.04 185.35 m
213.12 0 l
o
np
347.04 211.48 m
213.12 0 l
o
np
347.04 237.62 m
213.12 0 l
o
np
347.04 263.76 m
213.12 0 l
o
ep
%%Trailer
%%Pages: 1
%%EOF
