%!PS-Adobe-3.0 EPSF-3.0
%%DocumentNeededResources: font Helvetica
%%+ font Helvetica-Bold
%%+ font Helvetica-Oblique
%%+ font Helvetica-BoldOblique
%%+ font Symbol
%%Title: R Graphics Output
%%Creator: R Software
%%Pages: (atend)
%%BoundingBox: 0 0 576 216
%%EndComments
%%BeginProlog
/bp  { gs sRGB gs } def
% begin .ps.prolog
/gs  { gsave } bind def
/gr  { grestore } bind def
/ep  { showpage gr gr } bind def
/m   { moveto } bind def
/l  { rlineto } bind def
/np  { newpath } bind def
/cp  { closepath } bind def
/f   { fill } bind def
/o   { stroke } bind def
/c   { newpath 0 360 arc } bind def
/r   { 4 2 roll moveto 1 copy 3 -1 roll exch 0 exch rlineto 0 rlineto -1 mul 0 exch rlineto closepath } bind def
/p1  { stroke } bind def
/p2  { gsave bg fill grestore newpath } bind def
/p3  { gsave bg fill grestore stroke } bind def
/p6  { gsave bg eofill grestore newpath } bind def
/p7  { gsave bg eofill grestore stroke } bind def
/t   { 5 -2 roll moveto gsave rotate
       1 index stringwidth pop
       mul neg 0 rmoveto show grestore } bind def
/ta  { 4 -2 roll moveto gsave rotate show } bind def
/tb  { 2 -1 roll 0 rmoveto show } bind def
/cl  { grestore gsave newpath 3 index 3 index moveto 1 index
       4 -1 roll lineto  exch 1 index lineto lineto
       closepath clip newpath } bind def
/rgb { setrgbcolor } bind def
/s   { scalefont setfont } bind def
% end   .ps.prolog
/sRGB { [ /CIEBasedABC
          << /DecodeLMN
               [ { dup 0.03928 le
                        {12.92321 div}
                        {0.055 add 1.055 div 2.4 exp }
                     ifelse
                 } bind dup dup
               ]
             /MatrixLMN [0.412457 0.212673 0.019334
                         0.357576 0.715152 0.119192
                         0.180437 0.072175 0.950301]
             /WhitePoint [0.9505 1.0 1.0890]
           >>
         ] setcolorspace } bind def
/srgb { setcolor } bind def
%%IncludeResource: font Helvetica
/Helvetica findfont
dup length dict begin
  {1 index /FID ne {def} {pop pop} ifelse} forall
  /Encoding ISOLatin1Encoding def
  currentdict
  end
/Font1 exch definefont pop
%%IncludeResource: font Helvetica-Bold
/Helvetica-Bold findfont
dup length dict begin
  {1 index /FID ne {def} {pop pop} ifelse} forall
  /Encoding ISOLatin1Encoding def
  currentdict
  end
/Font2 exch definefont pop
%%IncludeResource: font Helvetica-Oblique
/Helvetica-Oblique findfont
dup length dict begin
  {1 index /FID ne {def} {pop pop} ifelse} forall
  /Encoding ISOLatin1Encoding def
  currentdict
  end
/Font3 exch definefont pop
%%IncludeResource: font Helvetica-BoldOblique
/Helvetica-BoldOblique findfont
dup length dict begin
  {1 index /FID ne {def} {pop pop} ifelse} forall
  /Encoding ISOLatin1Encoding def
  currentdict
  end
/Font4 exch definefont pop
%%IncludeResource: font Symbol
/Symbol findfont
dup length dict begin
  {1 index /FID ne {def} {pop pop} ifelse} forall
  currentdict
  end
/Font5 exch definefont pop
%%EndProlog
%%Page: 1 1
bp
73.44 73.44 272.16 185.76 cl
/bg { 1 0 0 srgb } def
np
 82.64 82.03 m
14.72 0 l
0 10.98 l
-14.72 0 l
cp p2
0 0 0 srgb
2.25 setlinewidth
[] 0 setdash
0 setlinecap
1 setlinejoin
10.00 setmiterlimit
np
82.64 86.02 m
14.72 0 l
o
0.75 setlinewidth
[ 2.25 3.75] 0 setdash
1 setlinecap
np
90.00 77.60 m
0 4.43 l
o
np
90.00 105.17 m
0 -12.16 l
o
0.75 setlinewidth
[] 0 setdash
np
86.32 77.60 m
7.36 0 l
o
np
86.32 105.17 m
7.36 0 l
o
np
82.64 82.03 m
14.72 0 l
0 10.98 l
-14.72 0 l
0 -10.98 l
o
90.00 116.79 2.70 c p1
90.00 117.77 2.70 c p1
90.00 125.65 2.70 c p1
90.00 113.24 2.70 c p1
90.00 112.56 2.70 c p1
90.00 127.52 2.70 c p1
90.00 129.00 2.70 c p1
np
 101.04 84.44 m
14.72 0 l
0 13.96 l
-14.72 0 l
cp p2
2.25 setlinewidth
[] 0 setdash
0 setlinecap
np
101.04 89.22 m
14.72 0 l
o
0.75 setlinewidth
[ 2.25 3.75] 0 setdash
1 setlinecap
np
108.40 78.44 m
0 6.00 l
o
np
108.40 116.20 m
0 -17.80 l
o
0.75 setlinewidth
[] 0 setdash
np
104.72 78.44 m
7.36 0 l
o
np
104.72 116.20 m
7.36 0 l
o
np
101.04 84.44 m
14.72 0 l
0 13.96 l
-14.72 0 l
0 -13.96 l
o
108.40 133.13 2.70 c p1
108.40 122.80 2.70 c p1
108.40 127.28 2.70 c p1
108.40 119.65 2.70 c p1
108.40 125.31 2.70 c p1
np
 119.44 84.49 m
14.72 0 l
0 16.56 l
-14.72 0 l
cp p2
2.25 setlinewidth
[] 0 setdash
0 setlinecap
np
119.44 92.42 m
14.72 0 l
o
0.75 setlinewidth
[ 2.25 3.75] 0 setdash
1 setlinecap
np
126.80 77.99 m
0 6.50 l
o
np
126.80 114.75 m
0 -13.70 l
o
0.75 setlinewidth
[] 0 setdash
np
123.12 77.99 m
7.36 0 l
o
np
123.12 114.75 m
7.36 0 l
o
np
119.44 84.49 m
14.72 0 l
0 16.56 l
-14.72 0 l
0 -16.56 l
o
126.80 126.50 2.70 c p1
126.80 126.01 2.70 c p1
126.80 132.08 2.70 c p1
126.80 133.50 2.70 c p1
np
 137.84 84.16 m
14.72 0 l
0 12.67 l
-14.72 0 l
cp p2
2.25 setlinewidth
[] 0 setdash
0 setlinecap
np
137.84 89.76 m
14.72 0 l
o
0.75 setlinewidth
[ 2.25 3.75] 0 setdash
1 setlinecap
np
145.20 78.54 m
0 5.62 l
o
np
145.20 114.80 m
0 -17.97 l
o
0.75 setlinewidth
[] 0 setdash
np
141.52 78.54 m
7.36 0 l
o
np
141.52 114.80 m
7.36 0 l
o
np
137.84 84.16 m
14.72 0 l
0 12.67 l
-14.72 0 l
0 -12.67 l
o
145.20 116.94 2.70 c p1
145.20 136.31 2.70 c p1
np
 156.24 83.50 m
14.72 0 l
0 16.25 l
-14.72 0 l
cp p2
2.25 setlinewidth
[] 0 setdash
0 setlinecap
np
156.24 90.88 m
14.72 0 l
o
0.75 setlinewidth
[ 2.25 3.75] 0 setdash
1 setlinecap
np
163.60 78.88 m
0 4.62 l
o
np
163.60 118.68 m
0 -18.93 l
o
0.75 setlinewidth
[] 0 setdash
np
159.92 78.88 m
7.36 0 l
o
np
159.92 118.68 m
7.36 0 l
o
np
156.24 83.50 m
14.72 0 l
0 16.25 l
-14.72 0 l
0 -16.25 l
o
163.60 181.60 2.70 c p1
163.60 125.00 2.70 c p1
163.60 130.42 2.70 c p1
np
 174.64 85.55 m
14.72 0 l
0 12.70 l
-14.72 0 l
cp p2
2.25 setlinewidth
[] 0 setdash
0 setlinecap
np
174.64 90.26 m
14.72 0 l
o
0.75 setlinewidth
[ 2.25 3.75] 0 setdash
1 setlinecap
np
182.00 79.37 m
0 6.18 l
o
np
182.00 117.17 m
0 -18.92 l
o
0.75 setlinewidth
[] 0 setdash
np
178.32 79.37 m
7.36 0 l
o
np
178.32 117.17 m
7.36 0 l
o
np
174.64 85.55 m
14.72 0 l
0 12.70 l
-14.72 0 l
0 -12.70 l
o
182.00 131.61 2.70 c p1
182.00 136.11 2.70 c p1
182.00 121.50 2.70 c p1
np
 193.04 84.56 m
14.72 0 l
0 11.20 l
-14.72 0 l
cp p2
2.25 setlinewidth
[] 0 setdash
0 setlinecap
np
193.04 88.43 m
14.72 0 l
o
0.75 setlinewidth
[ 2.25 3.75] 0 setdash
1 setlinecap
np
200.40 79.16 m
0 5.40 l
o
np
200.40 110.60 m
0 -14.84 l
o
0.75 setlinewidth
[] 0 setdash
np
196.72 79.16 m
7.36 0 l
o
np
196.72 110.60 m
7.36 0 l
o
np
193.04 84.56 m
14.72 0 l
0 11.20 l
-14.72 0 l
0 -11.20 l
o
200.40 132.94 2.70 c p1
200.40 145.63 2.70 c p1
200.40 125.62 2.70 c p1
200.40 120.36 2.70 c p1
np
 211.44 85.76 m
14.72 0 l
0 17.78 l
-14.72 0 l
cp p2
2.25 setlinewidth
[] 0 setdash
0 setlinecap
np
211.44 91.28 m
14.72 0 l
o
0.75 setlinewidth
[ 2.25 3.75] 0 setdash
1 setlinecap
np
218.80 80.59 m
0 5.17 l
o
np
218.80 127.55 m
0 -24.01 l
o
0.75 setlinewidth
[] 0 setdash
np
215.12 80.59 m
7.36 0 l
o
np
215.12 127.55 m
7.36 0 l
o
np
211.44 85.76 m
14.72 0 l
0 17.78 l
-14.72 0 l
0 -17.78 l
o
218.80 132.84 2.70 c p1
218.80 143.60 2.70 c p1
218.80 135.12 2.70 c p1
np
 229.84 85.74 m
14.72 0 l
0 13.35 l
-14.72 0 l
cp p2
2.25 setlinewidth
[] 0 setdash
0 setlinecap
np
229.84 92.04 m
14.72 0 l
o
0.75 setlinewidth
[ 2.25 3.75] 0 setdash
1 setlinecap
np
237.20 78.89 m
0 6.85 l
o
np
237.20 118.43 m
0 -19.34 l
o
0.75 setlinewidth
[] 0 setdash
np
233.52 78.89 m
7.36 0 l
o
np
233.52 118.43 m
7.36 0 l
o
np
229.84 85.74 m
14.72 0 l
0 13.35 l
-14.72 0 l
0 -13.35 l
o
237.20 123.17 2.70 c p1
237.20 152.54 2.70 c p1
237.20 133.59 2.70 c p1
237.20 123.64 2.70 c p1
np
 248.24 83.34 m
14.72 0 l
0 11.45 l
-14.72 0 l
cp p2
2.25 setlinewidth
[] 0 setdash
0 setlinecap
np
248.24 88.85 m
14.72 0 l
o
0.75 setlinewidth
[ 2.25 3.75] 0 setdash
1 setlinecap
np
255.60 78.68 m
0 4.66 l
o
np
255.60 111.42 m
0 -16.63 l
o
0.75 setlinewidth
[] 0 setdash
np
251.92 78.68 m
7.36 0 l
o
np
251.92 111.42 m
7.36 0 l
o
np
248.24 83.34 m
14.72 0 l
0 11.45 l
-14.72 0 l
0 -11.45 l
o
255.60 137.11 2.70 c p1
255.60 138.40 2.70 c p1
255.60 114.87 2.70 c p1
255.60 135.33 2.70 c p1
0.00 0.00 576.00 216.00 cl
0 0 0 srgb
0.75 setlinewidth
[] 0 setdash
1 setlinecap
1 setlinejoin
10.00 setmiterlimit
np
90.00 73.44 m
165.60 0 l
o
np
90.00 73.44 m
0 -7.20 l
o
np
108.40 73.44 m
0 -7.20 l
o
np
126.80 73.44 m
0 -7.20 l
o
np
145.20 73.44 m
0 -7.20 l
o
np
163.60 73.44 m
0 -7.20 l
o
np
182.00 73.44 m
0 -7.20 l
o
np
200.40 73.44 m
0 -7.20 l
o
np
218.80 73.44 m
0 -7.20 l
o
np
237.20 73.44 m
0 -7.20 l
o
np
255.60 73.44 m
0 -7.20 l
o
/Font1 findfont 12 s
90.00 47.52 (10) .5 0 t
126.80 47.52 (30) .5 0 t
163.60 47.52 (50) .5 0 t
200.40 47.52 (70) .5 0 t
237.20 47.52 (90) .5 0 t
np
73.44 77.21 m
0 98.46 l
o
np
73.44 77.21 m
-7.20 0 l
o
np
73.44 96.90 m
-7.20 0 l
o
np
73.44 116.59 m
-7.20 0 l
o
np
73.44 136.29 m
-7.20 0 l
o
np
73.44 155.98 m
-7.20 0 l
o
np
73.44 175.67 m
-7.20 0 l
o
56.16 77.21 (0) .5 90 t
56.16 116.59 (40) .5 90 t
56.16 155.98 (80) .5 90 t
0.00 0.00 288.00 216.00 cl
/Font2 findfont 14 s
0 0 0 srgb
172.80 195.85 (\(1+1\) MA-BILS) .5 0 t
/Font1 findfont 12 s
109.11 18.72 (Prob) 0 ta
-0.240 (lem instance siz) tb
-0.180 (e n) tb gr
25.84 117.24 (T) 0 90 t
0.75 setlinewidth
[] 0 setdash
1 setlinecap
1 setlinejoin
10.00 setmiterlimit
np
27.36 126.14 m
-11.65 3.14 l
o
25.84 130.84 (n) 0 90 t
/Font1 findfont 8 s
19.88 137.52 (2) 0 90 t
0.00 0.00 576.00 216.00 cl
0 0 0 srgb
0.75 setlinewidth
[] 0 setdash
1 setlinecap
1 setlinejoin
10.00 setmiterlimit
np
73.44 73.44 m
198.72 0 l
0 112.32 l
-198.72 0 l
0 -112.32 l
o
361.44 73.44 560.16 185.76 cl
/bg { 1 0 0 srgb } def
np
 370.64 82.94 m
14.72 0 l
0 15.07 l
-14.72 0 l
cp p2
0 0 0 srgb
2.25 setlinewidth
[] 0 setdash
0 setlinecap
1 setlinejoin
10.00 setmiterlimit
np
370.64 89.80 m
14.72 0 l
o
0.75 setlinewidth
[ 2.25 3.75] 0 setdash
1 setlinecap
np
378.00 77.60 m
0 5.34 l
o
np
378.00 118.20 m
0 -20.19 l
o
0.75 setlinewidth
[] 0 setdash
np
374.32 77.60 m
7.36 0 l
o
np
374.32 118.20 m
7.36 0 l
o
np
370.64 82.94 m
14.72 0 l
0 15.07 l
-14.72 0 l
0 -15.07 l
o
378.00 124.37 2.70 c p1
378.00 158.22 2.70 c p1
378.00 127.88 2.70 c p1
378.00 125.64 2.70 c p1
378.00 124.90 2.70 c p1
378.00 130.11 2.70 c p1
378.00 120.86 2.70 c p1
np
 389.04 86.30 m
14.72 0 l
0 16.05 l
-14.72 0 l
cp p2
2.25 setlinewidth
[] 0 setdash
0 setlinecap
np
389.04 91.83 m
14.72 0 l
o
0.75 setlinewidth
[ 2.25 3.75] 0 setdash
1 setlinecap
np
396.40 78.36 m
0 7.94 l
o
np
396.40 124.54 m
0 -22.19 l
o
0.75 setlinewidth
[] 0 setdash
np
392.72 78.36 m
7.36 0 l
o
np
392.72 124.54 m
7.36 0 l
o
np
389.04 86.30 m
14.72 0 l
0 16.05 l
-14.72 0 l
0 -16.05 l
o
396.40 160.71 2.70 c p1
396.40 132.23 2.70 c p1
396.40 127.94 2.70 c p1
396.40 141.20 2.70 c p1
396.40 174.47 2.70 c p1
396.40 132.38 2.70 c p1
np
 407.44 87.56 m
14.72 0 l
0 16.18 l
-14.72 0 l
cp p2
2.25 setlinewidth
[] 0 setdash
0 setlinecap
np
407.44 93.72 m
14.72 0 l
o
0.75 setlinewidth
[ 2.25 3.75] 0 setdash
1 setlinecap
np
414.80 78.62 m
0 8.94 l
o
np
414.80 125.69 m
0 -21.95 l
o
0.75 setlinewidth
[] 0 setdash
np
411.12 78.62 m
7.36 0 l
o
np
411.12 125.69 m
7.36 0 l
o
np
407.44 87.56 m
14.72 0 l
0 16.18 l
-14.72 0 l
0 -16.18 l
o
414.80 138.50 2.70 c p1
414.80 133.98 2.70 c p1
414.80 128.75 2.70 c p1
414.80 150.22 2.70 c p1
np
 425.84 84.81 m
14.72 0 l
0 12.85 l
-14.72 0 l
cp p2
2.25 setlinewidth
[] 0 setdash
0 setlinecap
np
425.84 90.29 m
14.72 0 l
o
0.75 setlinewidth
[ 2.25 3.75] 0 setdash
1 setlinecap
np
433.20 78.14 m
0 6.67 l
o
np
433.20 116.02 m
0 -18.36 l
o
0.75 setlinewidth
[] 0 setdash
np
429.52 78.14 m
7.36 0 l
o
np
429.52 116.02 m
7.36 0 l
o
np
425.84 84.81 m
14.72 0 l
0 12.85 l
-14.72 0 l
0 -12.85 l
o
433.20 137.05 2.70 c p1
433.20 120.09 2.70 c p1
433.20 121.18 2.70 c p1
433.20 120.68 2.70 c p1
np
 444.24 83.30 m
14.72 0 l
0 12.14 l
-14.72 0 l
cp p2
2.25 setlinewidth
[] 0 setdash
0 setlinecap
np
444.24 87.80 m
14.72 0 l
o
0.75 setlinewidth
[ 2.25 3.75] 0 setdash
1 setlinecap
np
451.60 78.31 m
0 4.99 l
o
np
451.60 113.35 m
0 -17.91 l
o
0.75 setlinewidth
[] 0 setdash
np
447.92 78.31 m
7.36 0 l
o
np
447.92 113.35 m
7.36 0 l
o
np
444.24 83.30 m
14.72 0 l
0 12.14 l
-14.72 0 l
0 -12.14 l
o
451.60 116.75 2.70 c p1
451.60 142.25 2.70 c p1
451.60 117.10 2.70 c p1
451.60 122.19 2.70 c p1
451.60 121.66 2.70 c p1
451.60 114.05 2.70 c p1
451.60 114.47 2.70 c p1
np
 462.64 87.30 m
14.72 0 l
0 15.72 l
-14.72 0 l
cp p2
2.25 setlinewidth
[] 0 setdash
0 setlinecap
np
462.64 93.76 m
14.72 0 l
o
0.75 setlinewidth
[ 2.25 3.75] 0 setdash
1 setlinecap
np
470.00 77.72 m
0 9.58 l
o
np
470.00 124.15 m
0 -21.13 l
o
0.75 setlinewidth
[] 0 setdash
np
466.32 77.72 m
7.36 0 l
o
np
466.32 124.15 m
7.36 0 l
o
np
462.64 87.30 m
14.72 0 l
0 15.72 l
-14.72 0 l
0 -15.72 l
o
470.00 148.39 2.70 c p1
470.00 127.80 2.70 c p1
470.00 134.17 2.70 c p1
470.00 138.69 2.70 c p1
470.00 181.60 2.70 c p1
np
 481.04 84.29 m
14.72 0 l
0 11.61 l
-14.72 0 l
cp p2
2.25 setlinewidth
[] 0 setdash
0 setlinecap
np
481.04 87.80 m
14.72 0 l
o
0.75 setlinewidth
[ 2.25 3.75] 0 setdash
1 setlinecap
np
488.40 78.12 m
0 6.17 l
o
np
488.40 112.54 m
0 -16.64 l
o
0.75 setlinewidth
[] 0 setdash
np
484.72 78.12 m
7.36 0 l
o
np
484.72 112.54 m
7.36 0 l
o
np
481.04 84.29 m
14.72 0 l
0 11.61 l
-14.72 0 l
0 -11.61 l
o
488.40 119.32 2.70 c p1
488.40 114.71 2.70 c p1
488.40 114.07 2.70 c p1
488.40 119.37 2.70 c p1
488.40 124.82 2.70 c p1
488.40 139.64 2.70 c p1
488.40 119.74 2.70 c p1
488.40 136.19 2.70 c p1
np
 499.44 86.14 m
14.72 0 l
0 19.84 l
-14.72 0 l
cp p2
2.25 setlinewidth
[] 0 setdash
0 setlinecap
np
499.44 93.23 m
14.72 0 l
o
0.75 setlinewidth
[ 2.25 3.75] 0 setdash
1 setlinecap
np
506.80 79.04 m
0 7.10 l
o
np
506.80 133.65 m
0 -27.67 l
o
0.75 setlinewidth
[] 0 setdash
np
503.12 79.04 m
7.36 0 l
o
np
503.12 133.65 m
7.36 0 l
o
np
499.44 86.14 m
14.72 0 l
0 19.84 l
-14.72 0 l
0 -19.84 l
o
506.80 172.33 2.70 c p1
np
 517.84 86.78 m
14.72 0 l
0 12.51 l
-14.72 0 l
cp p2
2.25 setlinewidth
[] 0 setdash
0 setlinecap
np
517.84 89.83 m
14.72 0 l
o
0.75 setlinewidth
[ 2.25 3.75] 0 setdash
1 setlinecap
np
525.20 77.95 m
0 8.83 l
o
np
525.20 112.96 m
0 -13.67 l
o
0.75 setlinewidth
[] 0 setdash
np
521.52 77.95 m
7.36 0 l
o
np
521.52 112.96 m
7.36 0 l
o
np
517.84 86.78 m
14.72 0 l
0 12.51 l
-14.72 0 l
0 -12.51 l
o
525.20 121.91 2.70 c p1
525.20 121.38 2.70 c p1
525.20 130.86 2.70 c p1
525.20 128.36 2.70 c p1
525.20 131.39 2.70 c p1
525.20 123.42 2.70 c p1
525.20 141.38 2.70 c p1
np
 536.24 83.30 m
14.72 0 l
0 12.69 l
-14.72 0 l
cp p2
2.25 setlinewidth
[] 0 setdash
0 setlinecap
np
536.24 91.22 m
14.72 0 l
o
0.75 setlinewidth
[ 2.25 3.75] 0 setdash
1 setlinecap
np
543.60 78.24 m
0 5.06 l
o
np
543.60 112.73 m
0 -16.74 l
o
0.75 setlinewidth
[] 0 setdash
np
539.92 78.24 m
7.36 0 l
o
np
539.92 112.73 m
7.36 0 l
o
np
536.24 83.30 m
14.72 0 l
0 12.69 l
-14.72 0 l
0 -12.69 l
o
543.60 117.43 2.70 c p1
543.60 120.28 2.70 c p1
543.60 115.07 2.70 c p1
543.60 128.60 2.70 c p1
543.60 117.81 2.70 c p1
543.60 138.76 2.70 c p1
0.00 0.00 576.00 216.00 cl
0 0 0 srgb
0.75 setlinewidth
[] 0 setdash
1 setlinecap
1 setlinejoin
10.00 setmiterlimit
np
378.00 73.44 m
165.60 0 l
o
np
378.00 73.44 m
0 -7.20 l
o
np
396.40 73.44 m
0 -7.20 l
o
np
414.80 73.44 m
0 -7.20 l
o
np
433.20 73.44 m
0 -7.20 l
o
np
451.60 73.44 m
0 -7.20 l
o
np
470.00 73.44 m
0 -7.20 l
o
np
488.40 73.44 m
0 -7.20 l
o
np
506.80 73.44 m
0 -7.20 l
o
np
525.20 73.44 m
0 -7.20 l
o
np
543.60 73.44 m
0 -7.20 l
o
/Font1 findfont 12 s
378.00 47.52 (10) .5 0 t
414.80 47.52 (30) .5 0 t
451.60 47.52 (50) .5 0 t
488.40 47.52 (70) .5 0 t
525.20 47.52 (90) .5 0 t
np
361.44 76.64 m
0 106.30 l
o
np
361.44 76.64 m
-7.20 0 l
o
np
361.44 103.22 m
-7.20 0 l
o
np
361.44 129.79 m
-7.20 0 l
o
np
361.44 156.36 m
-7.20 0 l
o
np
361.44 182.94 m
-7.20 0 l
o
344.16 76.64 (0) .5 90 t
344.16 103.22 (5) .5 90 t
344.16 129.79 (10) .5 90 t
344.16 156.36 (15) .5 90 t
344.16 182.94 (20) .5 90 t
288.00 0.00 576.00 216.00 cl
/Font2 findfont 14 s
0 0 0 srgb
460.80 195.85 (\(1+1\) MA-FILS) .5 0 t
/Font1 findfont 12 s
397.11 18.72 (Prob) 0 ta
-0.240 (lem instance siz) tb
-0.180 (e n) tb gr
313.85 117.24 (T) 0 90 t
0.75 setlinewidth
[] 0 setdash
1 setlinecap
1 setlinejoin
10.00 setmiterlimit
np
315.36 126.14 m
-11.65 3.14 l
o
313.85 130.84 (n) 0 90 t
/Font1 findfont 8 s
307.88 137.52 (2) 0 90 t
0.00 0.00 576.00 216.00 cl
0 0 0 srgb
0.75 setlinewidth
[] 0 setdash
1 setlinecap
1 setlinejoin
10.00 setmiterlimit
np
361.44 73.44 m
198.72 0 l
0 112.32 l
-198.72 0 l
0 -112.32 l
o
ep
%%Trailer
%%Pages: 1
%%EOF
