%!PS-Adobe-3.0 EPSF-3.0
%%DocumentNeededResources: font Helvetica
%%+ font Helvetica-Bold
%%+ font Helvetica-Oblique
%%+ font Helvetica-BoldOblique
%%+ font Symbol
%%Title: R Graphics Output
%%Creator: R Software
%%Pages: (atend)
%%BoundingBox: 0 0 576 216
%%EndComments
%%BeginProlog
/bp  { gs sRGB gs } def
% begin .ps.prolog
/gs  { gsave } bind def
/gr  { grestore } bind def
/ep  { showpage gr gr } bind def
/m   { moveto } bind def
/l  { rlineto } bind def
/np  { newpath } bind def
/cp  { closepath } bind def
/f   { fill } bind def
/o   { stroke } bind def
/c   { newpath 0 360 arc } bind def
/r   { 4 2 roll moveto 1 copy 3 -1 roll exch 0 exch rlineto 0 rlineto -1 mul 0 exch rlineto closepath } bind def
/p1  { stroke } bind def
/p2  { gsave bg fill grestore newpath } bind def
/p3  { gsave bg fill grestore stroke } bind def
/p6  { gsave bg eofill grestore newpath } bind def
/p7  { gsave bg eofill grestore stroke } bind def
/t   { 5 -2 roll moveto gsave rotate
       1 index stringwidth pop
       mul neg 0 rmoveto show grestore } bind def
/ta  { 4 -2 roll moveto gsave rotate show } bind def
/tb  { 2 -1 roll 0 rmoveto show } bind def
/cl  { grestore gsave newpath 3 index 3 index moveto 1 index
       4 -1 roll lineto  exch 1 index lineto lineto
       closepath clip newpath } bind def
/rgb { setrgbcolor } bind def
/s   { scalefont setfont } bind def
% end   .ps.prolog
/sRGB { [ /CIEBasedABC
          << /DecodeLMN
               [ { dup 0.03928 le
                        {12.92321 div}
                        {0.055 add 1.055 div 2.4 exp }
                     ifelse
                 } bind dup dup
               ]
             /MatrixLMN [0.412457 0.212673 0.019334
                         0.357576 0.715152 0.119192
                         0.180437 0.072175 0.950301]
             /WhitePoint [0.9505 1.0 1.0890]
           >>
         ] setcolorspace } bind def
/srgb { setcolor } bind def
%%IncludeResource: font Helvetica
/Helvetica findfont
dup length dict begin
  {1 index /FID ne {def} {pop pop} ifelse} forall
  /Encoding ISOLatin1Encoding def
  currentdict
  end
/Font1 exch definefont pop
%%IncludeResource: font Helvetica-Bold
/Helvetica-Bold findfont
dup length dict begin
  {1 index /FID ne {def} {pop pop} ifelse} forall
  /Encoding ISOLatin1Encoding def
  currentdict
  end
/Font2 exch definefont pop
%%IncludeResource: font Helvetica-Oblique
/Helvetica-Oblique findfont
dup length dict begin
  {1 index /FID ne {def} {pop pop} ifelse} forall
  /Encoding ISOLatin1Encoding def
  currentdict
  end
/Font3 exch definefont pop
%%IncludeResource: font Helvetica-BoldOblique
/Helvetica-BoldOblique findfont
dup length dict begin
  {1 index /FID ne {def} {pop pop} ifelse} forall
  /Encoding ISOLatin1Encoding def
  currentdict
  end
/Font4 exch definefont pop
%%IncludeResource: font Symbol
/Symbol findfont
dup length dict begin
  {1 index /FID ne {def} {pop pop} ifelse} forall
  currentdict
  end
/Font5 exch definefont pop
%%EndProlog
%%Page: 1 1
bp
73.44 73.44 272.16 185.76 cl
/bg { 1 0 0 srgb } def
np
 82.64 78.08 m
14.72 0 l
0 0.87 l
-14.72 0 l
cp p2
0 0 0 srgb
2.25 setlinewidth
[] 0 setdash
0 setlinecap
1 setlinejoin
10.00 setmiterlimit
np
82.64 78.34 m
14.72 0 l
o
0.75 setlinewidth
[ 2.25 3.75] 0 setdash
1 setlinecap
np
90.00 77.60 m
0 0.48 l
o
np
90.00 80.08 m
0 -1.13 l
o
0.75 setlinewidth
[] 0 setdash
np
86.32 77.60 m
7.36 0 l
o
np
86.32 80.08 m
7.36 0 l
o
np
82.64 78.08 m
14.72 0 l
0 0.87 l
-14.72 0 l
0 -0.87 l
o
90.00 81.51 2.70 c p1
90.00 80.47 2.70 c p1
90.00 80.34 2.70 c p1
90.00 80.90 2.70 c p1
90.00 80.68 2.70 c p1
np
 101.04 78.57 m
14.72 0 l
0 0.97 l
-14.72 0 l
cp p2
2.25 setlinewidth
[] 0 setdash
0 setlinecap
np
101.04 78.83 m
14.72 0 l
o
0.75 setlinewidth
[ 2.25 3.75] 0 setdash
1 setlinecap
np
108.40 77.82 m
0 0.75 l
o
np
108.40 80.91 m
0 -1.37 l
o
0.75 setlinewidth
[] 0 setdash
np
104.72 77.82 m
7.36 0 l
o
np
104.72 80.91 m
7.36 0 l
o
np
101.04 78.57 m
14.72 0 l
0 0.97 l
-14.72 0 l
0 -0.97 l
o
108.40 81.97 2.70 c p1
108.40 81.05 2.70 c p1
108.40 81.15 2.70 c p1
108.40 81.13 2.70 c p1
np
 119.44 86.10 m
14.72 0 l
0 11.56 l
-14.72 0 l
cp p2
2.25 setlinewidth
[] 0 setdash
0 setlinecap
np
119.44 89.97 m
14.72 0 l
o
0.75 setlinewidth
[ 2.25 3.75] 0 setdash
1 setlinecap
np
126.80 80.63 m
0 5.47 l
o
np
126.80 111.05 m
0 -13.39 l
o
0.75 setlinewidth
[] 0 setdash
np
123.12 80.63 m
7.36 0 l
o
np
123.12 111.05 m
7.36 0 l
o
np
119.44 86.10 m
14.72 0 l
0 11.56 l
-14.72 0 l
0 -11.56 l
o
126.80 116.72 2.70 c p1
126.80 119.99 2.70 c p1
126.80 173.10 2.70 c p1
np
 137.84 86.68 m
14.72 0 l
0 20.91 l
-14.72 0 l
cp p2
2.25 setlinewidth
[] 0 setdash
0 setlinecap
np
137.84 95.33 m
14.72 0 l
o
0.75 setlinewidth
[ 2.25 3.75] 0 setdash
1 setlinecap
np
145.20 81.28 m
0 5.40 l
o
np
145.20 137.78 m
0 -30.19 l
o
0.75 setlinewidth
[] 0 setdash
np
141.52 81.28 m
7.36 0 l
o
np
141.52 137.78 m
7.36 0 l
o
np
137.84 86.68 m
14.72 0 l
0 20.91 l
-14.72 0 l
0 -20.91 l
o
145.20 148.70 2.70 c p1
np
 156.24 88.85 m
14.72 0 l
0 21.16 l
-14.72 0 l
cp p2
2.25 setlinewidth
[] 0 setdash
0 setlinecap
np
156.24 95.07 m
14.72 0 l
o
0.75 setlinewidth
[ 2.25 3.75] 0 setdash
1 setlinecap
np
163.60 79.49 m
0 9.36 l
o
np
163.60 141.65 m
0 -31.64 l
o
0.75 setlinewidth
[] 0 setdash
np
159.92 79.49 m
7.36 0 l
o
np
159.92 141.65 m
7.36 0 l
o
np
156.24 88.85 m
14.72 0 l
0 21.16 l
-14.72 0 l
0 -21.16 l
o
163.60 160.47 2.70 c p1
163.60 174.17 2.70 c p1
163.60 146.29 2.70 c p1
163.60 181.60 2.70 c p1
np
 174.64 84.04 m
14.72 0 l
0 13.16 l
-14.72 0 l
cp p2
2.25 setlinewidth
[] 0 setdash
0 setlinecap
np
174.64 90.43 m
14.72 0 l
o
0.75 setlinewidth
[ 2.25 3.75] 0 setdash
1 setlinecap
np
182.00 80.29 m
0 3.75 l
o
np
182.00 115.92 m
0 -18.72 l
o
0.75 setlinewidth
[] 0 setdash
np
178.32 80.29 m
7.36 0 l
o
np
178.32 115.92 m
7.36 0 l
o
np
174.64 84.04 m
14.72 0 l
0 13.16 l
-14.72 0 l
0 -13.16 l
o
182.00 134.14 2.70 c p1
182.00 162.58 2.70 c p1
np
 193.04 85.92 m
14.72 0 l
0 14.51 l
-14.72 0 l
cp p2
2.25 setlinewidth
[] 0 setdash
0 setlinecap
np
193.04 93.20 m
14.72 0 l
o
0.75 setlinewidth
[ 2.25 3.75] 0 setdash
1 setlinecap
np
200.40 80.13 m
0 5.79 l
o
np
200.40 116.00 m
0 -15.57 l
o
0.75 setlinewidth
[] 0 setdash
np
196.72 80.13 m
7.36 0 l
o
np
196.72 116.00 m
7.36 0 l
o
np
193.04 85.92 m
14.72 0 l
0 14.51 l
-14.72 0 l
0 -14.51 l
o
200.40 127.27 2.70 c p1
200.40 131.60 2.70 c p1
200.40 128.83 2.70 c p1
200.40 137.34 2.70 c p1
200.40 125.12 2.70 c p1
200.40 130.41 2.70 c p1
200.40 140.77 2.70 c p1
np
 211.44 85.34 m
14.72 0 l
0 13.44 l
-14.72 0 l
cp p2
2.25 setlinewidth
[] 0 setdash
0 setlinecap
np
211.44 90.29 m
14.72 0 l
o
0.75 setlinewidth
[ 2.25 3.75] 0 setdash
1 setlinecap
np
218.80 80.28 m
0 5.06 l
o
np
218.80 116.04 m
0 -17.26 l
o
0.75 setlinewidth
[] 0 setdash
np
215.12 80.28 m
7.36 0 l
o
np
215.12 116.04 m
7.36 0 l
o
np
211.44 85.34 m
14.72 0 l
0 13.44 l
-14.72 0 l
0 -13.44 l
o
218.80 124.33 2.70 c p1
218.80 121.69 2.70 c p1
218.80 119.12 2.70 c p1
218.80 124.82 2.70 c p1
218.80 128.11 2.70 c p1
np
 229.84 86.68 m
14.72 0 l
0 16.13 l
-14.72 0 l
cp p2
2.25 setlinewidth
[] 0 setdash
0 setlinecap
np
229.84 92.60 m
14.72 0 l
o
0.75 setlinewidth
[ 2.25 3.75] 0 setdash
1 setlinecap
np
237.20 80.11 m
0 6.57 l
o
np
237.20 126.99 m
0 -24.18 l
o
0.75 setlinewidth
[] 0 setdash
np
233.52 80.11 m
7.36 0 l
o
np
233.52 126.99 m
7.36 0 l
o
np
229.84 86.68 m
14.72 0 l
0 16.13 l
-14.72 0 l
0 -16.13 l
o
237.20 133.15 2.70 c p1
237.20 150.30 2.70 c p1
237.20 138.29 2.70 c p1
np
 248.24 85.94 m
14.72 0 l
0 15.22 l
-14.72 0 l
cp p2
2.25 setlinewidth
[] 0 setdash
0 setlinecap
np
248.24 91.29 m
14.72 0 l
o
0.75 setlinewidth
[ 2.25 3.75] 0 setdash
1 setlinecap
np
255.60 80.72 m
0 5.22 l
o
np
255.60 123.30 m
0 -22.14 l
o
0.75 setlinewidth
[] 0 setdash
np
251.92 80.72 m
7.36 0 l
o
np
251.92 123.30 m
7.36 0 l
o
np
248.24 85.94 m
14.72 0 l
0 15.22 l
-14.72 0 l
0 -15.22 l
o
255.60 124.59 2.70 c p1
255.60 131.05 2.70 c p1
255.60 135.82 2.70 c p1
255.60 130.84 2.70 c p1
0.00 0.00 576.00 216.00 cl
0 0 0 srgb
0.75 setlinewidth
[] 0 setdash
1 setlinecap
1 setlinejoin
10.00 setmiterlimit
np
90.00 73.44 m
165.60 0 l
o
np
90.00 73.44 m
0 -7.20 l
o
np
108.40 73.44 m
0 -7.20 l
o
np
126.80 73.44 m
0 -7.20 l
o
np
145.20 73.44 m
0 -7.20 l
o
np
163.60 73.44 m
0 -7.20 l
o
np
182.00 73.44 m
0 -7.20 l
o
np
200.40 73.44 m
0 -7.20 l
o
np
218.80 73.44 m
0 -7.20 l
o
np
237.20 73.44 m
0 -7.20 l
o
np
255.60 73.44 m
0 -7.20 l
o
/Font1 findfont 12 s
90.00 47.52 (10) .5 0 t
126.80 47.52 (30) .5 0 t
163.60 47.52 (50) .5 0 t
200.40 47.52 (70) .5 0 t
237.20 47.52 (90) .5 0 t
np
73.44 77.60 m
0 98.28 l
o
np
73.44 77.60 m
-7.20 0 l
o
np
73.44 93.98 m
-7.20 0 l
o
np
73.44 110.36 m
-7.20 0 l
o
np
73.44 126.74 m
-7.20 0 l
o
np
73.44 143.12 m
-7.20 0 l
o
np
73.44 159.50 m
-7.20 0 l
o
np
73.44 175.88 m
-7.20 0 l
o
56.16 77.60 (0) .5 90 t
56.16 110.36 (40) .5 90 t
56.16 143.12 (80) .5 90 t
56.16 175.88 (120) .5 90 t
0.00 0.00 288.00 216.00 cl
/Font2 findfont 14 s
0 0 0 srgb
172.80 195.85 (\(1+1\) MA-BILS) .5 0 t
/Font1 findfont 12 s
109.32 18.90 (Prob) 0 ta
-0.240 (lem instance siz) tb
-0.180 (e ) tb gr
229.61 18.90 (n) 0 0 t
24.49 102.55 (T) 0 90 t
0.75 setlinewidth
[] 0 setdash
1 setlinecap
1 setlinejoin
10.00 setmiterlimit
np
26.01 111.45 m
-11.65 3.14 l
o
/Font5 findfont 15 s
24.49 116.16 (\() 0 90 t
/Font1 findfont 12 s
24.49 121.15 (n) 0 90 t
/Font1 findfont 8 s
18.53 127.82 (3) 0 90 t
np
26.01 133.84 m
-11.65 3.14 l
o
/Font1 findfont 12 s
24.49 138.55 (w) 0 90 t
/Font1 findfont 8 s
18.53 147.21 (2) 0 90 t
/Font5 findfont 15 s
24.49 151.66 (\)) 0 90 t
0.00 0.00 576.00 216.00 cl
0 0 0 srgb
0.75 setlinewidth
[] 0 setdash
1 setlinecap
1 setlinejoin
10.00 setmiterlimit
np
73.44 73.44 m
198.72 0 l
0 112.32 l
-198.72 0 l
0 -112.32 l
o
361.44 73.44 560.16 185.76 cl
/bg { 1 0 0 srgb } def
np
 370.64 84.44 m
14.72 0 l
0 13.53 l
-14.72 0 l
cp p2
0 0 0 srgb
2.25 setlinewidth
[] 0 setdash
0 setlinecap
1 setlinejoin
10.00 setmiterlimit
np
370.64 90.52 m
14.72 0 l
o
0.75 setlinewidth
[ 2.25 3.75] 0 setdash
1 setlinecap
np
378.00 77.60 m
0 6.84 l
o
np
378.00 117.53 m
0 -19.56 l
o
0.75 setlinewidth
[] 0 setdash
np
374.32 77.60 m
7.36 0 l
o
np
374.32 117.53 m
7.36 0 l
o
np
370.64 84.44 m
14.72 0 l
0 13.53 l
-14.72 0 l
0 -13.53 l
o
378.00 143.92 2.70 c p1
378.00 165.71 2.70 c p1
378.00 131.80 2.70 c p1
378.00 119.24 2.70 c p1
378.00 120.32 2.70 c p1
378.00 128.74 2.70 c p1
378.00 125.41 2.70 c p1
378.00 124.34 2.70 c p1
np
 389.04 88.66 m
14.72 0 l
0 27.28 l
-14.72 0 l
cp p2
2.25 setlinewidth
[] 0 setdash
0 setlinecap
np
389.04 97.47 m
14.72 0 l
o
0.75 setlinewidth
[ 2.25 3.75] 0 setdash
1 setlinecap
np
396.40 80.69 m
0 7.97 l
o
np
396.40 152.39 m
0 -36.45 l
o
0.75 setlinewidth
[] 0 setdash
np
392.72 80.69 m
7.36 0 l
o
np
392.72 152.39 m
7.36 0 l
o
np
389.04 88.66 m
14.72 0 l
0 27.28 l
-14.72 0 l
0 -27.28 l
o
396.40 163.61 2.70 c p1
396.40 157.01 2.70 c p1
396.40 160.23 2.70 c p1
396.40 173.21 2.70 c p1
396.40 163.51 2.70 c p1
396.40 171.14 2.70 c p1
396.40 175.33 2.70 c p1
396.40 167.49 2.70 c p1
np
 407.44 84.63 m
14.72 0 l
0 16.15 l
-14.72 0 l
cp p2
2.25 setlinewidth
[] 0 setdash
0 setlinecap
np
407.44 90.13 m
14.72 0 l
o
0.75 setlinewidth
[ 2.25 3.75] 0 setdash
1 setlinecap
np
414.80 78.05 m
0 6.58 l
o
np
414.80 123.81 m
0 -23.03 l
o
0.75 setlinewidth
[] 0 setdash
np
411.12 78.05 m
7.36 0 l
o
np
411.12 123.81 m
7.36 0 l
o
np
407.44 84.63 m
14.72 0 l
0 16.15 l
-14.72 0 l
0 -16.15 l
o
414.80 136.42 2.70 c p1
414.80 130.50 2.70 c p1
np
 425.84 85.92 m
14.72 0 l
0 12.39 l
-14.72 0 l
cp p2
2.25 setlinewidth
[] 0 setdash
0 setlinecap
np
425.84 90.72 m
14.72 0 l
o
0.75 setlinewidth
[ 2.25 3.75] 0 setdash
1 setlinecap
np
433.20 79.05 m
0 6.87 l
o
np
433.20 110.38 m
0 -12.07 l
o
0.75 setlinewidth
[] 0 setdash
np
429.52 79.05 m
7.36 0 l
o
np
429.52 110.38 m
7.36 0 l
o
np
425.84 85.92 m
14.72 0 l
0 12.39 l
-14.72 0 l
0 -12.39 l
o
433.20 121.49 2.70 c p1
433.20 122.44 2.70 c p1
433.20 159.98 2.70 c p1
433.20 135.18 2.70 c p1
433.20 164.70 2.70 c p1
433.20 158.86 2.70 c p1
433.20 122.63 2.70 c p1
433.20 134.11 2.70 c p1
433.20 133.61 2.70 c p1
433.20 117.03 2.70 c p1
433.20 130.21 2.70 c p1
433.20 117.72 2.70 c p1
np
 444.24 87.95 m
14.72 0 l
0 15.43 l
-14.72 0 l
cp p2
2.25 setlinewidth
[] 0 setdash
0 setlinecap
np
444.24 92.07 m
14.72 0 l
o
0.75 setlinewidth
[ 2.25 3.75] 0 setdash
1 setlinecap
np
451.60 80.67 m
0 7.28 l
o
np
451.60 123.37 m
0 -19.99 l
o
0.75 setlinewidth
[] 0 setdash
np
447.92 80.67 m
7.36 0 l
o
np
447.92 123.37 m
7.36 0 l
o
np
444.24 87.95 m
14.72 0 l
0 15.43 l
-14.72 0 l
0 -15.43 l
o
451.60 132.91 2.70 c p1
451.60 137.97 2.70 c p1
451.60 128.95 2.70 c p1
451.60 132.76 2.70 c p1
451.60 177.92 2.70 c p1
451.60 150.51 2.70 c p1
451.60 129.47 2.70 c p1
451.60 149.61 2.70 c p1
451.60 132.52 2.70 c p1
np
 462.64 82.76 m
14.72 0 l
0 10.86 l
-14.72 0 l
cp p2
2.25 setlinewidth
[] 0 setdash
0 setlinecap
np
462.64 87.97 m
14.72 0 l
o
0.75 setlinewidth
[ 2.25 3.75] 0 setdash
1 setlinecap
np
470.00 77.89 m
0 4.87 l
o
np
470.00 109.18 m
0 -15.56 l
o
0.75 setlinewidth
[] 0 setdash
np
466.32 77.89 m
7.36 0 l
o
np
466.32 109.18 m
7.36 0 l
o
np
462.64 82.76 m
14.72 0 l
0 10.86 l
-14.72 0 l
0 -10.86 l
o
470.00 112.33 2.70 c p1
470.00 116.90 2.70 c p1
np
 481.04 84.24 m
14.72 0 l
0 11.40 l
-14.72 0 l
cp p2
2.25 setlinewidth
[] 0 setdash
0 setlinecap
np
481.04 89.38 m
14.72 0 l
o
0.75 setlinewidth
[ 2.25 3.75] 0 setdash
1 setlinecap
np
488.40 79.27 m
0 4.97 l
o
np
488.40 111.31 m
0 -15.67 l
o
0.75 setlinewidth
[] 0 setdash
np
484.72 79.27 m
7.36 0 l
o
np
484.72 111.31 m
7.36 0 l
o
np
481.04 84.24 m
14.72 0 l
0 11.40 l
-14.72 0 l
0 -11.40 l
o
488.40 117.89 2.70 c p1
488.40 120.96 2.70 c p1
488.40 115.21 2.70 c p1
488.40 117.12 2.70 c p1
488.40 118.71 2.70 c p1
488.40 117.31 2.70 c p1
488.40 114.51 2.70 c p1
np
 499.44 84.57 m
14.72 0 l
0 13.43 l
-14.72 0 l
cp p2
2.25 setlinewidth
[] 0 setdash
0 setlinecap
np
499.44 90.67 m
14.72 0 l
o
0.75 setlinewidth
[ 2.25 3.75] 0 setdash
1 setlinecap
np
506.80 79.62 m
0 4.95 l
o
np
506.80 117.88 m
0 -19.88 l
o
0.75 setlinewidth
[] 0 setdash
np
503.12 79.62 m
7.36 0 l
o
np
503.12 117.88 m
7.36 0 l
o
np
499.44 84.57 m
14.72 0 l
0 13.43 l
-14.72 0 l
0 -13.43 l
o
506.80 141.79 2.70 c p1
506.80 133.94 2.70 c p1
np
 517.84 85.08 m
14.72 0 l
0 12.37 l
-14.72 0 l
cp p2
2.25 setlinewidth
[] 0 setdash
0 setlinecap
np
517.84 91.38 m
14.72 0 l
o
0.75 setlinewidth
[ 2.25 3.75] 0 setdash
1 setlinecap
np
525.20 78.58 m
0 6.50 l
o
np
525.20 113.64 m
0 -16.19 l
o
0.75 setlinewidth
[] 0 setdash
np
521.52 78.58 m
7.36 0 l
o
np
521.52 113.64 m
7.36 0 l
o
np
517.84 85.08 m
14.72 0 l
0 12.37 l
-14.72 0 l
0 -12.37 l
o
525.20 118.29 2.70 c p1
525.20 149.10 2.70 c p1
525.20 135.39 2.70 c p1
525.20 131.12 2.70 c p1
np
 536.24 84.71 m
14.72 0 l
0 16.20 l
-14.72 0 l
cp p2
2.25 setlinewidth
[] 0 setdash
0 setlinecap
np
536.24 90.54 m
14.72 0 l
o
0.75 setlinewidth
[ 2.25 3.75] 0 setdash
1 setlinecap
np
543.60 80.02 m
0 4.69 l
o
np
543.60 120.69 m
0 -19.78 l
o
0.75 setlinewidth
[] 0 setdash
np
539.92 80.02 m
7.36 0 l
o
np
539.92 120.69 m
7.36 0 l
o
np
536.24 84.71 m
14.72 0 l
0 16.20 l
-14.72 0 l
0 -16.20 l
o
543.60 125.70 2.70 c p1
543.60 181.60 2.70 c p1
543.60 147.60 2.70 c p1
543.60 133.69 2.70 c p1
0.00 0.00 576.00 216.00 cl
0 0 0 srgb
0.75 setlinewidth
[] 0 setdash
1 setlinecap
1 setlinejoin
10.00 setmiterlimit
np
378.00 73.44 m
165.60 0 l
o
np
378.00 73.44 m
0 -7.20 l
o
np
396.40 73.44 m
0 -7.20 l
o
np
414.80 73.44 m
0 -7.20 l
o
np
433.20 73.44 m
0 -7.20 l
o
np
451.60 73.44 m
0 -7.20 l
o
np
470.00 73.44 m
0 -7.20 l
o
np
488.40 73.44 m
0 -7.20 l
o
np
506.80 73.44 m
0 -7.20 l
o
np
525.20 73.44 m
0 -7.20 l
o
np
543.60 73.44 m
0 -7.20 l
o
/Font1 findfont 12 s
378.00 47.52 (10) .5 0 t
414.80 47.52 (30) .5 0 t
451.60 47.52 (50) .5 0 t
488.40 47.52 (70) .5 0 t
525.20 47.52 (90) .5 0 t
np
361.44 76.62 m
0 106.13 l
o
np
361.44 76.62 m
-7.20 0 l
o
np
361.44 94.31 m
-7.20 0 l
o
np
361.44 112.00 m
-7.20 0 l
o
np
361.44 129.69 m
-7.20 0 l
o
np
361.44 147.37 m
-7.20 0 l
o
np
361.44 165.06 m
-7.20 0 l
o
np
361.44 182.75 m
-7.20 0 l
o
344.16 76.62 (0) .5 90 t
344.16 94.31 (5) .5 90 t
344.16 129.69 (15) .5 90 t
344.16 165.06 (25) .5 90 t
288.00 0.00 576.00 216.00 cl
/Font2 findfont 14 s
0 0 0 srgb
460.80 195.85 (\(1+1\) MA-FILS) .5 0 t
/Font1 findfont 12 s
397.11 18.72 (Prob) 0 ta
-0.240 (lem instance siz) tb
-0.180 (e n) tb gr
312.50 102.55 (T) 0 90 t
0.75 setlinewidth
[] 0 setdash
1 setlinecap
1 setlinejoin
10.00 setmiterlimit
np
314.01 111.45 m
-11.65 3.14 l
o
/Font5 findfont 15 s
312.50 116.16 (\() 0 90 t
/Font1 findfont 12 s
312.50 121.15 (n) 0 90 t
/Font1 findfont 8 s
306.53 127.82 (3) 0 90 t
np
314.01 133.84 m
-11.65 3.14 l
o
/Font1 findfont 12 s
312.50 138.55 (w) 0 90 t
/Font1 findfont 8 s
306.53 147.21 (2) 0 90 t
/Font5 findfont 15 s
312.50 151.66 (\)) 0 90 t
0.00 0.00 576.00 216.00 cl
0 0 0 srgb
0.75 setlinewidth
[] 0 setdash
1 setlinecap
1 setlinejoin
10.00 setmiterlimit
np
361.44 73.44 m
198.72 0 l
0 112.32 l
-198.72 0 l
0 -112.32 l
o
ep
%%Trailer
%%Pages: 1
%%EOF
