0.5,0.5,0.5,0.5,0.5,0.5,0.5,0.5,0.5,0.5,0.5,0.5,0.5,0.5,0.5,0.5,0.5,0.5,0.5,0.5,0.5,0.5,0.5,0.5,0.5,0.5,0.5,0.5,0.5,0.5,0.5,0.5,0.5,0.5,0.5,0.5,0.5,0.5,0.5,0.5,0.5,0.5,0.5,0.5,0.5,0.5,0.5,0.5,0.5,0.5,0.5,0.5,0.5,0.5,0.5,0.5,0.5,0.5,0.5,0.5,0.5,0.5,0.5,0.5,0.5,0.5,0.5,0.5,0.5,0.5,0.5,0.5,0.5,0.5,0.5,0.5,0.5,0.5,0.5,0.5,0.5,0.5,0.5,0.5,0.5,0.5,0.5,0.5,0.5,0.5,0.5,0.5,0.5,0.5,0.5,0.5,0.5,0.5,0.5,0.5,0.5,0.5,0.5,0.5,0.5,0.5,0.5,0.5,0.5,0.5,0.5,0.5,0.5,0.5,0.5,0.5,0.5,0.5,0.5,0.5,0.5,0.5,0.5,0.5,0.5,0.5,0.5,0.5,0.5,0.5,0.5,0.5,0.5,0.5,0.5,0.5,0.5,0.5,0.5,0.5,0.5,0.5,0.5,0.5,0.5,0.5,0.5,0.5,0.5,0.5,0.5,0.5,0.5,0.5,0.5,0.5,0.5,0.5,0.5,0.5,0.5,0.5,0.5,0.5,0.5,0.5,0.5,0.5,0.5,0.5,0.5,0.5,0.5,0.5,0.5,0.5,0.5,0.5,0.5,0.5,0.5,0.5,0.5,0.5,0.5,0.5,0.5,0.5,0.5,0.5,0.5,0.5,0.5,0.5,0.5,0.5,0.5,0.5,0.5,0.5,125,-1,-1,0.0
0.5928571428571429,0.4785714285714286,0.5357142857142857,0.6071428571428571,0.5642857142857143,0.5714285714285714,0.44285714285714284,0.5,0.5357142857142857,0.5071428571428571,0.4642857142857143,0.5,0.5142857142857142,0.5714285714285714,0.5071428571428571,0.5357142857142857,0.5214285714285715,0.5785714285714286,0.5357142857142857,0.5071428571428571,0.5928571428571429,0.4785714285714286,0.5642857142857143,0.5357142857142857,0.5142857142857142,0.4857142857142857,0.5,0.5571428571428572,0.5285714285714286,0.5785714285714286,0.4857142857142857,0.5928571428571429,0.5,0.5285714285714286,0.5428571428571428,0.4714285714285714,0.55,0.5,0.5285714285714286,0.5142857142857142,0.45714285714285713,0.5428571428571428,0.5142857142857142,0.4785714285714286,0.5428571428571428,0.55,0.5785714285714286,0.5285714285714286,0.55,0.4714285714285714,0.4928571428571429,0.5571428571428572,0.55,0.4928571428571429,0.5071428571428571,0.5571428571428572,0.5714285714285714,0.5,0.5214285714285715,0.6,0.5928571428571429,0.5357142857142857,0.4714285714285714,0.5,0.5285714285714286,0.45714285714285713,0.5,0.5714285714285714,0.5571428571428572,0.5642857142857143,0.5428571428571428,0.5428571428571428,0.5857142857142857,0.5285714285714286,0.44285714285714284,0.4928571428571429,0.5571428571428572,0.4928571428571429,0.5642857142857143,0.5214285714285715,0.5428571428571428,0.5071428571428571,0.6285714285714286,0.5642857142857143,0.4928571428571429,0.5071428571428571,0.5571428571428572,0.5214285714285715,0.5428571428571428,0.5571428571428572,0.5142857142857142,0.5142857142857142,0.5571428571428572,0.5714285714285714,0.55,0.5,0.6,0.5571428571428572,0.5071428571428571,0.5142857142857142,0.6285714285714286,0.4642857142857143,0.45,0.44285714285714284,0.4928571428571429,0.5857142857142857,0.4928571428571429,0.6285714285714286,0.5285714285714286,0.4785714285714286,0.55,0.5428571428571428,0.55,0.5857142857142857,0.5285714285714286,0.4857142857142857,0.4785714285714286,0.5357142857142857,0.4785714285714286,0.55,0.45714285714285713,0.4857142857142857,0.4928571428571429,0.5214285714285715,0.55,0.5285714285714286,0.5428571428571428,0.5428571428571428,0.6142857142857143,0.5142857142857142,0.4642857142857143,0.5857142857142857,0.6071428571428571,0.5928571428571429,0.5142857142857142,0.5214285714285715,0.4714285714285714,0.55,0.5714285714285714,0.4857142857142857,0.5071428571428571,0.5928571428571429,0.5571428571428572,0.5142857142857142,0.45714285714285713,0.55,0.5285714285714286,0.5428571428571428,0.5071428571428571,0.5571428571428572,0.4785714285714286,0.55,0.6,0.55,0.5071428571428571,0.6071428571428571,0.5,0.45714285714285713,0.5571428571428572,0.4928571428571429,0.5857142857142857,0.5071428571428571,0.5357142857142857,0.5785714285714286,0.5642857142857143,0.6571428571428571,0.4714285714285714,0.4785714285714286,0.5428571428571428,0.5928571428571429,0.5357142857142857,0.5785714285714286,0.5071428571428571,0.6285714285714286,0.5357142857142857,0.5357142857142857,0.5,0.6214285714285714,0.5571428571428572,0.5642857142857143,0.5285714285714286,0.4928571428571429,0.5857142857142857,0.5428571428571428,0.65,0.5071428571428571,0.5285714285714286,0.5,0.45,0.5428571428571428,0.55,0.5714285714285714,0.5714285714285714,0.6357142857142857,0.5,0.5357142857142857,0.5928571428571429,0.5428571428571428,0.4928571428571429,0.45,125,-1,113,59.87857142857144
0.6785714285714286,0.5142857142857142,0.5714285714285714,0.5785714285714286,0.6214285714285714,0.5785714285714286,0.4642857142857143,0.5214285714285715,0.5285714285714286,0.55,0.4785714285714286,0.44285714285714284,0.45714285714285713,0.6428571428571429,0.5357142857142857,0.5,0.55,0.5857142857142857,0.6214285714285714,0.5071428571428571,0.6928571428571428,0.5642857142857143,0.6,0.6357142857142857,0.5142857142857142,0.4357142857142857,0.5285714285714286,0.5571428571428572,0.5928571428571429,0.6714285714285714,0.5071428571428571,0.5857142857142857,0.5428571428571428,0.5428571428571428,0.5714285714285714,0.5214285714285715,0.5857142857142857,0.5214285714285715,0.5714285714285714,0.5642857142857143,0.45,0.6357142857142857,0.5142857142857142,0.5,0.4642857142857143,0.6357142857142857,0.65,0.5642857142857143,0.5642857142857143,0.5285714285714286,0.5928571428571429,0.6428571428571429,0.5428571428571428,0.6,0.5785714285714286,0.6,0.6285714285714286,0.55,0.6714285714285714,0.6071428571428571,0.6428571428571429,0.5642857142857143,0.4928571428571429,0.5,0.5285714285714286,0.4785714285714286,0.5857142857142857,0.5642857142857143,0.5785714285714286,0.5857142857142857,0.5714285714285714,0.5928571428571429,0.7,0.5714285714285714,0.5071428571428571,0.5357142857142857,0.5428571428571428,0.5642857142857143,0.6571428571428571,0.5357142857142857,0.5642857142857143,0.5428571428571428,0.6785714285714286,0.5785714285714286,0.5428571428571428,0.5357142857142857,0.6285714285714286,0.6,0.6285714285714286,0.6071428571428571,0.5428571428571428,0.6,0.65,0.6,0.6428571428571429,0.5285714285714286,0.6571428571428571,0.6285714285714286,0.4857142857142857,0.5214285714285715,0.6642857142857143,0.5285714285714286,0.44285714285714284,0.5142857142857142,0.5,0.6714285714285714,0.5857142857142857,0.6357142857142857,0.5428571428571428,0.5571428571428572,0.5571428571428572,0.6857142857142857,0.5714285714285714,0.6571428571428571,0.5785714285714286,0.5714285714285714,0.5357142857142857,0.5714285714285714,0.45714285714285713,0.5571428571428572,0.45714285714285713,0.4714285714285714,0.5071428571428571,0.6,0.6142857142857143,0.6071428571428571,0.5357142857142857,0.6214285714285714,0.5928571428571429,0.5071428571428571,0.5571428571428572,0.6214285714285714,0.7071428571428572,0.55,0.55,0.4642857142857143,0.5285714285714286,0.5428571428571428,0.6785714285714286,0.5642857142857143,0.4642857142857143,0.5714285714285714,0.5714285714285714,0.5642857142857143,0.4785714285714286,0.5071428571428571,0.5428571428571428,0.4928571428571429,0.4928571428571429,0.6285714285714286,0.4785714285714286,0.5857142857142857,0.7,0.5928571428571429,0.5571428571428572,0.6928571428571428,0.6142857142857143,0.4785714285714286,0.5357142857142857,0.5428571428571428,0.65,0.5428571428571428,0.5071428571428571,0.5785714285714286,0.6,0.6785714285714286,0.5285714285714286,0.5214285714285715,0.6,0.6214285714285714,0.5714285714285714,0.6357142857142857,0.5214285714285715,0.6285714285714286,0.55,0.6071428571428571,0.5857142857142857,0.5785714285714286,0.5714285714285714,0.6357142857142857,0.6428571428571429,0.5214285714285715,0.6285714285714286,0.6285714285714286,0.7071428571428572,0.55,0.5714285714285714,0.4928571428571429,0.55,0.5642857142857143,0.5428571428571428,0.6214285714285714,0.5714285714285714,0.7214285714285714,0.5214285714285715,0.5857142857142857,0.5571428571428572,0.5285714285714286,0.5285714285714286,0.45714285714285713,140,-1,85,47.964285714285744
0.6714285714285714,0.5642857142857143,0.6571428571428571,0.6214285714285714,0.6357142857142857,0.5357142857142857,0.4642857142857143,0.5785714285714286,0.6285714285714286,0.6,0.6571428571428571,0.5,0.5785714285714286,0.6928571428571428,0.5571428571428572,0.6214285714285714,0.5214285714285715,0.6142857142857143,0.6071428571428571,0.5928571428571429,0.7142857142857143,0.55,0.5785714285714286,0.6642857142857143,0.5785714285714286,0.44285714285714284,0.5357142857142857,0.6428571428571429,0.6714285714285714,0.7428571428571429,0.55,0.7,0.5928571428571429,0.5928571428571429,0.65,0.5714285714285714,0.6571428571428571,0.6142857142857143,0.5714285714285714,0.6142857142857143,0.55,0.7071428571428572,0.55,0.55,0.5428571428571428,0.6714285714285714,0.7214285714285714,0.5714285714285714,0.6,0.5357142857142857,0.6285714285714286,0.7285714285714285,0.5714285714285714,0.6857142857142857,0.6,0.6357142857142857,0.7071428571428572,0.5357142857142857,0.6428571428571429,0.6285714285714286,0.6428571428571429,0.5642857142857143,0.4714285714285714,0.5428571428571428,0.5928571428571429,0.5428571428571428,0.55,0.5785714285714286,0.6357142857142857,0.6357142857142857,0.65,0.5785714285714286,0.8,0.6285714285714286,0.5857142857142857,0.5571428571428572,0.5928571428571429,0.55,0.7285714285714285,0.6,0.55,0.5642857142857143,0.6714285714285714,0.6142857142857143,0.6571428571428571,0.4642857142857143,0.6357142857142857,0.65,0.7,0.5857142857142857,0.5714285714285714,0.6642857142857143,0.6571428571428571,0.5857142857142857,0.6357142857142857,0.5785714285714286,0.7285714285714285,0.6642857142857143,0.4714285714285714,0.6,0.6785714285714286,0.5857142857142857,0.5142857142857142,0.5357142857142857,0.5928571428571429,0.6428571428571429,0.5714285714285714,0.6785714285714286,0.5928571428571429,0.6285714285714286,0.6071428571428571,0.7428571428571429,0.6642857142857143,0.75,0.6285714285714286,0.6785714285714286,0.5142857142857142,0.6142857142857143,0.5,0.6714285714285714,0.4857142857142857,0.5714285714285714,0.6357142857142857,0.6428571428571429,0.6428571428571429,0.6714285714285714,0.6,0.5928571428571429,0.6357142857142857,0.6285714285714286,0.6071428571428571,0.6357142857142857,0.8071428571428572,0.5857142857142857,0.6,0.5785714285714286,0.4857142857142857,0.5214285714285715,0.7285714285714285,0.6428571428571429,0.5142857142857142,0.5928571428571429,0.65,0.6,0.4785714285714286,0.5357142857142857,0.5642857142857143,0.4857142857142857,0.5642857142857143,0.6928571428571428,0.4928571428571429,0.6,0.8,0.6071428571428571,0.6357142857142857,0.7642857142857142,0.6714285714285714,0.4857142857142857,0.4857142857142857,0.6214285714285714,0.6928571428571428,0.6071428571428571,0.5428571428571428,0.6285714285714286,0.5785714285714286,0.7071428571428572,0.6,0.6071428571428571,0.6857142857142857,0.6714285714285714,0.5928571428571429,0.7142857142857143,0.45714285714285713,0.6214285714285714,0.6214285714285714,0.6642857142857143,0.6142857142857143,0.55,0.6357142857142857,0.6642857142857143,0.6857142857142857,0.6357142857142857,0.6428571428571429,0.6285714285714286,0.7571428571428571,0.6285714285714286,0.5357142857142857,0.5,0.5142857142857142,0.6285714285714286,0.5785714285714286,0.7071428571428572,0.5357142857142857,0.7857142857142857,0.5571428571428572,0.6642857142857143,0.6214285714285714,0.5642857142857143,0.4785714285714286,0.4642857142857143,141,-1,97,59.04285714285715
0.7357142857142858,0.6428571428571429,0.6214285714285714,0.6642857142857143,0.6285714285714286,0.6785714285714286,0.5,0.6571428571428571,0.6642857142857143,0.6428571428571429,0.7,0.5285714285714286,0.5928571428571429,0.8142857142857143,0.6285714285714286,0.6642857142857143,0.5714285714285714,0.7142857142857143,0.6928571428571428,0.6,0.7,0.6142857142857143,0.6214285714285714,0.5785714285714286,0.6,0.4142857142857143,0.6142857142857143,0.6357142857142857,0.7714285714285715,0.75,0.5714285714285714,0.7428571428571429,0.5857142857142857,0.6857142857142857,0.6857142857142857,0.5857142857142857,0.7214285714285714,0.6285714285714286,0.6357142857142857,0.6071428571428571,0.5857142857142857,0.75,0.5785714285714286,0.5571428571428572,0.6357142857142857,0.7142857142857143,0.6857142857142857,0.5714285714285714,0.5571428571428572,0.5928571428571429,0.6857142857142857,0.7071428571428572,0.6857142857142857,0.6571428571428571,0.6428571428571429,0.6,0.7714285714285715,0.5714285714285714,0.6928571428571428,0.6285714285714286,0.7,0.6571428571428571,0.4785714285714286,0.5214285714285715,0.65,0.55,0.5714285714285714,0.6,0.7071428571428572,0.6785714285714286,0.6928571428571428,0.6142857142857143,0.7928571428571428,0.6928571428571428,0.6714285714285714,0.5714285714285714,0.5714285714285714,0.5857142857142857,0.7285714285714285,0.6642857142857143,0.5071428571428571,0.5428571428571428,0.7071428571428572,0.7142857142857143,0.7428571428571429,0.5214285714285715,0.6857142857142857,0.6642857142857143,0.6571428571428571,0.6071428571428571,0.6071428571428571,0.6857142857142857,0.6642857142857143,0.6214285714285714,0.6928571428571428,0.6142857142857143,0.6428571428571429,0.6,0.4857142857142857,0.6785714285714286,0.7357142857142858,0.7214285714285714,0.5428571428571428,0.6071428571428571,0.7285714285714285,0.6714285714285714,0.5785714285714286,0.7142857142857143,0.5714285714285714,0.65,0.7,0.75,0.6571428571428571,0.7785714285714286,0.7,0.6928571428571428,0.55,0.65,0.55,0.7142857142857143,0.5428571428571428,0.5714285714285714,0.7142857142857143,0.7214285714285714,0.5928571428571429,0.7714285714285715,0.5642857142857143,0.5785714285714286,0.6357142857142857,0.6142857142857143,0.6857142857142857,0.5714285714285714,0.8214285714285714,0.6428571428571429,0.6857142857142857,0.6214285714285714,0.5142857142857142,0.5571428571428572,0.7214285714285714,0.6928571428571428,0.5928571428571429,0.65,0.7,0.6285714285714286,0.4928571428571429,0.6,0.6357142857142857,0.5071428571428571,0.5714285714285714,0.7357142857142858,0.4,0.6071428571428571,0.85,0.6571428571428571,0.6642857142857143,0.8,0.7142857142857143,0.5214285714285715,0.5428571428571428,0.6214285714285714,0.7142857142857143,0.6357142857142857,0.5928571428571429,0.7,0.6214285714285714,0.7928571428571428,0.65,0.6,0.7285714285714285,0.6714285714285714,0.6428571428571429,0.7214285714285714,0.45714285714285713,0.6357142857142857,0.5928571428571429,0.7142857142857143,0.6714285714285714,0.65,0.6357142857142857,0.7,0.7285714285714285,0.7357142857142858,0.7,0.6642857142857143,0.8571428571428571,0.7357142857142858,0.5571428571428572,0.5071428571428571,0.55,0.6428571428571429,0.65,0.7571428571428571,0.5928571428571429,0.8428571428571429,0.6142857142857143,0.7142857142857143,0.6214285714285714,0.5214285714285715,0.4857142857142857,0.5214285714285715,147,-1,72,45.985714285714295
0.7214285714285714,0.7428571428571429,0.6,0.7214285714285714,0.7428571428571429,0.7357142857142858,0.6,0.7357142857142858,0.7214285714285714,0.6071428571428571,0.7428571428571429,0.5714285714285714,0.6928571428571428,0.8357142857142857,0.7214285714285714,0.75,0.5714285714285714,0.7785714285714286,0.6785714285714286,0.6,0.7,0.7285714285714285,0.6785714285714286,0.6357142857142857,0.6857142857142857,0.42142857142857143,0.6642857142857143,0.6357142857142857,0.8142857142857143,0.8285714285714286,0.55,0.75,0.6785714285714286,0.6857142857142857,0.6571428571428571,0.5785714285714286,0.7357142857142858,0.6285714285714286,0.5857142857142857,0.65,0.6071428571428571,0.7571428571428571,0.5214285714285715,0.5785714285714286,0.6928571428571428,0.7642857142857142,0.7,0.5714285714285714,0.6071428571428571,0.6785714285714286,0.75,0.7071428571428572,0.7,0.7285714285714285,0.7071428571428572,0.6642857142857143,0.7785714285714286,0.6,0.75,0.6857142857142857,0.7428571428571429,0.6928571428571428,0.44285714285714284,0.5714285714285714,0.6571428571428571,0.5928571428571429,0.6142857142857143,0.6071428571428571,0.6857142857142857,0.7642857142857142,0.7142857142857143,0.6571428571428571,0.7642857142857142,0.7642857142857142,0.7285714285714285,0.5642857142857143,0.6142857142857143,0.6285714285714286,0.75,0.6928571428571428,0.5142857142857142,0.5928571428571429,0.7357142857142858,0.8214285714285714,0.7785714285714286,0.5928571428571429,0.7285714285714285,0.7285714285714285,0.5642857142857143,0.6357142857142857,0.7,0.7071428571428572,0.6714285714285714,0.6642857142857143,0.7,0.6214285714285714,0.7142857142857143,0.6285714285714286,0.55,0.7285714285714285,0.7857142857142857,0.6428571428571429,0.5714285714285714,0.6357142857142857,0.7214285714285714,0.6642857142857143,0.5285714285714286,0.7214285714285714,0.5928571428571429,0.7214285714285714,0.7571428571428571,0.7857142857142857,0.7285714285714285,0.8714285714285714,0.7571428571428571,0.7571428571428571,0.65,0.6928571428571428,0.5357142857142857,0.7071428571428572,0.6,0.5142857142857142,0.7785714285714286,0.7214285714285714,0.5928571428571429,0.8142857142857143,0.6071428571428571,0.6571428571428571,0.7571428571428571,0.6214285714285714,0.7142857142857143,0.55,0.8071428571428572,0.6357142857142857,0.75,0.6714285714285714,0.4928571428571429,0.5428571428571428,0.7857142857142857,0.7142857142857143,0.6,0.6785714285714286,0.6928571428571428,0.5857142857142857,0.5714285714285714,0.6928571428571428,0.65,0.5357142857142857,0.6357142857142857,0.7714285714285715,0.42142857142857143,0.6785714285714286,0.8714285714285714,0.6857142857142857,0.6785714285714286,0.8785714285714286,0.7428571428571429,0.5928571428571429,0.65,0.6,0.8214285714285714,0.6714285714285714,0.6214285714285714,0.7071428571428572,0.6785714285714286,0.8142857142857143,0.7142857142857143,0.65,0.7357142857142858,0.6928571428571428,0.6928571428571428,0.6571428571428571,0.4357142857142857,0.6785714285714286,0.6714285714285714,0.7857142857142857,0.6785714285714286,0.6928571428571428,0.6857142857142857,0.7142857142857143,0.8,0.7642857142857142,0.7571428571428571,0.7142857142857143,0.8785714285714286,0.8071428571428572,0.6071428571428571,0.55,0.5642857142857143,0.6214285714285714,0.7857142857142857,0.7928571428571428,0.7285714285714285,0.8357142857142857,0.6571428571428571,0.7357142857142858,0.7428571428571429,0.5928571428571429,0.5,0.6,152,-1,71,47.79999999999998
0.75,0.7857142857142857,0.5714285714285714,0.7571428571428571,0.7785714285714286,0.7857142857142857,0.6428571428571429,0.7142857142857143,0.7785714285714286,0.6571428571428571,0.7142857142857143,0.5785714285714286,0.7857142857142857,0.8,0.7357142857142858,0.7928571428571428,0.5571428571428572,0.8214285714285714,0.6857142857142857,0.5785714285714286,0.75,0.7714285714285715,0.7571428571428571,0.75,0.7285714285714285,0.5071428571428571,0.6214285714285714,0.7214285714285714,0.8214285714285714,0.8785714285714286,0.5214285714285715,0.7928571428571428,0.7,0.7071428571428572,0.65,0.65,0.75,0.6,0.5857142857142857,0.65,0.6642857142857143,0.8714285714285714,0.5071428571428571,0.5928571428571429,0.7142857142857143,0.7928571428571428,0.7,0.6285714285714286,0.7071428571428572,0.7214285714285714,0.8428571428571429,0.7071428571428572,0.6928571428571428,0.75,0.75,0.6714285714285714,0.8285714285714286,0.6642857142857143,0.8285714285714286,0.7285714285714285,0.7357142857142858,0.7857142857142857,0.4642857142857143,0.6142857142857143,0.6857142857142857,0.5714285714285714,0.6714285714285714,0.6642857142857143,0.7285714285714285,0.8285714285714286,0.7642857142857142,0.6714285714285714,0.7857142857142857,0.8214285714285714,0.8142857142857143,0.5928571428571429,0.6428571428571429,0.65,0.7785714285714286,0.7071428571428572,0.6785714285714286,0.65,0.8142857142857143,0.8571428571428571,0.8642857142857143,0.6214285714285714,0.6642857142857143,0.6785714285714286,0.6071428571428571,0.6785714285714286,0.7,0.7285714285714285,0.6285714285714286,0.7571428571428571,0.6857142857142857,0.6357142857142857,0.7857142857142857,0.6285714285714286,0.5357142857142857,0.8071428571428572,0.7857142857142857,0.65,0.6642857142857143,0.7142857142857143,0.7428571428571429,0.7071428571428572,0.5642857142857143,0.75,0.6285714285714286,0.7,0.7928571428571428,0.7642857142857142,0.7857142857142857,0.9285714285714286,0.8,0.8071428571428572,0.6714285714285714,0.7571428571428571,0.5857142857142857,0.65,0.6571428571428571,0.6,0.8071428571428572,0.75,0.6071428571428571,0.7857142857142857,0.6928571428571428,0.6928571428571428,0.7928571428571428,0.6285714285714286,0.7142857142857143,0.5571428571428572,0.8357142857142857,0.6571428571428571,0.7785714285714286,0.7642857142857142,0.5857142857142857,0.5428571428571428,0.8,0.8,0.6642857142857143,0.7214285714285714,0.7428571428571429,0.5785714285714286,0.6071428571428571,0.6071428571428571,0.7642857142857142,0.5428571428571428,0.6571428571428571,0.8,0.42857142857142855,0.6714285714285714,0.85,0.7071428571428572,0.7714285714285715,0.8857142857142857,0.7928571428571428,0.6857142857142857,0.6714285714285714,0.6857142857142857,0.8214285714285714,0.6214285714285714,0.6357142857142857,0.7357142857142858,0.8214285714285714,0.8428571428571429,0.8428571428571429,0.6642857142857143,0.8142857142857143,0.7071428571428572,0.6928571428571428,0.6785714285714286,0.5071428571428571,0.7428571428571429,0.75,0.8214285714285714,0.6285714285714286,0.7285714285714285,0.6857142857142857,0.7071428571428572,0.8428571428571429,0.8214285714285714,0.8571428571428571,0.7357142857142858,0.9,0.8785714285714286,0.7285714285714285,0.6428571428571429,0.6,0.7071428571428572,0.7642857142857142,0.7928571428571428,0.7357142857142858,0.8785714285714286,0.6857142857142857,0.7285714285714285,0.7071428571428572,0.6928571428571428,0.5,0.65,156,-1,50,35.085714285714275
0.7357142857142858,0.7714285714285715,0.5571428571428572,0.7571428571428571,0.8714285714285714,0.7928571428571428,0.7214285714285714,0.7571428571428571,0.8642857142857143,0.7142857142857143,0.7428571428571429,0.5928571428571429,0.8285714285714286,0.8214285714285714,0.75,0.7642857142857142,0.5928571428571429,0.7928571428571428,0.6714285714285714,0.6142857142857143,0.7642857142857142,0.8357142857142857,0.8214285714285714,0.7857142857142857,0.7642857142857142,0.5428571428571428,0.6214285714285714,0.7714285714285715,0.8142857142857143,0.8785714285714286,0.5785714285714286,0.8571428571428571,0.7428571428571429,0.7285714285714285,0.7,0.6785714285714286,0.7785714285714286,0.6785714285714286,0.6071428571428571,0.6785714285714286,0.6928571428571428,0.8714285714285714,0.5642857142857143,0.6357142857142857,0.7428571428571429,0.8142857142857143,0.7642857142857142,0.6142857142857143,0.6928571428571428,0.8142857142857143,0.8571428571428571,0.7285714285714285,0.7642857142857142,0.7714285714285715,0.75,0.6714285714285714,0.8214285714285714,0.6571428571428571,0.8357142857142857,0.7428571428571429,0.7642857142857142,0.8,0.4928571428571429,0.5785714285714286,0.7357142857142858,0.7071428571428572,0.6071428571428571,0.6785714285714286,0.7785714285714286,0.8785714285714286,0.8071428571428572,0.7357142857142858,0.8071428571428572,0.8571428571428571,0.8357142857142857,0.6142857142857143,0.7285714285714285,0.6857142857142857,0.8285714285714286,0.7428571428571429,0.7214285714285714,0.6785714285714286,0.8285714285714286,0.8857142857142857,0.9071428571428571,0.7071428571428572,0.7214285714285714,0.7071428571428572,0.5928571428571429,0.7428571428571429,0.7142857142857143,0.75,0.75,0.7428571428571429,0.7357142857142858,0.7,0.7714285714285715,0.7071428571428572,0.6142857142857143,0.7714285714285715,0.8357142857142857,0.7071428571428572,0.6571428571428571,0.7571428571428571,0.75,0.75,0.5785714285714286,0.8142857142857143,0.7,0.75,0.8928571428571429,0.85,0.8571428571428571,0.95,0.8142857142857143,0.8428571428571429,0.6928571428571428,0.75,0.6428571428571429,0.6714285714285714,0.6571428571428571,0.5857142857142857,0.8571428571428571,0.75,0.5928571428571429,0.7928571428571428,0.6642857142857143,0.7571428571428571,0.7642857142857142,0.6642857142857143,0.7285714285714285,0.6071428571428571,0.8928571428571429,0.7,0.7714285714285715,0.8285714285714286,0.65,0.5785714285714286,0.8428571428571429,0.8357142857142857,0.7357142857142858,0.7357142857142858,0.7642857142857142,0.6285714285714286,0.6571428571428571,0.6785714285714286,0.8357142857142857,0.6357142857142857,0.6857142857142857,0.8571428571428571,0.4785714285714286,0.65,0.8857142857142857,0.7571428571428571,0.8,0.8642857142857143,0.8571428571428571,0.7142857142857143,0.7142857142857143,0.6357142857142857,0.8714285714285714,0.6642857142857143,0.7142857142857143,0.7928571428571428,0.8285714285714286,0.8428571428571429,0.8428571428571429,0.6714285714285714,0.8357142857142857,0.7285714285714285,0.75,0.7214285714285714,0.5,0.7571428571428571,0.7571428571428571,0.85,0.7,0.7357142857142858,0.7142857142857143,0.7285714285714285,0.8928571428571429,0.8785714285714286,0.9,0.7357142857142858,0.95,0.9142857142857143,0.7785714285714286,0.7214285714285714,0.6642857142857143,0.7285714285714285,0.8214285714285714,0.8214285714285714,0.7357142857142858,0.8714285714285714,0.6928571428571428,0.7214285714285714,0.7214285714285714,0.75,0.5642857142857143,0.6285714285714286,167,-1,53,38.89999999999999
0.7785714285714286,0.7714285714285715,0.6214285714285714,0.8214285714285714,0.8428571428571429,0.8142857142857143,0.7142857142857143,0.8071428571428572,0.9142857142857143,0.7357142857142858,0.7285714285714285,0.5785714285714286,0.85,0.8928571428571429,0.8142857142857143,0.8357142857142857,0.6214285714285714,0.8642857142857143,0.7214285714285714,0.7,0.7714285714285715,0.8714285714285714,0.8714285714285714,0.8714285714285714,0.7642857142857142,0.5857142857142857,0.6571428571428571,0.8142857142857143,0.8071428571428572,0.8642857142857143,0.6571428571428571,0.8785714285714286,0.7214285714285714,0.7714285714285715,0.6714285714285714,0.7071428571428572,0.8357142857142857,0.6571428571428571,0.6071428571428571,0.7285714285714285,0.6428571428571429,0.9,0.6,0.6714285714285714,0.8071428571428572,0.8142857142857143,0.8285714285714286,0.6785714285714286,0.7285714285714285,0.8428571428571429,0.9071428571428571,0.7214285714285714,0.8071428571428572,0.8142857142857143,0.7285714285714285,0.6785714285714286,0.8642857142857143,0.7142857142857143,0.9,0.7571428571428571,0.8071428571428572,0.8571428571428571,0.45714285714285713,0.5428571428571428,0.7857142857142857,0.7642857142857142,0.6428571428571429,0.7071428571428572,0.8357142857142857,0.8571428571428571,0.7785714285714286,0.7642857142857142,0.8571428571428571,0.85,0.85,0.6928571428571428,0.7642857142857142,0.7142857142857143,0.8428571428571429,0.7785714285714286,0.7714285714285715,0.6857142857142857,0.8214285714285714,0.9,0.8785714285714286,0.7142857142857143,0.7785714285714286,0.7571428571428571,0.5642857142857143,0.7285714285714285,0.75,0.7642857142857142,0.7571428571428571,0.7571428571428571,0.8,0.7785714285714286,0.7928571428571428,0.7357142857142858,0.6714285714285714,0.7857142857142857,0.8642857142857143,0.7142857142857143,0.7714285714285715,0.7714285714285715,0.85,0.7857142857142857,0.6642857142857143,0.7857142857142857,0.7357142857142858,0.8,0.8857142857142857,0.8571428571428571,0.9571428571428572,0.9571428571428572,0.8571428571428571,0.9071428571428571,0.7357142857142858,0.7714285714285715,0.6857142857142857,0.7142857142857143,0.7214285714285714,0.5571428571428572,0.8571428571428571,0.7928571428571428,0.5785714285714286,0.7857142857142857,0.6357142857142857,0.8428571428571429,0.8071428571428572,0.7071428571428572,0.7785714285714286,0.6428571428571429,0.8785714285714286,0.7285714285714285,0.8214285714285714,0.8571428571428571,0.6785714285714286,0.6428571428571429,0.8785714285714286,0.8642857142857143,0.8,0.7428571428571429,0.7857142857142857,0.6642857142857143,0.6642857142857143,0.7714285714285715,0.8642857142857143,0.6785714285714286,0.6928571428571428,0.8857142857142857,0.5428571428571428,0.6785714285714286,0.9071428571428571,0.7928571428571428,0.7857142857142857,0.8857142857142857,0.85,0.7071428571428572,0.7714285714285715,0.7,0.9214285714285714,0.7357142857142858,0.7571428571428571,0.8214285714285714,0.8571428571428571,0.9071428571428571,0.8785714285714286,0.6571428571428571,0.8357142857142857,0.7642857142857142,0.8142857142857143,0.7142857142857143,0.5928571428571429,0.7857142857142857,0.75,0.8928571428571429,0.7428571428571429,0.7571428571428571,0.7642857142857142,0.7571428571428571,0.9285714285714286,0.9071428571428571,0.9142857142857143,0.7928571428571428,0.9857142857142858,0.9357142857142857,0.7857142857142857,0.75,0.6857142857142857,0.8,0.8857142857142857,0.8785714285714286,0.6857142857142857,0.8785714285714286,0.7571428571428571,0.7785714285714286,0.7428571428571429,0.8214285714285714,0.6071428571428571,0.6714285714285714,171,-1,41,31.18571428571428
0.8071428571428572,0.7714285714285715,0.6285714285714286,0.8928571428571429,0.8785714285714286,0.8071428571428572,0.7714285714285715,0.8214285714285714,0.9357142857142857,0.7571428571428571,0.7285714285714285,0.6142857142857143,0.8714285714285714,0.9357142857142857,0.8571428571428571,0.8285714285714286,0.6428571428571429,0.8428571428571429,0.7214285714285714,0.8,0.8,0.8928571428571429,0.9571428571428572,0.9,0.7928571428571428,0.6285714285714286,0.6785714285714286,0.8214285714285714,0.8357142857142857,0.8714285714285714,0.6714285714285714,0.8571428571428571,0.7857142857142857,0.7928571428571428,0.6785714285714286,0.7785714285714286,0.8071428571428572,0.7,0.6714285714285714,0.7142857142857143,0.75,0.8857142857142857,0.6071428571428571,0.75,0.8785714285714286,0.8785714285714286,0.8714285714285714,0.7357142857142858,0.7428571428571429,0.9142857142857143,0.9142857142857143,0.7714285714285715,0.8428571428571429,0.8571428571428571,0.8,0.7285714285714285,0.8857142857142857,0.7357142857142858,0.9285714285714286,0.7142857142857143,0.8642857142857143,0.8642857142857143,0.45714285714285713,0.6071428571428571,0.7857142857142857,0.8428571428571429,0.6928571428571428,0.6928571428571428,0.8214285714285714,0.9142857142857143,0.75,0.8214285714285714,0.8928571428571429,0.8857142857142857,0.8928571428571429,0.7285714285714285,0.8,0.6857142857142857,0.9,0.7857142857142857,0.8071428571428572,0.7285714285714285,0.8571428571428571,0.8928571428571429,0.8857142857142857,0.7571428571428571,0.8214285714285714,0.8214285714285714,0.6071428571428571,0.7785714285714286,0.7428571428571429,0.7714285714285715,0.75,0.75,0.85,0.85,0.7928571428571428,0.7642857142857142,0.7214285714285714,0.8428571428571429,0.8857142857142857,0.7928571428571428,0.8142857142857143,0.8214285714285714,0.9214285714285714,0.7928571428571428,0.6785714285714286,0.8357142857142857,0.8071428571428572,0.7714285714285715,0.8857142857142857,0.8571428571428571,0.9642857142857143,0.9857142857142858,0.8857142857142857,0.9285714285714286,0.7642857142857142,0.8357142857142857,0.7357142857142858,0.7357142857142858,0.7857142857142857,0.5571428571428572,0.8857142857142857,0.8428571428571429,0.6285714285714286,0.8571428571428571,0.6428571428571429,0.9,0.8714285714285714,0.8071428571428572,0.7928571428571428,0.7214285714285714,0.8714285714285714,0.7642857142857142,0.8571428571428571,0.8785714285714286,0.65,0.65,0.9071428571428571,0.8857142857142857,0.8571428571428571,0.8357142857142857,0.8142857142857143,0.6571428571428571,0.6571428571428571,0.8857142857142857,0.8571428571428571,0.7571428571428571,0.8142857142857143,0.9214285714285714,0.6357142857142857,0.7357142857142858,0.8785714285714286,0.7357142857142858,0.7785714285714286,0.9357142857142857,0.8642857142857143,0.7285714285714285,0.8428571428571429,0.7571428571428571,0.9571428571428572,0.7785714285714286,0.8142857142857143,0.7642857142857142,0.8428571428571429,0.9142857142857143,0.8928571428571429,0.6785714285714286,0.8571428571428571,0.7642857142857142,0.8357142857142857,0.75,0.7071428571428572,0.8214285714285714,0.7785714285714286,0.8928571428571429,0.7928571428571428,0.8,0.7357142857142858,0.7428571428571429,0.9714285714285714,0.9071428571428571,0.9285714285714286,0.8357142857142857,0.995,0.9357142857142857,0.8357142857142857,0.7357142857142858,0.6857142857142857,0.85,0.9214285714285714,0.8857142857142857,0.7,0.9285714285714286,0.7428571428571429,0.7928571428571428,0.7928571428571428,0.8928571428571429,0.6642857142857143,0.6928571428571428,176,-1,32,25.62142857142857
0.8428571428571429,0.7642857142857142,0.5857142857142857,0.95,0.9142857142857143,0.8785714285714286,0.7857142857142857,0.8285714285714286,0.9428571428571428,0.8357142857142857,0.7571428571428571,0.6642857142857143,0.8857142857142857,0.9642857142857143,0.8785714285714286,0.85,0.7285714285714285,0.8571428571428571,0.7428571428571429,0.8214285714285714,0.8142857142857143,0.9,0.9928571428571429,0.8928571428571429,0.8071428571428572,0.6428571428571429,0.7357142857142858,0.8857142857142857,0.8785714285714286,0.9142857142857143,0.7071428571428572,0.9071428571428571,0.8285714285714286,0.7642857142857142,0.6714285714285714,0.7714285714285715,0.8142857142857143,0.6785714285714286,0.7642857142857142,0.6714285714285714,0.8142857142857143,0.9142857142857143,0.6785714285714286,0.7857142857142857,0.8785714285714286,0.8928571428571429,0.9214285714285714,0.7357142857142858,0.7928571428571428,0.9142857142857143,0.8857142857142857,0.8142857142857143,0.9071428571428571,0.8785714285714286,0.8785714285714286,0.8285714285714286,0.8857142857142857,0.8,0.9714285714285714,0.7857142857142857,0.9071428571428571,0.9142857142857143,0.4714285714285714,0.75,0.8,0.8642857142857143,0.7285714285714285,0.6214285714285714,0.8428571428571429,0.9642857142857143,0.7714285714285715,0.8571428571428571,0.9,0.8714285714285714,0.8928571428571429,0.8071428571428572,0.8071428571428572,0.7142857142857143,0.9214285714285714,0.7785714285714286,0.8857142857142857,0.8071428571428572,0.9,0.8928571428571429,0.9357142857142857,0.8071428571428572,0.8714285714285714,0.8071428571428572,0.6714285714285714,0.7785714285714286,0.7714285714285715,0.8,0.7928571428571428,0.75,0.8857142857142857,0.8,0.7857142857142857,0.8571428571428571,0.7357142857142858,0.9357142857142857,0.9357142857142857,0.8714285714285714,0.8928571428571429,0.8,0.95,0.7785714285714286,0.7071428571428572,0.8571428571428571,0.7857142857142857,0.8428571428571429,0.9571428571428572,0.8928571428571429,0.95,0.995,0.9,0.9285714285714286,0.8142857142857143,0.8071428571428572,0.7071428571428572,0.8071428571428572,0.8285714285714286,0.6428571428571429,0.9071428571428571,0.9214285714285714,0.65,0.9071428571428571,0.7714285714285715,0.9285714285714286,0.9285714285714286,0.8428571428571429,0.8714285714285714,0.75,0.9142857142857143,0.8071428571428572,0.8428571428571429,0.9214285714285714,0.7142857142857143,0.6928571428571428,0.9142857142857143,0.8714285714285714,0.8642857142857143,0.8,0.8571428571428571,0.7357142857142858,0.7071428571428572,0.9,0.9071428571428571,0.7857142857142857,0.8571428571428571,0.9428571428571428,0.7428571428571429,0.7857142857142857,0.9071428571428571,0.7857142857142857,0.7857142857142857,0.95,0.8785714285714286,0.8214285714285714,0.9071428571428571,0.7428571428571429,0.9571428571428572,0.8214285714285714,0.8428571428571429,0.8357142857142857,0.8785714285714286,0.95,0.9214285714285714,0.7928571428571428,0.8857142857142857,0.8,0.9071428571428571,0.8357142857142857,0.7285714285714285,0.85,0.8571428571428571,0.8928571428571429,0.8785714285714286,0.8142857142857143,0.75,0.7357142857142858,0.9857142857142858,0.9285714285714286,0.95,0.8857142857142857,0.995,0.9642857142857143,0.8928571428571429,0.7928571428571428,0.6285714285714286,0.9,0.9357142857142857,0.9,0.75,0.9071428571428571,0.7285714285714285,0.8071428571428572,0.8285714285714286,0.9142857142857143,0.7071428571428572,0.7285714285714285,181,-1,22,18.19285714285714
0.8285714285714286,0.8,0.5928571428571429,0.9785714285714285,0.9428571428571428,0.9214285714285714,0.8928571428571429,0.8714285714285714,0.95,0.8928571428571429,0.8357142857142857,0.6857142857142857,0.8714285714285714,0.9857142857142858,0.9357142857142857,0.8785714285714286,0.8,0.8642857142857143,0.8142857142857143,0.8142857142857143,0.8,0.9428571428571428,0.995,0.9571428571428572,0.7928571428571428,0.7285714285714285,0.7285714285714285,0.8428571428571429,0.9,0.9571428571428572,0.7714285714285715,0.9214285714285714,0.8357142857142857,0.8214285714285714,0.7285714285714285,0.8071428571428572,0.8642857142857143,0.6785714285714286,0.85,0.7428571428571429,0.8214285714285714,0.9642857142857143,0.6714285714285714,0.75,0.9142857142857143,0.9142857142857143,0.95,0.75,0.7857142857142857,0.95,0.8928571428571429,0.8642857142857143,0.8571428571428571,0.8928571428571429,0.9214285714285714,0.85,0.9428571428571428,0.8642857142857143,0.9785714285714285,0.8214285714285714,0.9214285714285714,0.9142857142857143,0.4857142857142857,0.8214285714285714,0.8357142857142857,0.95,0.7357142857142858,0.6785714285714286,0.85,0.9714285714285714,0.7857142857142857,0.8714285714285714,0.8642857142857143,0.8571428571428571,0.9071428571428571,0.8285714285714286,0.9,0.8071428571428572,0.9571428571428572,0.7928571428571428,0.9285714285714286,0.8714285714285714,0.95,0.9071428571428571,0.9285714285714286,0.7857142857142857,0.8714285714285714,0.8142857142857143,0.7142857142857143,0.8285714285714286,0.8142857142857143,0.8214285714285714,0.8357142857142857,0.7928571428571428,0.8785714285714286,0.8214285714285714,0.8357142857142857,0.8357142857142857,0.7857142857142857,0.9642857142857143,0.9642857142857143,0.9071428571428571,0.9071428571428571,0.85,0.95,0.8071428571428572,0.75,0.8714285714285714,0.8642857142857143,0.8857142857142857,0.9785714285714285,0.9357142857142857,0.9642857142857143,0.995,0.9357142857142857,0.95,0.85,0.8571428571428571,0.7,0.8357142857142857,0.8857142857142857,0.7071428571428572,0.9285714285714286,0.9428571428571428,0.7214285714285714,0.8714285714285714,0.8357142857142857,0.9428571428571428,0.9428571428571428,0.8857142857142857,0.8785714285714286,0.75,0.9357142857142857,0.8785714285714286,0.8571428571428571,0.9285714285714286,0.75,0.8,0.9214285714285714,0.85,0.9214285714285714,0.8714285714285714,0.9,0.7857142857142857,0.7571428571428571,0.9285714285714286,0.95,0.8642857142857143,0.8928571428571429,0.9642857142857143,0.7928571428571428,0.85,0.9214285714285714,0.8,0.8285714285714286,0.9642857142857143,0.9142857142857143,0.85,0.9642857142857143,0.7571428571428571,0.9785714285714285,0.8,0.8642857142857143,0.8,0.9214285714285714,0.95,0.9285714285714286,0.8214285714285714,0.8857142857142857,0.8357142857142857,0.9357142857142857,0.8857142857142857,0.7857142857142857,0.8928571428571429,0.9142857142857143,0.9142857142857143,0.9142857142857143,0.85,0.85,0.7857142857142857,0.9857142857142858,0.9214285714285714,0.9928571428571429,0.9285714285714286,0.995,0.9928571428571429,0.8714285714285714,0.8214285714285714,0.7071428571428572,0.9357142857142857,0.9642857142857143,0.9071428571428571,0.7714285714285715,0.9071428571428571,0.6857142857142857,0.8785714285714286,0.8571428571428571,0.9,0.7928571428571428,0.7214285714285714,185,-1,21,17.957142857142856
0.8214285714285714,0.8071428571428572,0.6928571428571428,0.9785714285714285,0.9285714285714286,0.9428571428571428,0.8714285714285714,0.9571428571428572,0.9785714285714285,0.9214285714285714,0.8714285714285714,0.7142857142857143,0.8857142857142857,0.9857142857142858,0.9642857142857143,0.8785714285714286,0.85,0.8928571428571429,0.7714285714285715,0.8642857142857143,0.8214285714285714,0.9642857142857143,0.995,0.9571428571428572,0.7928571428571428,0.7785714285714286,0.7785714285714286,0.85,0.9214285714285714,0.95,0.8285714285714286,0.9357142857142857,0.85,0.8357142857142857,0.7357142857142858,0.8,0.8571428571428571,0.7714285714285715,0.8571428571428571,0.7785714285714286,0.8071428571428572,0.9642857142857143,0.7357142857142858,0.7357142857142858,0.9357142857142857,0.9285714285714286,0.9428571428571428,0.85,0.8071428571428572,0.95,0.8928571428571429,0.9357142857142857,0.8785714285714286,0.9071428571428571,0.95,0.9071428571428571,0.9285714285714286,0.9071428571428571,0.9928571428571429,0.8785714285714286,0.9071428571428571,0.9642857142857143,0.5428571428571428,0.85,0.9214285714285714,0.9714285714285714,0.8571428571428571,0.6714285714285714,0.9071428571428571,0.9642857142857143,0.8357142857142857,0.8857142857142857,0.9428571428571428,0.9,0.9285714285714286,0.8357142857142857,0.9071428571428571,0.8357142857142857,0.9571428571428572,0.7571428571428571,0.9357142857142857,0.8571428571428571,0.9642857142857143,0.8714285714285714,0.9285714285714286,0.8,0.9428571428571428,0.8571428571428571,0.7428571428571429,0.8714285714285714,0.8714285714285714,0.8785714285714286,0.8357142857142857,0.8142857142857143,0.9357142857142857,0.8785714285714286,0.8571428571428571,0.85,0.8285714285714286,0.9714285714285714,0.9571428571428572,0.9285714285714286,0.9357142857142857,0.8285714285714286,0.9571428571428572,0.8357142857142857,0.75,0.8785714285714286,0.8785714285714286,0.9285714285714286,0.9928571428571429,0.9357142857142857,0.9428571428571428,0.995,0.9571428571428572,0.9428571428571428,0.9142857142857143,0.8928571428571429,0.7071428571428572,0.8714285714285714,0.9428571428571428,0.7357142857142858,0.95,0.95,0.8142857142857143,0.9357142857142857,0.8285714285714286,0.9428571428571428,0.9714285714285714,0.9071428571428571,0.9214285714285714,0.8071428571428572,0.9357142857142857,0.9214285714285714,0.8928571428571429,0.9214285714285714,0.8214285714285714,0.8071428571428572,0.9285714285714286,0.8357142857142857,0.9214285714285714,0.8928571428571429,0.8928571428571429,0.7857142857142857,0.8,0.95,0.9785714285714285,0.8714285714285714,0.9428571428571428,0.9785714285714285,0.8285714285714286,0.8857142857142857,0.9428571428571428,0.8714285714285714,0.9142857142857143,0.9714285714285714,0.9142857142857143,0.8857142857142857,0.9642857142857143,0.7857142857142857,0.9714285714285714,0.9,0.8857142857142857,0.8714285714285714,0.9428571428571428,0.9785714285714285,0.9571428571428572,0.8785714285714286,0.85,0.85,0.9571428571428572,0.8857142857142857,0.8214285714285714,0.9071428571428571,0.95,0.9214285714285714,0.9214285714285714,0.9214285714285714,0.8642857142857143,0.85,0.9642857142857143,0.95,0.9785714285714285,0.9285714285714286,0.9857142857142858,0.9928571428571429,0.9285714285714286,0.8285714285714286,0.7571428571428571,0.9857142857142858,0.9714285714285714,0.9,0.8357142857142857,0.95,0.7214285714285714,0.8928571428571429,0.8785714285714286,0.9357142857142857,0.8142857142857143,0.7214285714285714,189,-1,5,4.228571428571429
0.8642857142857143,0.8142857142857143,0.6928571428571428,0.9857142857142858,0.95,0.9428571428571428,0.9214285714285714,0.9857142857142858,0.9857142857142858,0.95,0.9,0.7857142857142857,0.9142857142857143,0.9928571428571429,0.9714285714285714,0.8928571428571429,0.8571428571428571,0.9,0.8357142857142857,0.9428571428571428,0.8428571428571429,0.9357142857142857,0.9928571428571429,0.9428571428571428,0.8142857142857143,0.8357142857142857,0.8928571428571429,0.8785714285714286,0.9071428571428571,0.95,0.8642857142857143,0.9357142857142857,0.8714285714285714,0.8571428571428571,0.7928571428571428,0.8428571428571429,0.8642857142857143,0.7928571428571428,0.8928571428571429,0.8142857142857143,0.8,0.9785714285714285,0.75,0.85,0.9571428571428572,0.9357142857142857,0.9571428571428572,0.8928571428571429,0.8,0.9642857142857143,0.8571428571428571,0.9428571428571428,0.8285714285714286,0.8785714285714286,0.9642857142857143,0.9071428571428571,0.9571428571428572,0.9714285714285714,0.995,0.9357142857142857,0.9214285714285714,0.9714285714285714,0.6714285714285714,0.8928571428571429,0.95,0.9928571428571429,0.8357142857142857,0.7571428571428571,0.9071428571428571,0.9785714285714285,0.9285714285714286,0.9142857142857143,0.9642857142857143,0.9,0.9714285714285714,0.9214285714285714,0.9142857142857143,0.9071428571428571,0.9571428571428572,0.8,0.9357142857142857,0.9,0.9928571428571429,0.8714285714285714,0.9571428571428572,0.8142857142857143,0.9285714285714286,0.8785714285714286,0.8071428571428572,0.9,0.8785714285714286,0.8642857142857143,0.9071428571428571,0.8,0.9214285714285714,0.8857142857142857,0.8928571428571429,0.8571428571428571,0.8642857142857143,0.9642857142857143,0.9428571428571428,0.9285714285714286,0.9357142857142857,0.8642857142857143,0.95,0.8071428571428572,0.7642857142857142,0.9357142857142857,0.9071428571428571,0.9214285714285714,0.995,0.9428571428571428,0.9857142857142858,0.9928571428571429,0.95,0.9571428571428572,0.9214285714285714,0.9285714285714286,0.7357142857142858,0.9285714285714286,0.9357142857142857,0.7642857142857142,0.9785714285714285,0.9642857142857143,0.8571428571428571,0.9428571428571428,0.8571428571428571,0.9857142857142858,0.95,0.9,0.95,0.8357142857142857,0.9428571428571428,0.9285714285714286,0.9071428571428571,0.9357142857142857,0.9,0.85,0.9357142857142857,0.8928571428571429,0.9285714285714286,0.9214285714285714,0.9428571428571428,0.8214285714285714,0.8857142857142857,0.9642857142857143,0.9785714285714285,0.8642857142857143,0.9857142857142858,0.9785714285714285,0.8285714285714286,0.8928571428571429,0.9357142857142857,0.9214285714285714,0.9142857142857143,0.9785714285714285,0.95,0.9071428571428571,0.9642857142857143,0.85,0.9714285714285714,0.9,0.9,0.95,0.9642857142857143,0.995,0.9571428571428572,0.9071428571428571,0.8857142857142857,0.8785714285714286,0.9571428571428572,0.8928571428571429,0.8642857142857143,0.9428571428571428,0.9142857142857143,0.9642857142857143,0.9571428571428572,0.9071428571428571,0.8928571428571429,0.8928571428571429,0.9857142857142858,0.9642857142857143,0.995,0.95,0.9928571428571429,0.9928571428571429,0.9357142857142857,0.8928571428571429,0.8142857142857143,0.9928571428571429,0.9857142857142858,0.9,0.8785714285714286,0.95,0.7071428571428572,0.9428571428571428,0.8857142857142857,0.9285714285714286,0.8714285714285714,0.7928571428571428,194,-1,7,6.171428571428572
0.9,0.85,0.7357142857142858,0.9857142857142858,0.9642857142857143,0.9714285714285714,0.9357142857142857,0.9928571428571429,0.9857142857142858,0.9285714285714286,0.95,0.8214285714285714,0.9285714285714286,0.9785714285714285,0.9785714285714285,0.8642857142857143,0.8785714285714286,0.9571428571428572,0.9142857142857143,0.9571428571428572,0.8857142857142857,0.9642857142857143,0.9928571428571429,0.95,0.8214285714285714,0.8928571428571429,0.9214285714285714,0.8642857142857143,0.9357142857142857,0.9714285714285714,0.9071428571428571,0.9071428571428571,0.8642857142857143,0.9357142857142857,0.8857142857142857,0.85,0.8928571428571429,0.8428571428571429,0.9357142857142857,0.8428571428571429,0.8071428571428572,0.9714285714285714,0.8357142857142857,0.8571428571428571,0.9785714285714285,0.9785714285714285,0.9571428571428572,0.9,0.8428571428571429,0.9642857142857143,0.8785714285714286,0.9428571428571428,0.85,0.9,0.9642857142857143,0.9,0.9571428571428572,0.9571428571428572,0.995,0.9642857142857143,0.9285714285714286,0.9642857142857143,0.6857142857142857,0.9071428571428571,0.9642857142857143,0.9928571428571429,0.8428571428571429,0.8428571428571429,0.95,0.9714285714285714,0.9142857142857143,0.9571428571428572,0.9642857142857143,0.9142857142857143,0.9785714285714285,0.95,0.8857142857142857,0.9285714285714286,0.9714285714285714,0.8714285714285714,0.9571428571428572,0.9,0.9928571428571429,0.9071428571428571,0.9357142857142857,0.8357142857142857,0.9642857142857143,0.9214285714285714,0.8785714285714286,0.9142857142857143,0.9142857142857143,0.9142857142857143,0.9214285714285714,0.85,0.9142857142857143,0.9,0.8642857142857143,0.8785714285714286,0.9214285714285714,0.9428571428571428,0.9642857142857143,0.9571428571428572,0.95,0.8857142857142857,0.9642857142857143,0.8357142857142857,0.8285714285714286,0.9642857142857143,0.9571428571428572,0.9642857142857143,0.995,0.95,0.9714285714285714,0.9928571428571429,0.95,0.95,0.9214285714285714,0.9428571428571428,0.8214285714285714,0.9642857142857143,0.9357142857142857,0.8357142857142857,0.9928571428571429,0.9928571428571429,0.8785714285714286,0.9357142857142857,0.8714285714285714,0.9857142857142858,0.9571428571428572,0.9428571428571428,0.9714285714285714,0.8928571428571429,0.9285714285714286,0.9714285714285714,0.9714285714285714,0.9357142857142857,0.9214285714285714,0.9,0.9071428571428571,0.9642857142857143,0.9714285714285714,0.9428571428571428,0.95,0.9071428571428571,0.9428571428571428,0.9642857142857143,0.995,0.8857142857142857,0.9714285714285714,0.9928571428571429,0.8285714285714286,0.9357142857142857,0.9357142857142857,0.9428571428571428,0.95,0.9785714285714285,0.9785714285714285,0.9,0.9642857142857143,0.9,0.9714285714285714,0.9357142857142857,0.8857142857142857,0.95,0.9428571428571428,0.995,0.9642857142857143,0.9071428571428571,0.9,0.9142857142857143,0.9785714285714285,0.9,0.9071428571428571,0.95,0.9071428571428571,0.9642857142857143,0.95,0.9,0.9214285714285714,0.9357142857142857,0.9928571428571429,0.9785714285714285,0.9928571428571429,0.95,0.9928571428571429,0.9785714285714285,0.9285714285714286,0.9071428571428571,0.8142857142857143,0.995,0.9928571428571429,0.9428571428571428,0.9071428571428571,0.9857142857142858,0.8357142857142857,0.9714285714285714,0.9142857142857143,0.9428571428571428,0.8857142857142857,0.7928571428571428,194,-1,8,7.335714285714286
