50 1	2150 
50 2	2150 
50 4	2200 
50 5	2000 
50 6	2250 
50 7	2350 
50 8	2300 
50 9	2250 
50 10	2250 
50 11	2150 
50 12	2350 
50 13	2400 
50 14	1950 
50 15	2450 
50 16	2350 
50 17	2200 
50 18	2200 
50 19	2100 
50 20	2250 
50 21	2300 
50 22	2050 
50 23	2350 
50 24	2100 
50 25	2300 
50 26	2300 
50 27	1850 
50 28	2250 
50 29	2350 
50 30	2250 
50 31	2300 
50 32	2250 
50 33	1900 
50 34	2450 
50 35	2400 
50 36	2300 
50 37	2350 
50 38	2100 
50 39	2500 
50 40	2250 
50 41	2150 
50 42	2200 
50 43	1600 
50 44	2250 
50 45	2000 
50 46	2000 
50 47	2300 
50 48	2300 
50 49	2200 
50 50	2400 
50 51	2250 
50 52	2300 
50 53	2300 
50 54	2450 
50 55	2500 
50 56	2050 
50 57	2450 
50 58	2400 
50 59	1900 
50 60	2250 
50 61	2200 
50 62	2000 
50 63	2050 
50 64	2350 
50 65	2250 
50 66	2350 
50 67	2300 
50 68	2500 
50 69	2250 
50 70	2350 
50 71	2350 
50 72	2050 
50 73	2500 
50 74	2550 
50 75	2200 
50 76	2150 
50 77	1950 
50 78	2300 
50 79	2450 
50 80	2200 
50 81	2200 
50 82	2000 
50 83	2050 
50 84	2200 
50 85	2350 
50 86	2400 
50 87	2100 
50 88	2350 
50 89	2300 
50 90	2300 
50 91	2100 
50 92	2300 
50 93	2000 
50 94	2350 
50 95	2300 
50 96	2200 
50 97	2150 
50 98	2250 
50 99	2450 
50 100	2100 
50 3	2300 
100 2	6600 
100 1	7100 
100 4	6900 
100 5	6700 
100 6	6600 
100 3	6600 
100 8	6500 
100 7	7200 
100 10	6600 
100 11	6300 
100 12	7000 
100 13	6600 
100 9	6700 
100 14	7000 
100 15	6500 
100 17	6600 
100 18	6900 
100 19	6500 
100 20	6200 
100 21	6900 
100 22	6100 
100 16	6700 
100 23	7000 
100 24	6600 
100 26	6700 
100 27	6300 
100 28	6800 
100 29	6200 
100 30	7000 
100 31	6200 
100 32	6000 
100 33	6700 
100 34	6900 
100 35	6500 
100 36	6400 
100 37	7100 
100 38	6800 
100 39	6100 
100 40	6000 
100 41	6100 
100 25	6900 
100 42	6200 
100 43	6600 
100 44	7000 
100 45	7000 
100 46	6900 
100 48	6800 
100 49	6300 
100 47	6100 
100 50	6600 
100 51	6400 
100 53	6700 
100 54	6000 
100 55	6600 
100 56	6600 
100 57	6600 
100 58	6900 
100 59	6800 
100 60	6800 
100 61	6800 
100 62	6900 
100 52	6800 
100 63	6800 
100 64	6700 
100 66	6400 
100 67	7000 
100 65	6400 
100 68	6600 
100 69	6400 
100 71	7000 
100 72	6700 
100 70	6600 
100 73	6700 
100 74	6700 
100 76	6300 
100 77	6800 
100 78	6500 
100 79	6700 
100 80	6200 
100 81	6300 
100 82	6400 
100 83	6800 
100 84	6600 
100 85	6700 
100 86	6800 
100 87	6700 
100 75	6700 
100 88	6700 
100 89	6400 
100 91	6300 
100 92	7000 
100 90	6200 
100 93	6500 
100 94	6200 
100 95	6800 
100 96	7200 
100 97	6700 
100 99	6800 
100 100	6600 
100 98	6400 
150 1	12300 
150 2	12300 
150 3	11550 
150 4	11850 
150 5	12450 
150 6	12300 
150 7	13200 
150 8	11250 
150 9	12600 
150 10	12000 
150 11	12000 
150 12	12900 
150 13	12450 
150 14	13050 
150 15	12450 
150 16	12750 
150 17	10800 
150 18	12150 
150 19	10950 
150 20	12000 
150 21	12150 
150 22	11700 
150 23	12300 
150 24	12000 
150 25	12300 
150 26	11400 
150 27	12300 
150 28	12150 
150 29	12150 
150 30	12900 
150 31	12000 
150 32	11850 
150 33	12600 
150 34	12150 
150 35	12750 
150 36	12300 
150 37	11550 
150 38	12300 
150 39	12450 
150 40	13200 
150 41	12300 
150 42	11700 
150 43	12450 
150 44	12150 
150 45	12150 
150 46	12300 
150 47	12750 
150 48	12900 
150 49	12150 
150 50	12450 
150 51	12450 
150 52	12300 
150 53	12150 
150 54	12150 
150 55	12150 
150 56	11400 
150 57	12150 
150 58	12600 
150 59	12750 
150 60	13050 
150 61	11700 
150 62	11700 
150 63	12300 
150 64	12300 
150 65	12750 
150 66	12600 
150 67	12000 
150 68	12450 
150 69	12000 
150 70	12000 
150 71	12000 
150 72	11700 
150 73	12600 
150 74	12300 
150 75	12450 
150 76	12450 
150 77	12000 
150 78	11850 
150 79	12450 
150 80	12150 
150 81	11550 
150 82	11550 
150 83	12300 
150 84	12450 
150 85	12000 
150 86	12000 
150 87	11550 
150 88	11700 
150 89	12450 
150 90	12000 
150 91	11100 
150 92	12300 
150 93	12450 
150 94	12600 
150 95	11700 
150 96	12150 
150 97	12600 
150 98	12000 
150 99	12450 
150 100	12300 
200 1	19200 
200 2	19200 
200 3	19200 
200 4	17200 
200 5	19200 
200 6	18400 
200 7	19400 
200 8	18800 
200 9	19000 
200 10	18600 
200 11	18200 
200 12	19800 
200 13	19200 
200 14	17800 
200 15	18200 
200 16	18400 
200 17	18600 
200 18	19000 
200 19	19600 
200 20	19600 
200 21	19200 
200 22	18800 
200 23	18800 
200 24	19000 
200 25	19400 
200 26	19800 
200 27	19400 
200 28	18600 
200 29	19400 
200 30	19800 
200 31	19600 
200 32	19600 
200 33	18200 
200 34	19600 
200 35	19200 
200 36	18800 
200 37	18800 
200 38	18800 
200 39	19000 
200 40	19600 
200 41	19000 
200 42	19600 
200 43	18400 
200 44	19200 
200 45	19400 
200 46	18600 
200 47	19600 
200 48	17600 
200 49	19400 
200 50	18200 
200 51	18800 
200 52	19600 
200 53	19000 
200 54	18800 
200 55	19600 
200 56	17800 
200 57	18800 
200 58	19200 
200 59	19000 
200 60	19000 
200 61	19000 
200 62	18800 
200 63	19400 
200 64	19200 
200 65	17800 
200 66	18200 
200 67	19400 
200 68	19200 
200 69	19000 
200 70	18600 
200 71	19200 
200 72	18800 
200 73	18800 
200 74	19200 
200 75	19200 
200 76	18200 
200 77	18800 
200 78	19600 
200 79	18000 
200 80	19200 
200 81	18200 
200 82	19200 
200 83	18000 
200 84	19400 
200 85	19200 
200 86	19400 
200 87	19400 
200 88	19400 
200 89	18200 
200 90	19800 
200 91	18400 
200 92	19000 
200 93	19200 
200 94	18400 
200 95	18000 
200 96	20000 
200 97	18600 
200 98	19200 
200 99	18600 
200 100	19600 
250 1	25000 
250 2	27000 
250 3	27250 
250 4	26250 
250 5	26250 
250 6	26500 
250 7	26000 
250 8	26500 
250 9	25750 
250 10	26750 
250 11	26000 
250 12	27250 
250 13	26000 
250 14	26250 
250 15	26250 
250 16	26000 
250 17	26750 
250 18	26500 
250 19	25500 
250 20	26250 
250 21	24750 
250 22	26250 
250 23	25500 
250 24	27250 
250 25	26000 
250 26	26500 
250 27	26250 
250 28	26500 
250 29	26500 
250 30	26500 
250 31	26750 
250 32	26000 
250 33	26750 
250 34	26000 
250 35	26500 
250 36	27000 
250 37	27250 
250 38	25500 
250 39	26250 
250 40	26250 
250 41	26250 
250 42	25750 
250 43	26500 
250 44	26250 
250 45	26250 
250 46	26500 
250 47	26250 
250 48	25500 
250 49	26000 
250 50	24750 
250 51	26750 
250 52	24750 
250 53	26250 
250 54	25750 
250 55	25000 
250 56	24750 
250 57	26000 
250 58	27250 
250 59	26750 
250 60	26500 
250 61	26500 
250 62	25500 
250 63	27000 
250 64	25750 
250 65	26750 
250 66	26750 
250 67	26250 
250 68	26000 
250 69	26000 
250 70	26000 
250 71	25500 
250 72	26500 
250 73	25000 
250 74	26750 
250 75	25750 
250 76	27000 
250 77	26750 
250 78	26750 
250 79	23750 
250 80	25750 
250 81	25500 
250 82	27250 
250 83	26250 
250 84	26000 
250 85	26500 
250 86	27250 
250 87	26000 
250 88	26250 
250 89	26250 
250 90	26000 
250 91	25750 
250 92	27000 
250 93	27500 
250 94	27000 
250 95	26000 
250 96	25750 
250 97	26250 
250 98	26500 
250 99	26500 
250 100	24500 
300 1	34200 
300 2	35100 
300 3	34800 
300 4	35100 
300 5	35400 
300 6	34800 
300 7	33300 
300 8	33900 
300 9	33900 
300 10	34200 
300 11	35100 
300 12	35100 
300 13	35700 
300 14	34500 
300 15	33300 
300 16	34800 
300 17	34800 
300 18	34200 
300 19	33900 
300 20	33300 
300 21	33000 
300 22	34800 
300 23	34800 
300 24	33000 
300 25	34500 
300 26	35400 
300 27	34200 
300 28	35700 
300 29	35400 
300 30	35700 
300 31	34800 
300 32	35400 
300 33	34500 
300 34	34200 
300 35	33900 
300 36	34800 
300 37	33900 
300 38	34200 
300 39	34500 
300 40	33900 
300 41	33000 
300 42	33300 
300 43	34800 
300 44	33900 
300 45	34800 
300 46	35100 
300 47	33900 
300 48	34200 
300 49	34800 
300 50	33900 
300 51	34200 
300 52	36000 
300 53	34200 
300 54	34500 
300 55	34200 
300 56	33900 
300 57	34500 
300 58	34800 
300 59	34200 
300 60	34800 
300 61	33600 
300 62	33900 
300 63	33300 
300 64	32400 
300 65	36000 
300 66	35100 
300 67	35700 
300 68	34500 
300 69	35100 
300 70	34800 
300 71	33900 
300 72	35400 
300 73	34500 
300 74	35700 
300 75	33600 
300 76	33300 
300 77	35100 
300 78	34200 
300 79	34500 
300 80	33000 
300 81	33900 
300 82	35400 
300 83	32400 
300 84	34500 
300 85	35400 
300 86	35400 
300 87	34200 
300 88	34800 
300 89	33000 
300 90	34200 
300 91	35100 
300 92	35400 
300 93	34500 
300 94	34800 
300 95	34800 
300 96	33900 
300 97	34200 
300 98	34500 
300 99	34500 
300 100	34200 
350 1	44800 
350 2	43750 
350 3	43400 
350 4	43050 
350 5	43750 
350 6	41650 
350 7	43750 
350 8	44100 
350 9	43050 
350 10	42700 
350 11	43400 
350 12	43750 
350 13	43750 
350 14	43400 
350 15	43750 
350 16	44450 
350 17	42000 
350 18	44100 
350 19	44100 
350 20	43400 
350 21	42700 
350 22	43050 
350 23	42700 
350 24	44100 
350 25	40250 
350 26	44100 
350 27	42700 
350 28	44100 
350 29	44100 
350 30	40600 
350 31	43750 
350 32	43050 
350 33	43750 
350 34	41650 
350 35	43400 
350 36	42700 
350 37	42700 
350 38	44100 
350 39	44100 
350 40	43750 
350 41	43050 
350 42	43050 
350 43	43050 
350 44	42700 
350 45	41650 
350 46	43400 
350 47	43750 
350 48	44100 
350 49	43400 
350 50	42700 
350 51	44800 
350 52	43750 
350 53	43750 
350 54	43400 
350 55	42700 
350 56	42700 
350 57	43400 
350 58	44100 
350 59	42000 
350 60	40600 
350 61	42700 
350 62	43050 
350 63	42700 
350 64	43050 
350 65	41650 
350 66	43050 
350 67	41300 
350 68	43050 
350 69	43050 
350 70	44100 
350 71	43750 
350 72	42000 
350 73	43050 
350 74	44100 
350 75	43750 
350 76	42000 
350 77	44100 
350 78	43750 
350 79	43750 
350 80	43750 
350 81	42350 
350 82	43400 
350 83	43400 
350 84	44450 
350 85	42350 
350 86	42700 
350 87	42700 
350 88	42350 
350 89	43750 
350 90	43050 
350 91	43750 
350 92	43400 
350 93	43400 
350 94	43400 
350 95	42000 
350 96	43050 
350 97	43400 
350 98	44100 
350 99	44100 
350 100	43050 
400 1	52400 
400 2	53600 
400 3	54800 
400 4	54000 
400 5	53200 
400 6	49600 
400 7	53600 
400 8	52800 
400 9	53600 
400 10	53200 
400 11	52400 
400 12	52800 
400 13	53200 
400 14	52400 
400 15	54000 
400 16	52400 
400 17	54000 
400 18	53600 
400 19	53600 
400 20	53200 
400 21	53200 
400 22	52000 
400 23	53600 
400 24	53200 
400 25	53600 
400 26	51600 
400 27	53200 
400 28	54400 
400 29	53200 
400 30	53200 
400 31	53200 
400 32	54400 
400 33	53600 
400 34	53600 
400 35	52000 
400 36	53600 
400 37	54800 
400 38	53200 
400 39	55200 
400 40	53200 
400 41	54000 
400 42	52000 
400 43	53200 
400 44	52800 
400 45	52400 
400 46	53200 
400 47	54000 
400 48	53600 
400 49	53200 
400 50	52000 
400 51	52800 
400 52	52000 
400 53	54000 
400 54	53200 
400 55	54400 
400 56	53600 
400 57	52000 
400 58	54400 
400 59	52400 
400 60	52400 
400 61	52800 
400 62	52800 
400 63	53200 
400 64	53600 
400 65	52800 
400 66	52800 
400 67	53600 
400 68	53200 
400 69	53600 
400 70	52800 
400 71	52000 
400 72	53600 
400 73	51600 
400 74	52800 
400 75	53200 
400 76	50400 
400 77	54000 
400 78	52800 
400 79	51600 
400 80	53600 
400 81	54400 
400 82	52400 
400 83	53600 
400 84	53200 
400 85	52800 
400 86	54800 
400 87	54000 
400 88	53200 
400 89	53600 
400 90	51600 
400 91	54000 
400 92	52800 
400 93	53600 
400 94	54400 
400 95	53200 
400 96	52800 
400 97	54000 
400 98	52800 
400 99	52400 
400 100	54400 
450 1	63900 
450 2	62550 
450 3	63900 
450 4	64350 
450 5	62550 
450 6	64350 
450 7	63450 
450 8	61650 
450 9	63900 
450 10	63900 
450 11	63450 
450 12	62550 
450 13	63900 
450 14	63900 
450 15	64350 
450 16	64350 
450 17	60750 
450 18	63450 
450 19	63000 
450 20	63900 
450 21	63900 
450 22	63000 
450 23	63900 
450 24	63900 
450 25	63450 
450 26	63900 
450 27	59400 
450 28	63000 
450 29	63000 
450 30	62550 
450 31	59850 
450 32	62550 
450 33	63900 
450 34	63450 
450 35	62100 
450 36	63000 
450 37	63900 
450 38	64350 
450 39	62550 
450 40	63450 
450 41	63450 
450 42	63000 
450 43	64800 
450 44	63900 
450 45	63450 
450 46	63000 
450 47	63450 
450 48	63000 
450 49	64800 
450 50	61200 
450 51	62100 
450 52	64350 
450 53	63000 
450 54	62550 
450 55	64350 
450 56	63450 
450 57	63450 
450 58	63450 
450 59	62550 
450 60	62550 
450 61	63450 
450 62	63450 
450 63	62550 
450 64	63000 
450 65	64350 
450 66	63000 
450 67	63900 
450 68	63450 
450 69	63000 
450 70	62100 
450 71	62550 
450 72	61200 
450 73	59850 
450 74	62100 
450 75	63450 
450 76	62550 
450 77	64350 
450 78	63000 
450 79	63000 
450 80	63900 
450 81	64350 
450 82	63000 
450 83	63000 
450 84	62550 
450 85	63900 
450 86	62100 
450 87	60300 
450 88	63000 
450 89	64350 
450 90	63000 
450 91	62100 
450 92	63450 
450 93	63450 
450 94	63000 
450 95	64350 
450 96	63900 
450 98	63450 
450 97	64800 
450 99	61650 
450 100	62100 
500 1	73500 
500 2	74500 
500 3	72000 
500 4	75000 
500 5	72500 
500 6	74000 
500 7	73500 
500 8	73000 
500 9	72500 
500 10	73500 
500 11	75500 
500 12	74000 
500 13	71000 
500 14	74500 
500 15	72000 
500 16	74000 
500 17	74000 
500 18	73500 
500 19	74000 
500 20	72000 
500 21	72000 
500 22	74000 
500 23	73500 
500 24	73000 
500 25	74500 
500 26	74000 
500 27	74500 
500 28	73000 
500 29	73000 
500 30	72000 
500 31	74000 
500 32	74500 
500 33	72000 
500 34	74000 
500 35	75000 
500 36	75500 
500 37	74500 
500 38	73000 
500 39	72500 
500 40	73500 
500 41	73500 
500 42	74500 
500 43	73000 
500 44	73000 
500 45	74000 
500 46	74500 
500 47	74000 
500 48	75000 
500 49	74500 
500 50	72000 
500 51	74000 
500 52	74500 
500 54	73000 
500 53	73500 
500 55	73000 
500 56	74000 
500 57	74500 
500 58	74000 
500 59	72500 
500 60	74000 
500 61	74000 
500 62	75000 
500 63	74000 
500 64	72000 
500 65	72500 
500 66	72500 
500 67	76000 
500 68	70000 
500 69	73500 
500 70	72500 
500 71	72500 
500 72	74000 
500 73	73000 
500 74	74000 
500 75	74000 
500 76	71000 
500 77	75500 
500 78	75000 
500 79	73500 
500 80	74000 
500 81	73000 
500 82	74000 
500 83	74500 
500 84	72500 
500 85	74000 
500 86	73000 
500 87	72000 
500 88	73000 
500 89	74500 
500 90	71500 
500 91	74500 
500 92	72500 
500 93	74500 
500 94	72500 
500 95	74000 
500 96	73500 
500 97	75500 
500 98	74000 
500 99	71000 
500 100	72000 
550 1	83050 
550 2	84700 
550 3	84150 
550 4	84700 
550 5	82500 
550 6	84150 
550 7	84700 
550 8	86350 
550 9	85800 
550 10	83600 
550 11	85800 
550 12	85800 
550 13	84700 
550 14	84700 
550 15	84700 
550 16	81950 
550 17	83050 
550 18	84700 
550 19	85250 
550 20	85250 
550 21	85800 
550 22	84700 
550 23	83050 
550 24	82500 
550 25	85800 
550 26	84700 
550 27	86350 
550 28	84150 
550 29	84150 
550 30	83600 
550 31	84700 
550 32	84700 
550 33	85250 
550 34	84700 
550 35	83050 
550 36	85250 
550 37	84700 
550 38	85800 
550 39	85800 
550 40	83600 
550 41	85800 
550 42	84700 
550 43	84150 
550 44	84150 
550 46	83600 
550 45	85250 
550 47	84700 
550 48	85800 
550 50	81400 
550 49	84150 
550 51	84150 
550 52	85250 
550 53	83600 
550 54	84150 
550 55	86350 
550 56	85800 
550 57	84150 
550 58	85250 
550 59	84150 
550 60	84700 
550 61	86350 
550 62	85250 
550 63	86350 
550 64	83050 
550 65	84150 
550 66	85250 
550 67	86350 
550 68	84150 
550 69	83050 
550 71	81950 
550 70	85800 
550 72	81950 
550 73	84700 
550 75	80850 
550 74	85800 
550 76	83600 
550 77	84700 
550 78	84700 
550 79	84700 
550 80	83600 
550 81	83600 
550 82	85250 
550 83	83600 
550 84	85250 
550 85	84700 
550 86	83600 
550 87	84700 
550 88	86900 
550 89	84700 
550 91	80850 
550 90	86350 
550 92	83600 
550 93	84700 
550 94	82500 
550 95	85250 
550 96	85250 
550 97	83600 
550 98	83600 
550 99	85800 
550 100	85250 
600 2	94200 
600 1	96600 
600 3	95400 
600 4	96000 
600 5	96000 
600 6	98400 
600 7	96000 
600 8	93600 
600 9	96000 
600 10	93600 
600 11	96600 
600 12	97200 
600 13	94200 
600 14	96600 
600 15	96600 
600 16	97200 
600 17	96600 
600 18	96600 
600 19	96000 
600 20	96000 
600 21	97800 
600 22	98400 
600 23	96000 
600 24	95400 
600 25	95400 
600 26	95400 
600 27	95400 
600 28	96000 
600 29	93600 
600 30	94200 
600 31	96600 
600 32	93000 
600 33	97800 
600 34	91800 
600 35	97800 
600 36	95400 
600 37	95400 
600 38	97800 
600 39	96600 
600 40	97200 
600 41	94200 
600 42	96600 
600 43	96600 
600 44	95400 
600 45	96000 
600 46	96600 
600 47	96600 
600 48	96600 
600 49	94800 
600 50	96600 
600 51	92400 
600 52	97200 
600 53	96600 
600 54	96600 
600 55	96600 
600 56	95400 
600 57	97200 
600 58	91800 
600 59	97800 
600 60	99600 
600 61	94200 
600 62	97200 
600 63	96000 
600 64	96600 
600 65	96600 
600 66	96000 
600 67	94800 
600 68	94800 
600 69	96600 
600 70	96000 
600 71	95400 
600 72	96600 
600 73	95400 
600 74	96000 
600 75	97800 
600 76	94800 
600 77	94200 
600 78	96000 
600 79	95400 
600 80	94800 
600 81	94800 
600 82	94800 
600 83	94800 
600 84	94200 
600 85	96600 
600 86	94200 
600 87	94800 
600 88	96000 
600 89	94200 
600 90	94800 
600 91	98400 
600 92	97800 
600 93	93600 
600 94	96600 
600 95	94800 
600 96	97800 
600 97	95400 
600 98	97200 
600 99	95400 
600 100	95400 
650 1	108550 
650 2	108550 
650 3	109200 
650 4	109200 
650 5	105950 
650 6	107900 
650 7	108550 
650 8	109200 
650 9	109200 
650 10	107900 
650 11	111800 
650 12	108550 
650 13	109850 
650 14	107250 
650 15	109200 
650 16	109200 
650 17	109200 
650 18	108550 
650 19	107900 
650 20	107250 
650 21	109200 
650 22	107900 
650 23	109200 
650 24	106600 
650 25	108550 
650 26	108550 
650 27	107900 
650 28	107250 
650 29	107250 
650 30	107900 
650 31	107250 
650 32	107250 
650 33	105950 
650 34	106600 
650 35	107250 
650 36	109850 
650 37	104650 
650 38	109200 
650 39	106600 
650 40	111150 
650 41	107900 
650 42	107250 
650 43	105950 
650 44	108550 
650 45	107250 
650 46	107900 
650 47	108550 
650 48	110500 
650 49	106600 
650 50	109850 
650 51	109200 
650 52	104650 
650 53	108550 
650 54	110500 
650 55	106600 
650 56	107900 
650 57	107900 
650 58	108550 
650 59	107900 
650 60	105300 
650 61	108550 
650 62	109850 
650 63	108550 
650 64	107900 
650 65	107900 
650 66	108550 
650 67	109200 
650 68	106600 
650 69	108550 
650 70	107250 
650 71	108550 
650 72	108550 
650 73	109200 
650 74	109200 
650 75	107250 
650 76	109200 
650 77	108550 
650 78	109850 
650 79	106600 
650 80	104650 
650 81	103350 
650 82	105950 
650 83	108550 
650 84	109200 
650 85	107900 
650 86	102050 
650 87	108550 
650 88	109850 
650 89	109200 
650 90	104000 
650 91	109200 
650 92	108550 
650 93	109850 
650 94	109850 
650 95	109850 
650 96	105300 
650 97	107900 
650 98	108550 
650 99	109200 
650 100	108550 
700 1	119700 
700 2	121100 
700 3	119000 
700 4	119700 
700 5	121800 
700 6	122500 
700 7	121100 
700 8	121800 
700 9	119700 
700 10	118300 
700 11	121800 
700 12	122500 
700 13	119000 
700 14	121800 
700 15	119700 
700 16	122500 
700 17	121800 
700 18	121800 
700 19	119700 
700 20	119700 
700 21	122500 
700 22	120400 
700 23	120400 
700 24	121100 
700 25	122500 
700 27	116900 
700 26	122500 
700 28	119700 
700 29	119700 
700 31	119700 
700 30	121100 
700 32	118300 
700 33	119700 
700 34	118300 
700 35	120400 
700 36	121800 
700 38	119000 
700 37	121100 
700 39	119000 
700 40	119000 
700 42	115500 
700 41	120400 
700 43	120400 
700 44	120400 
700 45	123200 
700 46	121100 
700 47	120400 
700 48	120400 
700 50	121100 
700 49	121800 
700 51	121800 
700 52	121100 
700 53	116200 
700 54	123200 
700 55	121800 
700 56	116900 
700 57	120400 
700 58	116900 
700 59	120400 
700 60	120400 
700 61	121100 
700 62	121800 
700 63	122500 
700 64	121100 
700 65	119700 
700 66	120400 
700 67	121800 
700 68	120400 
700 69	119700 
700 70	120400 
700 71	121800 
700 72	121100 
700 73	119700 
700 74	119700 
700 75	119700 
700 76	119000 
700 77	120400 
700 78	121800 
700 79	117600 
700 80	117600 
700 81	119700 
700 82	120400 
700 83	117600 
700 84	121800 
700 85	119000 
700 86	120400 
700 87	119000 
700 88	121100 
700 89	119000 
700 90	118300 
700 91	121100 
700 92	121800 
700 93	119700 
700 94	119700 
700 95	117600 
700 96	121100 
700 97	120400 
700 98	120400 
700 99	119700 
700 100	120400 
750 1	133500 
750 2	133500 
750 3	135750 
750 4	130500 
750 5	133500 
750 6	131250 
750 7	129000 
750 8	134250 
750 9	133500 
750 10	132750 
750 11	132750 
750 12	134250 
750 13	131250 
750 14	129750 
750 15	132000 
750 16	135000 
750 17	132750 
750 18	133500 
750 19	135000 
750 20	134250 
750 21	133500 
750 22	135750 
750 23	132750 
750 24	132000 
750 25	131250 
750 26	132750 
750 27	133500 
750 28	132000 
750 30	131250 
750 29	135750 
750 31	133500 
750 32	135750 
750 33	133500 
750 34	134250 
750 35	132000 
750 36	133500 
750 37	132000 
750 38	135000 
750 39	132000 
750 40	134250 
750 42	130500 
750 41	132750 
750 43	131250 
750 44	133500 
750 45	134250 
750 46	135750 
750 47	135000 
750 48	134250 
750 49	134250 
750 50	133500 
750 51	132750 
750 52	130500 
750 53	133500 
750 54	134250 
750 55	133500 
750 56	130500 
750 57	133500 
750 59	132750 
750 58	136500 
750 60	135000 
750 61	132750 
750 63	132750 
750 62	135750 
750 64	132000 
750 65	130500 
750 66	133500 
750 67	134250 
750 68	132000 
750 69	132750 
750 70	132000 
750 71	131250 
750 72	133500 
750 73	135000 
750 74	131250 
750 75	125250 
750 76	135000 
750 77	134250 
750 78	132750 
750 79	134250 
750 80	134250 
750 82	130500 
750 81	135000 
750 83	132000 
750 84	127500 
750 85	129000 
750 86	134250 
750 87	135750 
750 88	134250 
750 89	132000 
750 90	132750 
750 91	134250 
750 92	126750 
750 93	134250 
750 94	129000 
750 95	132750 
750 96	133500 
750 97	131250 
750 98	133500 
750 99	136500 
750 100	134250 
800 1	148000 
800 2	148800 
800 3	144800 
800 4	148000 
800 5	148000 
800 6	147200 
800 7	148800 
800 8	146400 
800 9	148000 
800 10	148000 
800 11	146400 
800 12	148000 
800 14	144800 
800 13	148000 
800 15	148800 
800 16	147200 
800 17	146400 
800 18	148000 
800 19	149600 
800 20	146400 
800 21	144000 
800 22	148800 
800 23	144800 
800 24	144800 
800 25	148800 
800 26	148000 
800 27	148000 
800 28	142400 
800 29	148000 
800 30	148000 
800 31	147200 
800 32	144800 
800 33	147200 
800 34	146400 
800 35	144800 
800 36	144800 
800 37	148000 
800 38	148800 
800 39	143200 
800 40	145600 
800 41	148800 
800 42	148800 
800 43	145600 
800 44	148000 
800 45	147200 
800 46	145600 
800 47	146400 
800 48	148800 
800 49	146400 
800 50	147200 
800 51	148000 
800 52	147200 
800 53	147200 
800 54	148000 
800 55	146400 
800 56	147200 
800 57	143200 
800 59	146400 
800 58	147200 
800 60	148000 
800 61	147200 
800 63	146400 
800 62	149600 
800 64	144800 
800 65	147200 
800 66	147200 
800 67	148800 
800 68	144000 
800 69	143200 
800 70	148000 
800 71	146400 
800 72	148800 
800 73	147200 
800 74	146400 
800 75	147200 
800 76	148800 
800 77	145600 
800 78	144800 
800 79	144000 
800 80	145600 
800 81	146400 
800 82	147200 
800 83	146400 
800 84	145600 
800 85	144000 
800 86	147200 
800 87	148000 
800 88	146400 
800 89	148800 
800 90	146400 
800 91	148000 
800 92	148000 
800 93	146400 
800 94	147200 
800 95	147200 
800 96	145600 
800 97	146400 
800 98	147200 
800 99	147200 
800 100	147200 
850 1	159800 
850 2	158100 
850 3	162350 
850 4	158100 
850 5	159800 
850 6	160650 
850 7	161500 
850 8	162350 
850 9	158950 
850 10	160650 
850 11	161500 
850 12	159800 
850 13	158100 
850 14	159800 
850 15	160650 
850 16	160650 
850 17	158950 
850 18	159800 
850 19	160650 
850 20	159800 
850 21	163200 
850 22	159800 
850 23	161500 
850 24	161500 
850 25	158950 
850 26	159800 
850 27	164050 
850 28	161500 
850 29	161500 
850 30	160650 
850 31	158100 
850 32	163200 
850 33	162350 
850 34	158950 
850 35	158100 
850 36	158950 
850 37	160650 
850 38	159800 
850 39	158100 
850 40	160650 
850 41	158950 
850 42	162350 
850 43	156400 
850 44	158100 
850 45	162350 
850 46	159800 
850 47	160650 
850 48	157250 
850 49	162350 
850 50	164050 
850 51	160650 
850 52	159800 
850 53	159800 
850 54	156400 
850 55	161500 
850 56	159800 
850 57	157250 
850 58	161500 
850 59	160650 
850 60	160650 
850 61	160650 
850 62	160650 
850 63	159800 
850 64	160650 
850 65	161500 
850 66	160650 
850 67	161500 
850 68	161500 
850 70	155550 
850 69	160650 
850 71	160650 
850 72	161500 
850 74	160650 
850 73	164050 
850 75	161500 
850 76	159800 
850 78	157250 
850 77	160650 
850 79	158950 
850 80	161500 
850 81	159800 
850 83	157250 
850 82	161500 
850 84	159800 
850 85	161500 
850 86	159800 
850 87	158950 
850 88	158950 
850 89	156400 
850 90	160650 
850 91	164050 
850 92	161500 
850 93	163200 
850 94	158950 
850 95	162350 
850 96	160650 
850 97	160650 
850 98	160650 
850 99	158950 
850 100	155550 
900 1	171900 
900 2	173700 
900 3	175500 
900 4	174600 
900 5	176400 
900 6	175500 
900 7	174600 
900 8	173700 
900 9	175500 
900 10	174600 
900 11	175500 
900 12	174600 
900 13	174600 
900 14	177300 
900 15	170100 
900 16	174600 
900 17	175500 
900 18	171900 
900 19	173700 
900 20	175500 
900 21	172800 
900 22	173700 
900 23	178200 
900 24	177300 
900 25	172800 
900 26	174600 
900 27	174600 
900 28	167400 
900 29	168300 
900 30	175500 
900 31	177300 
900 32	175500 
900 33	172800 
900 34	177300 
900 35	173700 
900 36	174600 
900 37	171900 
900 38	174600 
900 39	174600 
900 40	176400 
900 41	173700 
900 42	173700 
900 43	175500 
900 44	174600 
900 45	176400 
900 46	171900 
900 47	173700 
900 48	174600 
900 49	174600 
900 50	173700 
900 51	175500 
900 52	172800 
900 53	173700 
900 54	173700 
900 55	176400 
900 56	176400 
900 57	174600 
900 58	171900 
900 59	173700 
900 60	175500 
900 61	175500 
900 62	174600 
900 63	175500 
900 64	175500 
900 65	174600 
900 66	175500 
900 67	171900 
900 68	177300 
900 69	177300 
900 70	175500 
900 71	175500 
900 72	174600 
900 73	173700 
900 74	171900 
900 75	173700 
900 76	173700 
900 77	175500 
900 78	175500 
900 79	174600 
900 80	174600 
900 81	173700 
900 82	176400 
900 83	173700 
900 84	173700 
900 85	172800 
900 86	175500 
900 87	173700 
900 88	173700 
900 89	174600 
900 90	171900 
900 91	171000 
900 92	174600 
900 93	175500 
900 94	172800 
900 95	175500 
900 96	176400 
900 97	178200 
900 98	172800 
900 99	173700 
900 100	175500 
950 2	186200 
950 1	188100 
950 3	182400 
950 4	184300 
950 5	190950 
950 6	191900 
950 7	185250 
950 8	189050 
950 9	189050 
950 10	188100 
950 11	188100 
950 12	185250 
950 13	189050 
950 15	187150 
950 14	189050 
950 16	188100 
950 17	187150 
950 18	186200 
950 19	187150 
950 20	187150 
950 21	183350 
950 22	185250 
950 23	190000 
950 24	184300 
950 25	185250 
950 26	190950 
950 27	188100 
950 28	183350 
950 29	189050 
950 30	182400 
950 31	190000 
950 32	186200 
950 34	187150 
950 33	190000 
950 35	189050 
950 36	190000 
950 37	185250 
950 38	186200 
950 39	184300 
950 40	190000 
950 41	183350 
950 42	188100 
950 43	190000 
950 44	189050 
950 45	187150 
950 46	189050 
950 47	190000 
950 48	190000 
950 49	183350 
950 50	187150 
950 51	189050 
950 52	188100 
950 53	188100 
950 54	184300 
950 55	190000 
950 56	188100 
950 57	188100 
950 58	189050 
950 59	185250 
950 60	188100 
950 61	189050 
950 62	190000 
950 63	190950 
950 64	187150 
950 65	185250 
950 66	188100 
950 67	190000 
950 68	188100 
950 69	188100 
950 70	188100 
950 71	187150 
950 72	187150 
950 73	185250 
950 74	188100 
950 75	190000 
950 76	188100 
950 77	183350 
950 78	184300 
950 79	186200 
950 80	190000 
950 81	189050 
950 82	189050 
950 83	185250 
950 84	189050 
950 85	189050 
950 86	186200 
950 87	189050 
950 88	189050 
950 89	186200 
950 90	190950 
950 91	183350 
950 92	186200 
950 93	187150 
950 94	188100 
950 95	190950 
950 96	185250 
950 97	188100 
950 98	190950 
950 99	188100 
950 100	188100 
1000 1	206000 
1000 2	202000 
1000 3	202000 
1000 4	203000 
1000 5	202000 
1000 6	204000 
1000 7	201000 
1000 8	203000 
1000 9	200000 
1000 10	207000 
1000 11	202000 
1000 12	207000 
1000 13	203000 
1000 14	205000 
1000 15	206000 
1000 16	204000 
1000 17	197000 
1000 18	200000 
1000 19	202000 
1000 20	205000 
1000 21	202000 
1000 22	204000 
1000 23	202000 
1000 24	203000 
1000 25	203000 
1000 26	205000 
1000 27	197000 
1000 28	200000 
1000 29	201000 
1000 30	205000 
1000 31	205000 
1000 32	206000 
1000 33	203000 
1000 34	206000 
1000 35	203000 
1000 36	208000 
1000 37	206000 
1000 38	205000 
1000 39	204000 
1000 40	202000 
1000 41	204000 
1000 42	202000 
1000 43	204000 
1000 44	199000 
1000 45	201000 
1000 46	200000 
1000 47	204000 
1000 48	199000 
1000 49	202000 
1000 50	202000 
1000 51	205000 
1000 52	204000 
1000 53	203000 
1000 54	205000 
1000 55	204000 
1000 56	203000 
1000 57	206000 
1000 58	205000 
1000 59	204000 
1000 60	203000 
1000 61	203000 
1000 62	205000 
1000 64	203000 
1000 65	201000 
1000 63	206000 
1000 68	201000 
1000 66	204000 
1000 67	204000 
1000 69	204000 
1000 70	200000 
1000 71	203000 
1000 72	204000 
1000 73	204000 
1000 74	202000 
1000 75	199000 
1000 76	201000 
1000 77	201000 
1000 78	202000 
1000 79	202000 
1000 80	205000 
1000 81	204000 
1000 83	201000 
1000 82	205000 
1000 84	201000 
1000 85	204000 
1000 86	204000 
1000 88	200000 
1000 87	205000 
1000 89	204000 
1000 90	204000 
1000 92	203000 
1000 91	206000 
1000 93	204000 
1000 95	201000 
1000 94	203000 
1000 96	201000 
1000 97	203000 
1000 99	205000 
1000 98	203000 
1000 100	200000 