%!PS-Adobe-3.0 EPSF-3.0
%%DocumentNeededResources: font Helvetica
%%+ font Helvetica-Bold
%%+ font Helvetica-Oblique
%%+ font Helvetica-BoldOblique
%%+ font Symbol
%%Title: R Graphics Output
%%Creator: R Software
%%Pages: (atend)
%%BoundingBox: 0 0 1152 576
%%EndComments
%%BeginProlog
/bp  { gs sRGB gs } def
% begin .ps.prolog
/gs  { gsave } bind def
/gr  { grestore } bind def
/ep  { showpage gr gr } bind def
/m   { moveto } bind def
/l  { rlineto } bind def
/np  { newpath } bind def
/cp  { closepath } bind def
/f   { fill } bind def
/o   { stroke } bind def
/c   { newpath 0 360 arc } bind def
/r   { 4 2 roll moveto 1 copy 3 -1 roll exch 0 exch rlineto 0 rlineto -1 mul 0 exch rlineto closepath } bind def
/p1  { stroke } bind def
/p2  { gsave bg fill grestore newpath } bind def
/p3  { gsave bg fill grestore stroke } bind def
/p6  { gsave bg eofill grestore newpath } bind def
/p7  { gsave bg eofill grestore stroke } bind def
/t   { 5 -2 roll moveto gsave rotate
       1 index stringwidth pop
       mul neg 0 rmoveto show grestore } bind def
/ta  { 4 -2 roll moveto gsave rotate show } bind def
/tb  { 2 -1 roll 0 rmoveto show } bind def
/cl  { grestore gsave newpath 3 index 3 index moveto 1 index
       4 -1 roll lineto  exch 1 index lineto lineto
       closepath clip newpath } bind def
/rgb { setrgbcolor } bind def
/s   { scalefont setfont } bind def
% end   .ps.prolog
/sRGB { [ /CIEBasedABC
          << /DecodeLMN
               [ { dup 0.03928 le
                        {12.92321 div}
                        {0.055 add 1.055 div 2.4 exp }
                     ifelse
                 } bind dup dup
               ]
             /MatrixLMN [0.412457 0.212673 0.019334
                         0.357576 0.715152 0.119192
                         0.180437 0.072175 0.950301]
             /WhitePoint [0.9505 1.0 1.0890]
           >>
         ] setcolorspace } bind def
/srgb { setcolor } bind def
%%IncludeResource: font Helvetica
/Helvetica findfont
dup length dict begin
  {1 index /FID ne {def} {pop pop} ifelse} forall
  /Encoding ISOLatin1Encoding def
  currentdict
  end
/Font1 exch definefont pop
%%IncludeResource: font Helvetica-Bold
/Helvetica-Bold findfont
dup length dict begin
  {1 index /FID ne {def} {pop pop} ifelse} forall
  /Encoding ISOLatin1Encoding def
  currentdict
  end
/Font2 exch definefont pop
%%IncludeResource: font Helvetica-Oblique
/Helvetica-Oblique findfont
dup length dict begin
  {1 index /FID ne {def} {pop pop} ifelse} forall
  /Encoding ISOLatin1Encoding def
  currentdict
  end
/Font3 exch definefont pop
%%IncludeResource: font Helvetica-BoldOblique
/Helvetica-BoldOblique findfont
dup length dict begin
  {1 index /FID ne {def} {pop pop} ifelse} forall
  /Encoding ISOLatin1Encoding def
  currentdict
  end
/Font4 exch definefont pop
%%IncludeResource: font Symbol
/Symbol findfont
dup length dict begin
  {1 index /FID ne {def} {pop pop} ifelse} forall
  currentdict
  end
/Font5 exch definefont pop
%%EndProlog
%%Page: 1 1
bp
73.44 73.44 545.76 516.96 cl
0 0 0 srgb
0.75 setlinewidth
[] 0 setdash
1 setlinecap
1 setlinejoin
10.00 setmiterlimit
90.93 106.29 2.70 c p1
97.01 118.61 2.70 c p1
103.08 130.93 2.70 c p1
109.16 143.25 2.70 c p1
115.23 147.36 2.70 c p1
121.30 159.68 2.70 c p1
127.38 167.89 2.70 c p1
133.45 172.00 2.70 c p1
139.53 192.53 2.70 c p1
145.60 204.85 2.70 c p1
151.67 208.96 2.70 c p1
157.75 208.96 2.70 c p1
163.82 217.17 2.70 c p1
169.90 221.28 2.70 c p1
175.97 225.39 2.70 c p1
182.04 233.60 2.70 c p1
188.12 241.81 2.70 c p1
194.19 258.24 2.70 c p1
200.27 274.67 2.70 c p1
206.34 282.88 2.70 c p1
212.41 282.88 2.70 c p1
218.49 282.88 2.70 c p1
224.56 286.99 2.70 c p1
230.64 291.09 2.70 c p1
236.71 291.09 2.70 c p1
242.79 303.41 2.70 c p1
248.86 307.52 2.70 c p1
254.93 315.73 2.70 c p1
261.01 323.95 2.70 c p1
267.08 323.95 2.70 c p1
273.16 328.05 2.70 c p1
279.23 328.05 2.70 c p1
285.30 336.27 2.70 c p1
291.38 336.27 2.70 c p1
297.45 344.48 2.70 c p1
303.53 344.48 2.70 c p1
309.60 344.48 2.70 c p1
315.67 344.48 2.70 c p1
321.75 352.69 2.70 c p1
327.82 352.69 2.70 c p1
333.90 360.91 2.70 c p1
339.97 365.01 2.70 c p1
346.04 365.01 2.70 c p1
352.12 369.12 2.70 c p1
358.19 373.23 2.70 c p1
364.27 377.33 2.70 c p1
370.34 377.33 2.70 c p1
376.41 377.33 2.70 c p1
382.49 385.55 2.70 c p1
388.56 385.55 2.70 c p1
394.64 389.65 2.70 c p1
400.71 389.65 2.70 c p1
406.79 393.76 2.70 c p1
412.86 397.87 2.70 c p1
418.93 401.97 2.70 c p1
425.01 414.29 2.70 c p1
431.08 418.40 2.70 c p1
437.16 418.40 2.70 c p1
443.23 418.40 2.70 c p1
449.30 418.40 2.70 c p1
455.38 418.40 2.70 c p1
461.45 422.51 2.70 c p1
467.53 422.51 2.70 c p1
473.60 426.61 2.70 c p1
479.67 426.61 2.70 c p1
485.75 430.72 2.70 c p1
491.82 443.04 2.70 c p1
497.90 443.04 2.70 c p1
503.97 467.68 2.70 c p1
510.04 492.32 2.70 c p1
516.12 492.32 2.70 c p1
522.19 492.32 2.70 c p1
528.27 492.32 2.70 c p1
0.00 0.00 1152.00 576.00 cl
0 0 0 srgb
0.75 setlinewidth
[] 0 setdash
1 setlinecap
1 setlinejoin
10.00 setmiterlimit
np
84.86 73.44 m
425.18 0 l
o
np
84.86 73.44 m
0 13.31 l
o
np
145.60 73.44 m
0 13.31 l
o
np
206.34 73.44 m
0 13.31 l
o
np
267.08 73.44 m
0 13.31 l
o
np
327.82 73.44 m
0 13.31 l
o
np
388.56 73.44 m
0 13.31 l
o
np
449.30 73.44 m
0 13.31 l
o
np
510.04 73.44 m
0 13.31 l
o
/Font1 findfont 24 s
84.86 47.52 (0) .5 0 t
145.60 47.52 (10) .5 0 t
206.34 47.52 (20) .5 0 t
267.08 47.52 (30) .5 0 t
327.82 47.52 (40) .5 0 t
388.56 47.52 (50) .5 0 t
449.30 47.52 (60) .5 0 t
510.04 47.52 (70) .5 0 t
np
73.44 89.87 m
0 410.66 l
o
np
73.44 89.87 m
13.31 0 l
o
np
73.44 172.00 m
13.31 0 l
o
np
73.44 254.13 m
13.31 0 l
o
np
73.44 336.27 m
13.31 0 l
o
np
73.44 418.40 m
13.31 0 l
o
np
73.44 500.53 m
13.31 0 l
o
56.16 89.87 (0) .5 90 t
56.16 172.00 (20) .5 90 t
56.16 254.13 (40) .5 90 t
56.16 336.27 (60) .5 90 t
56.16 418.40 (80) .5 90 t
56.16 500.53 (100) .5 90 t
np
73.44 73.44 m
472.32 0 l
0 443.52 l
-472.32 0 l
0 -443.52 l
o
0.00 0.00 576.00 576.00 cl
/Font2 findfont 24 s
0 0 0 srgb
186.90 537.86 (Small population siz) 0 ta
0.240 (e) tb gr
/Font1 findfont 24 s
260.24 18.72 (Iter) 0 ta
-0.240 (ations) tb gr
27.36 249.18 (Bit inde) 90 ta
-0.720 (x) tb gr
73.44 73.44 545.76 516.96 cl
/bg { 1 0 0 srgb } def
90.93 118.61 2.70 c p2
97.01 143.25 2.70 c p2
103.08 143.25 2.70 c p2
109.16 159.68 2.70 c p2
115.23 155.57 2.70 c p2
121.30 163.79 2.70 c p2
127.38 204.85 2.70 c p2
133.45 196.64 2.70 c p2
139.53 204.85 2.70 c p2
145.60 204.85 2.70 c p2
151.67 213.07 2.70 c p2
157.75 217.17 2.70 c p2
163.82 229.49 2.70 c p2
169.90 229.49 2.70 c p2
175.97 245.92 2.70 c p2
182.04 254.13 2.70 c p2
188.12 270.56 2.70 c p2
194.19 278.77 2.70 c p2
200.27 278.77 2.70 c p2
206.34 282.88 2.70 c p2
212.41 286.99 2.70 c p2
218.49 286.99 2.70 c p2
224.56 299.31 2.70 c p2
230.64 299.31 2.70 c p2
236.71 303.41 2.70 c p2
242.79 311.63 2.70 c p2
248.86 319.84 2.70 c p2
254.93 323.95 2.70 c p2
261.01 323.95 2.70 c p2
267.08 323.95 2.70 c p2
273.16 332.16 2.70 c p2
279.23 340.37 2.70 c p2
285.30 336.27 2.70 c p2
291.38 340.37 2.70 c p2
297.45 340.37 2.70 c p2
303.53 348.59 2.70 c p2
309.60 348.59 2.70 c p2
315.67 360.91 2.70 c p2
321.75 356.80 2.70 c p2
327.82 365.01 2.70 c p2
333.90 360.91 2.70 c p2
339.97 369.12 2.70 c p2
346.04 369.12 2.70 c p2
352.12 373.23 2.70 c p2
358.19 373.23 2.70 c p2
364.27 381.44 2.70 c p2
370.34 381.44 2.70 c p2
376.41 385.55 2.70 c p2
382.49 385.55 2.70 c p2
388.56 385.55 2.70 c p2
394.64 389.65 2.70 c p2
400.71 397.87 2.70 c p2
406.79 410.19 2.70 c p2
412.86 414.29 2.70 c p2
418.93 414.29 2.70 c p2
425.01 414.29 2.70 c p2
431.08 414.29 2.70 c p2
437.16 414.29 2.70 c p2
443.23 418.40 2.70 c p2
449.30 418.40 2.70 c p2
455.38 422.51 2.70 c p2
461.45 422.51 2.70 c p2
467.53 422.51 2.70 c p2
473.60 438.93 2.70 c p2
479.67 438.93 2.70 c p2
485.75 463.57 2.70 c p2
491.82 475.89 2.70 c p2
497.90 488.21 2.70 c p2
503.97 488.21 2.70 c p2
510.04 488.21 2.70 c p2
516.12 488.21 2.70 c p2
522.19 492.32 2.70 c p2
528.27 500.53 2.70 c p2
0.4784 0.4784 0.4784 srgb
1.50 setlinewidth
[ 0.00 6.00] 0 setdash
1 setlinecap
1 setlinejoin
10.00 setmiterlimit
np
84.86 73.44 m
0 443.52 l
o
np
145.60 73.44 m
0 443.52 l
o
np
206.34 73.44 m
0 443.52 l
o
np
267.08 73.44 m
0 443.52 l
o
np
327.82 73.44 m
0 443.52 l
o
np
388.56 73.44 m
0 443.52 l
o
np
449.30 73.44 m
0 443.52 l
o
np
510.04 73.44 m
0 443.52 l
o
np
73.44 89.87 m
472.32 0 l
o
np
73.44 172.00 m
472.32 0 l
o
np
73.44 254.13 m
472.32 0 l
o
np
73.44 336.27 m
472.32 0 l
o
np
73.44 418.40 m
472.32 0 l
o
np
73.44 500.53 m
472.32 0 l
o
0 0 0 srgb
0.75 setlinewidth
[] 0 setdash
437.16 151.47 86.51 -64.80 r p1
453.36 129.87 4.05 c p1
453.36 108.27 4.05 c p2
/Font1 findfont 18 s
469.56 123.40 (Z) 0 0 t
469.56 101.80 (Z star) 0 0 t
649.44 73.44 1121.76 516.96 cl
649.44 73.44 1121.76 516.96 cl
0 0 0 srgb
0.75 setlinewidth
[] 0 setdash
1 setlinecap
1 setlinejoin
10.00 setmiterlimit
666.93 106.29 2.70 c p1
673.01 118.61 2.70 c p1
679.08 130.93 2.70 c p1
685.16 143.25 2.70 c p1
691.23 147.36 2.70 c p1
697.30 159.68 2.70 c p1
703.38 167.89 2.70 c p1
709.45 172.00 2.70 c p1
715.53 192.53 2.70 c p1
721.60 204.85 2.70 c p1
727.67 208.96 2.70 c p1
733.75 208.96 2.70 c p1
739.82 217.17 2.70 c p1
745.90 221.28 2.70 c p1
751.97 225.39 2.70 c p1
758.04 233.60 2.70 c p1
764.12 241.81 2.70 c p1
770.19 258.24 2.70 c p1
776.27 274.67 2.70 c p1
782.34 282.88 2.70 c p1
788.41 282.88 2.70 c p1
794.49 282.88 2.70 c p1
800.56 286.99 2.70 c p1
806.64 291.09 2.70 c p1
812.71 291.09 2.70 c p1
818.79 303.41 2.70 c p1
824.86 307.52 2.70 c p1
830.93 315.73 2.70 c p1
837.01 323.95 2.70 c p1
843.08 323.95 2.70 c p1
849.16 328.05 2.70 c p1
855.23 328.05 2.70 c p1
861.30 336.27 2.70 c p1
867.38 336.27 2.70 c p1
873.45 344.48 2.70 c p1
879.53 344.48 2.70 c p1
885.60 344.48 2.70 c p1
891.67 344.48 2.70 c p1
897.75 352.69 2.70 c p1
903.82 352.69 2.70 c p1
909.90 360.91 2.70 c p1
915.97 365.01 2.70 c p1
922.04 365.01 2.70 c p1
928.12 369.12 2.70 c p1
934.19 373.23 2.70 c p1
940.27 377.33 2.70 c p1
946.34 377.33 2.70 c p1
952.41 377.33 2.70 c p1
958.49 385.55 2.70 c p1
964.56 385.55 2.70 c p1
970.64 389.65 2.70 c p1
976.71 389.65 2.70 c p1
982.79 393.76 2.70 c p1
988.86 397.87 2.70 c p1
994.93 401.97 2.70 c p1
1001.01 414.29 2.70 c p1
1007.08 418.40 2.70 c p1
1013.16 418.40 2.70 c p1
1019.23 418.40 2.70 c p1
1025.30 418.40 2.70 c p1
1031.38 418.40 2.70 c p1
1037.45 422.51 2.70 c p1
1043.53 422.51 2.70 c p1
1049.60 426.61 2.70 c p1
1055.67 426.61 2.70 c p1
1061.75 430.72 2.70 c p1
1067.82 443.04 2.70 c p1
1073.90 443.04 2.70 c p1
1079.97 467.68 2.70 c p1
1086.04 492.32 2.70 c p1
1092.12 492.32 2.70 c p1
1098.19 492.32 2.70 c p1
1104.27 492.32 2.70 c p1
0.00 0.00 1152.00 576.00 cl
0 0 0 srgb
0.75 setlinewidth
[] 0 setdash
1 setlinecap
1 setlinejoin
10.00 setmiterlimit
np
660.86 73.44 m
425.18 0 l
o
np
660.86 73.44 m
0 13.31 l
o
np
721.60 73.44 m
0 13.31 l
o
np
782.34 73.44 m
0 13.31 l
o
np
843.08 73.44 m
0 13.31 l
o
np
903.82 73.44 m
0 13.31 l
o
np
964.56 73.44 m
0 13.31 l
o
np
1025.30 73.44 m
0 13.31 l
o
np
1086.04 73.44 m
0 13.31 l
o
/Font1 findfont 24 s
660.86 47.52 (0) .5 0 t
721.60 47.52 (10) .5 0 t
782.34 47.52 (20) .5 0 t
843.08 47.52 (30) .5 0 t
903.82 47.52 (40) .5 0 t
964.56 47.52 (50) .5 0 t
1025.30 47.52 (60) .5 0 t
1086.04 47.52 (70) .5 0 t
np
649.44 89.87 m
0 410.66 l
o
np
649.44 89.87 m
13.31 0 l
o
np
649.44 172.00 m
13.31 0 l
o
np
649.44 254.13 m
13.31 0 l
o
np
649.44 336.27 m
13.31 0 l
o
np
649.44 418.40 m
13.31 0 l
o
np
649.44 500.53 m
13.31 0 l
o
632.16 89.87 (0) .5 90 t
632.16 172.00 (20) .5 90 t
632.16 254.13 (40) .5 90 t
632.16 336.27 (60) .5 90 t
632.16 418.40 (80) .5 90 t
632.16 500.53 (100) .5 90 t
np
649.44 73.44 m
472.32 0 l
0 443.52 l
-472.32 0 l
0 -443.52 l
o
576.00 0.00 1152.00 576.00 cl
/Font2 findfont 24 s
0 0 0 srgb
762.24 537.86 (Lar) 0 ta
-0.360 (g) tb
0.240 (e population siz) tb
0.240 (e) tb gr
/Font1 findfont 24 s
836.24 18.72 (Iter) 0 ta
-0.240 (ations) tb gr
603.36 249.18 (Bit inde) 90 ta
-0.720 (x) tb gr
649.44 73.44 1121.76 516.96 cl
/bg { 1 0 0 srgb } def
666.93 118.61 2.70 c p2
673.01 143.25 2.70 c p2
679.08 143.25 2.70 c p2
685.16 159.68 2.70 c p2
691.23 155.57 2.70 c p2
697.30 163.79 2.70 c p2
703.38 204.85 2.70 c p2
709.45 196.64 2.70 c p2
715.53 204.85 2.70 c p2
721.60 204.85 2.70 c p2
727.67 213.07 2.70 c p2
733.75 217.17 2.70 c p2
739.82 229.49 2.70 c p2
745.90 229.49 2.70 c p2
751.97 245.92 2.70 c p2
758.04 254.13 2.70 c p2
764.12 270.56 2.70 c p2
770.19 278.77 2.70 c p2
776.27 278.77 2.70 c p2
782.34 282.88 2.70 c p2
788.41 286.99 2.70 c p2
794.49 286.99 2.70 c p2
800.56 299.31 2.70 c p2
806.64 299.31 2.70 c p2
812.71 303.41 2.70 c p2
818.79 311.63 2.70 c p2
824.86 319.84 2.70 c p2
830.93 323.95 2.70 c p2
837.01 323.95 2.70 c p2
843.08 323.95 2.70 c p2
849.16 332.16 2.70 c p2
855.23 340.37 2.70 c p2
861.30 336.27 2.70 c p2
867.38 340.37 2.70 c p2
873.45 340.37 2.70 c p2
879.53 348.59 2.70 c p2
885.60 348.59 2.70 c p2
891.67 360.91 2.70 c p2
897.75 356.80 2.70 c p2
903.82 365.01 2.70 c p2
909.90 360.91 2.70 c p2
915.97 369.12 2.70 c p2
922.04 369.12 2.70 c p2
928.12 373.23 2.70 c p2
934.19 373.23 2.70 c p2
940.27 381.44 2.70 c p2
946.34 381.44 2.70 c p2
952.41 385.55 2.70 c p2
958.49 385.55 2.70 c p2
964.56 385.55 2.70 c p2
970.64 389.65 2.70 c p2
976.71 397.87 2.70 c p2
982.79 410.19 2.70 c p2
988.86 414.29 2.70 c p2
994.93 414.29 2.70 c p2
1001.01 414.29 2.70 c p2
1007.08 414.29 2.70 c p2
1013.16 414.29 2.70 c p2
1019.23 418.40 2.70 c p2
1025.30 418.40 2.70 c p2
1031.38 422.51 2.70 c p2
1037.45 422.51 2.70 c p2
1043.53 422.51 2.70 c p2
1049.60 438.93 2.70 c p2
1055.67 438.93 2.70 c p2
1061.75 463.57 2.70 c p2
1067.82 475.89 2.70 c p2
1073.90 488.21 2.70 c p2
1079.97 488.21 2.70 c p2
1086.04 488.21 2.70 c p2
1092.12 488.21 2.70 c p2
1098.19 492.32 2.70 c p2
1104.27 500.53 2.70 c p2
0.4784 0.4784 0.4784 srgb
1.50 setlinewidth
[ 0.00 6.00] 0 setdash
1 setlinecap
1 setlinejoin
10.00 setmiterlimit
np
660.86 73.44 m
0 443.52 l
o
np
721.60 73.44 m
0 443.52 l
o
np
782.34 73.44 m
0 443.52 l
o
np
843.08 73.44 m
0 443.52 l
o
np
903.82 73.44 m
0 443.52 l
o
np
964.56 73.44 m
0 443.52 l
o
np
1025.30 73.44 m
0 443.52 l
o
np
1086.04 73.44 m
0 443.52 l
o
np
649.44 89.87 m
472.32 0 l
o
np
649.44 172.00 m
472.32 0 l
o
np
649.44 254.13 m
472.32 0 l
o
np
649.44 336.27 m
472.32 0 l
o
np
649.44 418.40 m
472.32 0 l
o
np
649.44 500.53 m
472.32 0 l
o
0 0 0 srgb
0.75 setlinewidth
[] 0 setdash
1013.16 151.47 86.51 -64.80 r p1
1029.36 129.87 4.05 c p1
1029.36 108.27 4.05 c p2
/Font1 findfont 18 s
1045.56 123.40 (Z) 0 0 t
1045.56 101.80 (Z star) 0 0 t
ep
%%Trailer
%%Pages: 1
%%EOF
