%!PS-Adobe-3.0 EPSF-3.0
%%DocumentNeededResources: font Helvetica
%%+ font Helvetica-Bold
%%+ font Helvetica-Oblique
%%+ font Helvetica-BoldOblique
%%+ font Symbol
%%Title: R Graphics Output
%%Creator: R Software
%%Pages: (atend)
%%BoundingBox: 0 0 1152 216
%%EndComments
%%BeginProlog
/bp  { gs sRGB gs } def
% begin .ps.prolog
/gs  { gsave } bind def
/gr  { grestore } bind def
/ep  { showpage gr gr } bind def
/m   { moveto } bind def
/l  { rlineto } bind def
/np  { newpath } bind def
/cp  { closepath } bind def
/f   { fill } bind def
/o   { stroke } bind def
/c   { newpath 0 360 arc } bind def
/r   { 4 2 roll moveto 1 copy 3 -1 roll exch 0 exch rlineto 0 rlineto -1 mul 0 exch rlineto closepath } bind def
/p1  { stroke } bind def
/p2  { gsave bg fill grestore newpath } bind def
/p3  { gsave bg fill grestore stroke } bind def
/p6  { gsave bg eofill grestore newpath } bind def
/p7  { gsave bg eofill grestore stroke } bind def
/t   { 5 -2 roll moveto gsave rotate
       1 index stringwidth pop
       mul neg 0 rmoveto show grestore } bind def
/ta  { 4 -2 roll moveto gsave rotate show } bind def
/tb  { 2 -1 roll 0 rmoveto show } bind def
/cl  { grestore gsave newpath 3 index 3 index moveto 1 index
       4 -1 roll lineto  exch 1 index lineto lineto
       closepath clip newpath } bind def
/rgb { setrgbcolor } bind def
/s   { scalefont setfont } bind def
% end   .ps.prolog
/sRGB { [ /CIEBasedABC
          << /DecodeLMN
               [ { dup 0.03928 le
                        {12.92321 div}
                        {0.055 add 1.055 div 2.4 exp }
                     ifelse
                 } bind dup dup
               ]
             /MatrixLMN [0.412457 0.212673 0.019334
                         0.357576 0.715152 0.119192
                         0.180437 0.072175 0.950301]
             /WhitePoint [0.9505 1.0 1.0890]
           >>
         ] setcolorspace } bind def
/srgb { setcolor } bind def
%%IncludeResource: font Helvetica
/Helvetica findfont
dup length dict begin
  {1 index /FID ne {def} {pop pop} ifelse} forall
  /Encoding ISOLatin1Encoding def
  currentdict
  end
/Font1 exch definefont pop
%%IncludeResource: font Helvetica-Bold
/Helvetica-Bold findfont
dup length dict begin
  {1 index /FID ne {def} {pop pop} ifelse} forall
  /Encoding ISOLatin1Encoding def
  currentdict
  end
/Font2 exch definefont pop
%%IncludeResource: font Helvetica-Oblique
/Helvetica-Oblique findfont
dup length dict begin
  {1 index /FID ne {def} {pop pop} ifelse} forall
  /Encoding ISOLatin1Encoding def
  currentdict
  end
/Font3 exch definefont pop
%%IncludeResource: font Helvetica-BoldOblique
/Helvetica-BoldOblique findfont
dup length dict begin
  {1 index /FID ne {def} {pop pop} ifelse} forall
  /Encoding ISOLatin1Encoding def
  currentdict
  end
/Font4 exch definefont pop
%%IncludeResource: font Symbol
/Symbol findfont
dup length dict begin
  {1 index /FID ne {def} {pop pop} ifelse} forall
  currentdict
  end
/Font5 exch definefont pop
%%EndProlog
%%Page: 1 1
bp
48.47 48.47 364.04 177.03 cl
/bg { 0 0 0 srgb } def
60.16 53.23 1.78 c p2
92.62 65.42 1.78 c p2
125.09 77.95 1.78 c p2
157.56 91.96 1.78 c p2
190.02 101.22 1.78 c p2
222.49 115.64 1.78 c p2
254.96 128.67 1.78 c p2
287.42 144.59 1.78 c p2
319.89 153.49 1.78 c p2
352.35 172.27 1.78 c p2
0.00 0.00 1152.00 216.00 cl
0 0 0 srgb
0.75 setlinewidth
[] 0 setdash
1 setlinecap
1 setlinejoin
10.00 setmiterlimit
np
92.62 48.47 m
259.73 0 l
o
np
92.62 48.47 m
0 3.86 l
o
np
157.56 48.47 m
0 3.86 l
o
np
222.49 48.47 m
0 3.86 l
o
np
287.42 48.47 m
0 3.86 l
o
np
352.35 48.47 m
0 3.86 l
o
/Font1 findfont 12 s
92.62 31.36 (200) .5 0 t
157.56 31.36 (400) .5 0 t
222.49 31.36 (600) .5 0 t
287.42 31.36 (800) .5 0 t
352.35 31.36 (1000) .5 0 t
np
48.47 65.90 m
0 99.93 l
o
np
48.47 65.90 m
3.86 0 l
o
np
48.47 90.88 m
3.86 0 l
o
np
48.47 115.86 m
3.86 0 l
o
np
48.47 140.85 m
3.86 0 l
o
np
48.47 165.83 m
3.86 0 l
o
37.07 65.90 (5000) .5 90 t
37.07 115.86 (15000) .5 90 t
37.07 165.83 (25000) .5 90 t
np
48.47 48.47 m
315.57 0 l
0 128.56 l
-315.57 0 l
0 -128.56 l
o
0.00 0.00 384.00 216.00 cl
/Font2 findfont 16 s
0 0 0 srgb
124.46 190.77 (Small population siz) 0 ta
0.160 (e) tb gr
/Font1 findfont 16 s
142.66 12.36 (Length of bitstr) 0 ta
0.240 (ing) tb gr
18.06 54.06 (A) 90 ta
-0.640 (v) tb
-0.400 (er) tb
-0.160 (age r) tb
0.240 (untime) tb gr
48.47 48.47 364.04 177.03 cl
1 0 0 srgb
0.75 setlinewidth
[] 0 setdash
1 setlinecap
1 setlinejoin
10.00 setmiterlimit
np
60.16 52.45 m
32.46 12.32 l
32.47 12.64 l
32.47 12.84 l
32.46 13.01 l
32.47 13.13 l
32.47 13.24 l
32.46 13.34 l
32.47 13.41 l
32.46 13.49 l
o
/Font1 findfont 16 s
0 0 0 srgb
64.91 110.84 (18.453) 0 0 t
113.84 110.84 (n) 0 0 t
/Font1 findfont 11 s
122.73 118.79 (1.049) 0 0 t
0.4784 0.4784 0.4784 srgb
1.50 setlinewidth
[ 0.00 6.00] 0 setdash
np
92.62 48.47 m
0 128.56 l
o
np
157.56 48.47 m
0 128.56 l
o
np
222.49 48.47 m
0 128.56 l
o
np
287.42 48.47 m
0 128.56 l
o
np
352.35 48.47 m
0 128.56 l
o
np
48.47 65.90 m
315.57 0 l
o
np
48.47 90.88 m
315.57 0 l
o
np
48.47 115.86 m
315.57 0 l
o
np
48.47 140.85 m
315.57 0 l
o
np
48.47 165.83 m
315.57 0 l
o
432.47 48.47 748.04 177.03 cl
/bg { 0 0 0 srgb } def
444.16 53.23 1.78 c p2
476.62 63.12 1.78 c p2
509.09 74.29 1.78 c p2
541.56 85.79 1.78 c p2
574.02 100.60 1.78 c p2
606.49 113.94 1.78 c p2
638.96 128.19 1.78 c p2
671.42 142.52 1.78 c p2
703.89 155.24 1.78 c p2
736.35 172.27 1.78 c p2
0.00 0.00 1152.00 216.00 cl
0 0 0 srgb
0.75 setlinewidth
[] 0 setdash
1 setlinecap
1 setlinejoin
10.00 setmiterlimit
np
476.62 48.47 m
259.73 0 l
o
np
476.62 48.47 m
0 3.86 l
o
np
541.56 48.47 m
0 3.86 l
o
np
606.49 48.47 m
0 3.86 l
o
np
671.42 48.47 m
0 3.86 l
o
np
736.35 48.47 m
0 3.86 l
o
/Font1 findfont 12 s
476.62 31.36 (200) .5 0 t
541.56 31.36 (400) .5 0 t
606.49 31.36 (600) .5 0 t
671.42 31.36 (800) .5 0 t
736.35 31.36 (1000) .5 0 t
np
432.47 70.87 m
0 98.79 l
o
np
432.47 70.87 m
3.86 0 l
o
np
432.47 95.57 m
3.86 0 l
o
np
432.47 120.27 m
3.86 0 l
o
np
432.47 144.96 m
3.86 0 l
o
np
432.47 169.66 m
3.86 0 l
o
421.07 70.87 (5000) .5 90 t
421.07 120.27 (15000) .5 90 t
421.07 169.66 (25000) .5 90 t
np
432.47 48.47 m
315.57 0 l
0 128.56 l
-315.57 0 l
0 -128.56 l
o
384.00 0.00 768.00 216.00 cl
/Font2 findfont 16 s
0 0 0 srgb
499.58 190.77 (Medium population siz) 0 ta
0.160 (e) tb gr
/Font1 findfont 16 s
526.66 12.36 (Length of bitstr) 0 ta
0.240 (ing) tb gr
402.06 54.06 (A) 90 ta
-0.640 (v) tb
-0.400 (er) tb
-0.160 (age r) tb
0.240 (untime) tb gr
432.47 48.47 748.04 177.03 cl
1 0 0 srgb
0.75 setlinewidth
[] 0 setdash
1 setlinecap
1 setlinejoin
10.00 setmiterlimit
np
444.16 53.55 m
32.46 9.96 l
32.47 11.24 l
32.47 12.15 l
32.46 12.89 l
32.47 13.51 l
32.47 14.04 l
32.46 14.51 l
32.47 14.94 l
32.46 15.34 l
o
/Font1 findfont 16 s
0 0 0 srgb
448.91 115.24 (5.123) 0 0 t
488.94 115.24 (n) 0 0 t
/Font1 findfont 11 s
497.84 123.19 (1.232) 0 0 t
0.4784 0.4784 0.4784 srgb
1.50 setlinewidth
[ 0.00 6.00] 0 setdash
np
476.62 48.47 m
0 128.56 l
o
np
541.56 48.47 m
0 128.56 l
o
np
606.49 48.47 m
0 128.56 l
o
np
671.42 48.47 m
0 128.56 l
o
np
736.35 48.47 m
0 128.56 l
o
np
432.47 70.87 m
315.57 0 l
o
np
432.47 95.57 m
315.57 0 l
o
np
432.47 120.27 m
315.57 0 l
o
np
432.47 144.96 m
315.57 0 l
o
np
432.47 169.66 m
315.57 0 l
o
816.47 48.47 1132.04 177.03 cl
/bg { 0 0 0 srgb } def
828.16 53.23 1.78 c p2
860.62 63.60 1.78 c p2
893.09 74.94 1.78 c p2
925.56 88.27 1.78 c p2
958.02 101.11 1.78 c p2
990.49 114.24 1.78 c p2
1022.96 128.09 1.78 c p2
1055.42 143.38 1.78 c p2
1087.89 159.34 1.78 c p2
1120.35 172.27 1.78 c p2
0.00 0.00 1152.00 216.00 cl
0 0 0 srgb
0.75 setlinewidth
[] 0 setdash
1 setlinecap
1 setlinejoin
10.00 setmiterlimit
np
860.62 48.47 m
259.73 0 l
o
np
860.62 48.47 m
0 3.86 l
o
np
925.56 48.47 m
0 3.86 l
o
np
990.49 48.47 m
0 3.86 l
o
np
1055.42 48.47 m
0 3.86 l
o
np
1120.35 48.47 m
0 3.86 l
o
/Font1 findfont 12 s
860.62 31.36 (200) .5 0 t
925.56 31.36 (400) .5 0 t
990.49 31.36 (600) .5 0 t
1055.42 31.36 (800) .5 0 t
1120.35 31.36 (1000) .5 0 t
np
816.47 77.21 m
0 92.31 l
o
np
816.47 77.21 m
3.86 0 l
o
np
816.47 107.98 m
3.86 0 l
o
np
816.47 138.75 m
3.86 0 l
o
np
816.47 169.52 m
3.86 0 l
o
805.07 77.21 (20000) .5 90 t
805.07 138.75 (60000) .5 90 t
np
816.47 48.47 m
315.57 0 l
0 128.56 l
-315.57 0 l
0 -128.56 l
o
768.00 0.00 1152.00 216.00 cl
/Font2 findfont 16 s
0 0 0 srgb
892.02 190.77 (Lar) 0 ta
-0.240 (g) tb
0.160 (e population siz) tb
0.160 (e) tb gr
/Font1 findfont 16 s
910.66 12.36 (Length of bitstr) 0 ta
0.240 (ing) tb gr
786.06 54.06 (A) 90 ta
-0.640 (v) tb
-0.400 (er) tb
-0.160 (age r) tb
0.240 (untime) tb gr
816.47 48.47 1132.04 177.03 cl
1 0 0 srgb
0.75 setlinewidth
[] 0 setdash
1 setlinecap
1 setlinejoin
10.00 setmiterlimit
np
828.16 53.98 m
32.46 10.10 l
32.47 11.36 l
32.47 12.28 l
32.46 13.00 l
32.47 13.60 l
32.47 14.13 l
32.46 14.60 l
32.47 15.02 l
32.46 15.41 l
o
/Font1 findfont 16 s
0 0 0 srgb
832.91 102.96 (17.233) 0 0 t
881.84 102.96 (n) 0 0 t
/Font1 findfont 11 s
890.73 110.91 (1.227) 0 0 t
0.4784 0.4784 0.4784 srgb
1.50 setlinewidth
[ 0.00 6.00] 0 setdash
np
860.62 48.47 m
0 128.56 l
o
np
925.56 48.47 m
0 128.56 l
o
np
990.49 48.47 m
0 128.56 l
o
np
1055.42 48.47 m
0 128.56 l
o
np
1120.35 48.47 m
0 128.56 l
o
np
816.47 77.21 m
315.57 0 l
o
np
816.47 107.98 m
315.57 0 l
o
np
816.47 138.75 m
315.57 0 l
o
np
816.47 169.52 m
315.57 0 l
o
ep
%%Trailer
%%Pages: 1
%%EOF
