%!PS-Adobe-3.0 EPSF-3.0
%%DocumentNeededResources: font Helvetica
%%+ font Helvetica-Bold
%%+ font Helvetica-Oblique
%%+ font Helvetica-BoldOblique
%%+ font Symbol
%%Title: R Graphics Output
%%Creator: R Software
%%Pages: (atend)
%%BoundingBox: 0 0 1152 216
%%EndComments
%%BeginProlog
/bp  { gs sRGB gs } def
% begin .ps.prolog
/gs  { gsave } bind def
/gr  { grestore } bind def
/ep  { showpage gr gr } bind def
/m   { moveto } bind def
/l  { rlineto } bind def
/np  { newpath } bind def
/cp  { closepath } bind def
/f   { fill } bind def
/o   { stroke } bind def
/c   { newpath 0 360 arc } bind def
/r   { 4 2 roll moveto 1 copy 3 -1 roll exch 0 exch rlineto 0 rlineto -1 mul 0 exch rlineto closepath } bind def
/p1  { stroke } bind def
/p2  { gsave bg fill grestore newpath } bind def
/p3  { gsave bg fill grestore stroke } bind def
/p6  { gsave bg eofill grestore newpath } bind def
/p7  { gsave bg eofill grestore stroke } bind def
/t   { 5 -2 roll moveto gsave rotate
       1 index stringwidth pop
       mul neg 0 rmoveto show grestore } bind def
/ta  { 4 -2 roll moveto gsave rotate show } bind def
/tb  { 2 -1 roll 0 rmoveto show } bind def
/cl  { grestore gsave newpath 3 index 3 index moveto 1 index
       4 -1 roll lineto  exch 1 index lineto lineto
       closepath clip newpath } bind def
/rgb { setrgbcolor } bind def
/s   { scalefont setfont } bind def
% end   .ps.prolog
/sRGB { [ /CIEBasedABC
          << /DecodeLMN
               [ { dup 0.03928 le
                        {12.92321 div}
                        {0.055 add 1.055 div 2.4 exp }
                     ifelse
                 } bind dup dup
               ]
             /MatrixLMN [0.412457 0.212673 0.019334
                         0.357576 0.715152 0.119192
                         0.180437 0.072175 0.950301]
             /WhitePoint [0.9505 1.0 1.0890]
           >>
         ] setcolorspace } bind def
/srgb { setcolor } bind def
%%IncludeResource: font Helvetica
/Helvetica findfont
dup length dict begin
  {1 index /FID ne {def} {pop pop} ifelse} forall
  /Encoding ISOLatin1Encoding def
  currentdict
  end
/Font1 exch definefont pop
%%IncludeResource: font Helvetica-Bold
/Helvetica-Bold findfont
dup length dict begin
  {1 index /FID ne {def} {pop pop} ifelse} forall
  /Encoding ISOLatin1Encoding def
  currentdict
  end
/Font2 exch definefont pop
%%IncludeResource: font Helvetica-Oblique
/Helvetica-Oblique findfont
dup length dict begin
  {1 index /FID ne {def} {pop pop} ifelse} forall
  /Encoding ISOLatin1Encoding def
  currentdict
  end
/Font3 exch definefont pop
%%IncludeResource: font Helvetica-BoldOblique
/Helvetica-BoldOblique findfont
dup length dict begin
  {1 index /FID ne {def} {pop pop} ifelse} forall
  /Encoding ISOLatin1Encoding def
  currentdict
  end
/Font4 exch definefont pop
%%IncludeResource: font Symbol
/Symbol findfont
dup length dict begin
  {1 index /FID ne {def} {pop pop} ifelse} forall
  currentdict
  end
/Font5 exch definefont pop
%%EndProlog
%%Page: 1 1
bp
48.47 48.47 364.04 177.03 cl
0 0 0 srgb
0.75 setlinewidth
[] 0 setdash
1 setlinecap
1 setlinejoin
10.00 setmiterlimit
60.16 55.61 1.78 c p1
65.11 60.37 1.78 c p1
70.06 65.14 1.78 c p1
75.02 68.71 1.78 c p1
79.97 71.09 1.78 c p1
84.92 74.66 1.78 c p1
89.87 78.23 1.78 c p1
94.83 80.61 1.78 c p1
99.78 81.80 1.78 c p1
104.73 87.75 1.78 c p1
109.68 88.94 1.78 c p1
114.64 96.09 1.78 c p1
119.59 98.47 1.78 c p1
124.54 99.66 1.78 c p1
129.49 103.23 1.78 c p1
134.45 104.42 1.78 c p1
139.40 106.80 1.78 c p1
144.35 109.18 1.78 c p1
149.30 112.75 1.78 c p1
154.26 115.13 1.78 c p1
159.21 122.28 1.78 c p1
164.16 123.47 1.78 c p1
169.11 123.47 1.78 c p1
174.06 123.47 1.78 c p1
179.02 125.85 1.78 c p1
183.97 127.04 1.78 c p1
188.92 128.23 1.78 c p1
193.87 129.42 1.78 c p1
198.83 130.61 1.78 c p1
203.78 131.80 1.78 c p1
208.73 131.80 1.78 c p1
213.68 135.37 1.78 c p1
218.64 135.37 1.78 c p1
223.59 136.56 1.78 c p1
228.54 136.56 1.78 c p1
233.49 137.75 1.78 c p1
238.45 137.75 1.78 c p1
243.40 137.75 1.78 c p1
248.35 144.89 1.78 c p1
253.30 146.08 1.78 c p1
258.26 146.08 1.78 c p1
263.21 147.27 1.78 c p1
268.16 149.65 1.78 c p1
273.11 149.65 1.78 c p1
278.07 149.65 1.78 c p1
283.02 150.84 1.78 c p1
287.97 152.04 1.78 c p1
292.92 152.04 1.78 c p1
297.88 153.23 1.78 c p1
302.83 155.61 1.78 c p1
307.78 157.99 1.78 c p1
312.73 159.18 1.78 c p1
317.69 159.18 1.78 c p1
322.64 161.56 1.78 c p1
327.59 161.56 1.78 c p1
332.54 161.56 1.78 c p1
337.50 161.56 1.78 c p1
342.45 165.13 1.78 c p1
347.40 165.13 1.78 c p1
352.35 167.51 1.78 c p1
0.00 0.00 1152.00 216.00 cl
0 0 0 srgb
0.75 setlinewidth
[] 0 setdash
1 setlinecap
1 setlinejoin
10.00 setmiterlimit
np
55.21 48.47 m
297.14 0 l
o
np
55.21 48.47 m
0 3.86 l
o
np
104.73 48.47 m
0 3.86 l
o
np
154.26 48.47 m
0 3.86 l
o
np
203.78 48.47 m
0 3.86 l
o
np
253.30 48.47 m
0 3.86 l
o
np
302.83 48.47 m
0 3.86 l
o
np
352.35 48.47 m
0 3.86 l
o
/Font1 findfont 16 s
55.21 31.36 (0) .5 0 t
104.73 31.36 (10) .5 0 t
154.26 31.36 (20) .5 0 t
203.78 31.36 (30) .5 0 t
253.30 31.36 (40) .5 0 t
302.83 31.36 (50) .5 0 t
352.35 31.36 (60) .5 0 t
np
48.47 53.23 m
0 119.04 l
o
np
48.47 53.23 m
3.86 0 l
o
np
48.47 77.04 m
3.86 0 l
o
np
48.47 100.85 m
3.86 0 l
o
np
48.47 124.66 m
3.86 0 l
o
np
48.47 148.46 m
3.86 0 l
o
np
48.47 172.27 m
3.86 0 l
o
37.07 53.23 (0) .5 90 t
37.07 100.85 (40) .5 90 t
37.07 148.46 (80) .5 90 t
np
48.47 48.47 m
315.57 0 l
0 128.56 l
-315.57 0 l
0 -128.56 l
o
0.00 0.00 384.00 216.00 cl
/Font2 findfont 16 s
0 0 0 srgb
124.46 190.77 (Small population siz) 0 ta
0.160 (e) tb gr
/Font1 findfont 16 s
173.35 12.36 (Iter) 0 ta
-0.160 (ations) tb gr
18.06 82.07 (Bit inde) 90 ta
-0.480 (x) tb gr
48.47 48.47 364.04 177.03 cl
/bg { 1 0 0 srgb } def
60.16 63.95 1.78 c p2
65.11 65.14 1.78 c p2
70.06 69.90 1.78 c p2
75.02 74.66 1.78 c p2
79.97 79.42 1.78 c p2
84.92 79.42 1.78 c p2
89.87 81.80 1.78 c p2
94.83 87.75 1.78 c p2
99.78 88.94 1.78 c p2
104.73 88.94 1.78 c p2
109.68 97.28 1.78 c p2
114.64 99.66 1.78 c p2
119.59 103.23 1.78 c p2
124.54 105.61 1.78 c p2
129.49 105.61 1.78 c p2
134.45 115.13 1.78 c p2
139.40 111.56 1.78 c p2
144.35 115.13 1.78 c p2
149.30 122.28 1.78 c p2
154.26 123.47 1.78 c p2
159.21 123.47 1.78 c p2
164.16 123.47 1.78 c p2
169.11 127.04 1.78 c p2
174.06 128.23 1.78 c p2
179.02 128.23 1.78 c p2
183.97 130.61 1.78 c p2
188.92 131.80 1.78 c p2
193.87 131.80 1.78 c p2
198.83 132.99 1.78 c p2
203.78 135.37 1.78 c p2
208.73 135.37 1.78 c p2
213.68 136.56 1.78 c p2
218.64 136.56 1.78 c p2
223.59 137.75 1.78 c p2
228.54 137.75 1.78 c p2
233.49 143.70 1.78 c p2
238.45 143.70 1.78 c p2
243.40 146.08 1.78 c p2
248.35 146.08 1.78 c p2
253.30 147.27 1.78 c p2
258.26 149.65 1.78 c p2
263.21 149.65 1.78 c p2
268.16 150.84 1.78 c p2
273.11 150.84 1.78 c p2
278.07 155.61 1.78 c p2
283.02 155.61 1.78 c p2
287.97 153.23 1.78 c p2
292.92 157.99 1.78 c p2
297.88 159.18 1.78 c p2
302.83 159.18 1.78 c p2
307.78 159.18 1.78 c p2
312.73 161.56 1.78 c p2
317.69 161.56 1.78 c p2
322.64 161.56 1.78 c p2
327.59 165.13 1.78 c p2
332.54 165.13 1.78 c p2
337.50 165.13 1.78 c p2
342.45 169.89 1.78 c p2
347.40 169.89 1.78 c p2
352.35 172.27 1.78 c p2
0.4784 0.4784 0.4784 srgb
1.50 setlinewidth
[ 0.00 6.00] 0 setdash
1 setlinecap
1 setlinejoin
10.00 setmiterlimit
np
55.21 48.47 m
0 128.56 l
o
np
104.73 48.47 m
0 128.56 l
o
np
154.26 48.47 m
0 128.56 l
o
np
203.78 48.47 m
0 128.56 l
o
np
253.30 48.47 m
0 128.56 l
o
np
302.83 48.47 m
0 128.56 l
o
np
352.35 48.47 m
0 128.56 l
o
np
48.47 53.23 m
315.57 0 l
o
np
48.47 77.04 m
315.57 0 l
o
np
48.47 100.85 m
315.57 0 l
o
np
48.47 124.66 m
315.57 0 l
o
np
48.47 148.46 m
315.57 0 l
o
np
48.47 172.27 m
315.57 0 l
o
0 0 0 srgb
0.75 setlinewidth
[] 0 setdash
55.21 172.27 57.40 -42.77 r p1
65.90 158.02 2.67 c p1
65.90 143.76 2.67 c p2
/Font1 findfont 12 s
76.59 153.71 (Z) 0 0 t
76.59 139.45 (Z star) 0 0 t
432.47 48.47 748.04 177.03 cl
0 0 0 srgb
0.75 setlinewidth
[] 0 setdash
1 setlinecap
1 setlinejoin
10.00 setmiterlimit
444.16 56.80 1.78 c p1
446.72 60.37 1.78 c p1
449.28 63.95 1.78 c p1
451.85 67.52 1.78 c p1
454.41 69.90 1.78 c p1
456.97 69.90 1.78 c p1
459.54 69.90 1.78 c p1
462.10 73.47 1.78 c p1
464.66 74.66 1.78 c p1
467.23 78.23 1.78 c p1
469.79 85.37 1.78 c p1
472.35 87.75 1.78 c p1
474.92 87.75 1.78 c p1
477.48 91.32 1.78 c p1
480.04 92.52 1.78 c p1
482.61 94.90 1.78 c p1
485.17 94.90 1.78 c p1
487.73 96.09 1.78 c p1
490.29 102.04 1.78 c p1
492.86 105.61 1.78 c p1
495.42 105.61 1.78 c p1
497.98 105.61 1.78 c p1
500.55 107.99 1.78 c p1
503.11 109.18 1.78 c p1
505.67 110.37 1.78 c p1
508.24 110.37 1.78 c p1
510.80 110.37 1.78 c p1
513.36 110.37 1.78 c p1
515.93 110.37 1.78 c p1
518.49 112.75 1.78 c p1
521.05 113.94 1.78 c p1
523.61 113.94 1.78 c p1
526.18 113.94 1.78 c p1
528.74 116.32 1.78 c p1
531.30 118.70 1.78 c p1
533.87 118.70 1.78 c p1
536.43 118.70 1.78 c p1
538.99 118.70 1.78 c p1
541.56 118.70 1.78 c p1
544.12 118.70 1.78 c p1
546.68 118.70 1.78 c p1
549.25 118.70 1.78 c p1
551.81 118.70 1.78 c p1
554.37 118.70 1.78 c p1
556.94 122.28 1.78 c p1
559.50 122.28 1.78 c p1
562.06 122.28 1.78 c p1
564.62 127.04 1.78 c p1
567.19 127.04 1.78 c p1
569.75 127.04 1.78 c p1
572.31 131.80 1.78 c p1
574.88 131.80 1.78 c p1
577.44 135.37 1.78 c p1
580.00 135.37 1.78 c p1
582.57 135.37 1.78 c p1
585.13 135.37 1.78 c p1
587.69 136.56 1.78 c p1
590.26 136.56 1.78 c p1
592.82 140.13 1.78 c p1
595.38 140.13 1.78 c p1
597.95 141.32 1.78 c p1
600.51 141.32 1.78 c p1
603.07 141.32 1.78 c p1
605.63 143.70 1.78 c p1
608.20 143.70 1.78 c p1
610.76 143.70 1.78 c p1
613.32 146.08 1.78 c p1
615.89 146.08 1.78 c p1
618.45 146.08 1.78 c p1
621.01 146.08 1.78 c p1
623.58 146.08 1.78 c p1
626.14 146.08 1.78 c p1
628.70 146.08 1.78 c p1
631.27 146.08 1.78 c p1
633.83 148.46 1.78 c p1
636.39 148.46 1.78 c p1
638.96 149.65 1.78 c p1
641.52 149.65 1.78 c p1
644.08 152.04 1.78 c p1
646.64 152.04 1.78 c p1
649.21 152.04 1.78 c p1
651.77 152.04 1.78 c p1
654.33 156.80 1.78 c p1
656.90 156.80 1.78 c p1
659.46 156.80 1.78 c p1
662.02 156.80 1.78 c p1
664.59 156.80 1.78 c p1
667.15 156.80 1.78 c p1
669.71 156.80 1.78 c p1
672.28 156.80 1.78 c p1
674.84 157.99 1.78 c p1
677.40 157.99 1.78 c p1
679.97 157.99 1.78 c p1
682.53 159.18 1.78 c p1
685.09 160.37 1.78 c p1
687.65 160.37 1.78 c p1
690.22 160.37 1.78 c p1
692.78 161.56 1.78 c p1
695.34 161.56 1.78 c p1
697.91 161.56 1.78 c p1
700.47 161.56 1.78 c p1
703.03 161.56 1.78 c p1
705.60 161.56 1.78 c p1
708.16 161.56 1.78 c p1
710.72 163.94 1.78 c p1
713.29 166.32 1.78 c p1
715.85 166.32 1.78 c p1
718.41 166.32 1.78 c p1
720.98 166.32 1.78 c p1
723.54 167.51 1.78 c p1
726.10 168.70 1.78 c p1
728.66 168.70 1.78 c p1
731.23 169.89 1.78 c p1
733.79 169.89 1.78 c p1
736.35 169.89 1.78 c p1
0.00 0.00 1152.00 216.00 cl
0 0 0 srgb
0.75 setlinewidth
[] 0 setdash
1 setlinecap
1 setlinejoin
10.00 setmiterlimit
np
441.60 48.47 m
256.31 0 l
o
np
441.60 48.47 m
0 3.86 l
o
np
492.86 48.47 m
0 3.86 l
o
np
544.12 48.47 m
0 3.86 l
o
np
595.38 48.47 m
0 3.86 l
o
np
646.64 48.47 m
0 3.86 l
o
np
697.91 48.47 m
0 3.86 l
o
/Font1 findfont 16 s
441.60 31.36 (0) .5 0 t
492.86 31.36 (20) .5 0 t
544.12 31.36 (40) .5 0 t
595.38 31.36 (60) .5 0 t
646.64 31.36 (80) .5 0 t
697.91 31.36 (100) .5 0 t
np
432.47 53.23 m
0 119.04 l
o
np
432.47 53.23 m
3.86 0 l
o
np
432.47 77.04 m
3.86 0 l
o
np
432.47 100.85 m
3.86 0 l
o
np
432.47 124.66 m
3.86 0 l
o
np
432.47 148.46 m
3.86 0 l
o
np
432.47 172.27 m
3.86 0 l
o
421.07 53.23 (0) .5 90 t
421.07 100.85 (40) .5 90 t
421.07 148.46 (80) .5 90 t
np
432.47 48.47 m
315.57 0 l
0 128.56 l
-315.57 0 l
0 -128.56 l
o
384.00 0.00 768.00 216.00 cl
/Font2 findfont 16 s
0 0 0 srgb
499.58 190.77 (Medium population siz) 0 ta
0.160 (e) tb gr
/Font1 findfont 16 s
557.35 12.36 (Iter) 0 ta
-0.160 (ations) tb gr
402.06 82.07 (Bit inde) 90 ta
-0.480 (x) tb gr
432.47 48.47 748.04 177.03 cl
/bg { 1 0 0 srgb } def
444.16 60.37 1.78 c p2
446.72 67.52 1.78 c p2
449.28 68.71 1.78 c p2
451.85 69.90 1.78 c p2
454.41 69.90 1.78 c p2
456.97 73.47 1.78 c p2
459.54 73.47 1.78 c p2
462.10 75.85 1.78 c p2
464.66 78.23 1.78 c p2
467.23 87.75 1.78 c p2
469.79 87.75 1.78 c p2
472.35 91.32 1.78 c p2
474.92 91.32 1.78 c p2
477.48 94.90 1.78 c p2
480.04 94.90 1.78 c p2
482.61 94.90 1.78 c p2
485.17 99.66 1.78 c p2
487.73 102.04 1.78 c p2
490.29 105.61 1.78 c p2
492.86 105.61 1.78 c p2
495.42 105.61 1.78 c p2
497.98 107.99 1.78 c p2
500.55 110.37 1.78 c p2
503.11 110.37 1.78 c p2
505.67 110.37 1.78 c p2
508.24 110.37 1.78 c p2
510.80 110.37 1.78 c p2
513.36 112.75 1.78 c p2
515.93 112.75 1.78 c p2
518.49 113.94 1.78 c p2
521.05 113.94 1.78 c p2
523.61 116.32 1.78 c p2
526.18 116.32 1.78 c p2
528.74 118.70 1.78 c p2
531.30 118.70 1.78 c p2
533.87 118.70 1.78 c p2
536.43 118.70 1.78 c p2
538.99 118.70 1.78 c p2
541.56 118.70 1.78 c p2
544.12 118.70 1.78 c p2
546.68 118.70 1.78 c p2
549.25 118.70 1.78 c p2
551.81 118.70 1.78 c p2
554.37 122.28 1.78 c p2
556.94 122.28 1.78 c p2
559.50 127.04 1.78 c p2
562.06 127.04 1.78 c p2
564.62 127.04 1.78 c p2
567.19 131.80 1.78 c p2
569.75 131.80 1.78 c p2
572.31 135.37 1.78 c p2
574.88 135.37 1.78 c p2
577.44 135.37 1.78 c p2
580.00 135.37 1.78 c p2
582.57 136.56 1.78 c p2
585.13 136.56 1.78 c p2
587.69 140.13 1.78 c p2
590.26 141.32 1.78 c p2
592.82 141.32 1.78 c p2
595.38 141.32 1.78 c p2
597.95 141.32 1.78 c p2
600.51 143.70 1.78 c p2
603.07 143.70 1.78 c p2
605.63 143.70 1.78 c p2
608.20 146.08 1.78 c p2
610.76 146.08 1.78 c p2
613.32 146.08 1.78 c p2
615.89 146.08 1.78 c p2
618.45 146.08 1.78 c p2
621.01 146.08 1.78 c p2
623.58 146.08 1.78 c p2
626.14 146.08 1.78 c p2
628.70 148.46 1.78 c p2
631.27 148.46 1.78 c p2
633.83 149.65 1.78 c p2
636.39 149.65 1.78 c p2
638.96 152.04 1.78 c p2
641.52 152.04 1.78 c p2
644.08 152.04 1.78 c p2
646.64 152.04 1.78 c p2
649.21 156.80 1.78 c p2
651.77 156.80 1.78 c p2
654.33 156.80 1.78 c p2
656.90 156.80 1.78 c p2
659.46 156.80 1.78 c p2
662.02 156.80 1.78 c p2
664.59 156.80 1.78 c p2
667.15 156.80 1.78 c p2
669.71 157.99 1.78 c p2
672.28 157.99 1.78 c p2
674.84 157.99 1.78 c p2
677.40 159.18 1.78 c p2
679.97 159.18 1.78 c p2
682.53 160.37 1.78 c p2
685.09 160.37 1.78 c p2
687.65 161.56 1.78 c p2
690.22 161.56 1.78 c p2
692.78 161.56 1.78 c p2
695.34 161.56 1.78 c p2
697.91 161.56 1.78 c p2
700.47 161.56 1.78 c p2
703.03 161.56 1.78 c p2
705.60 163.94 1.78 c p2
708.16 166.32 1.78 c p2
710.72 166.32 1.78 c p2
713.29 166.32 1.78 c p2
715.85 166.32 1.78 c p2
718.41 167.51 1.78 c p2
720.98 168.70 1.78 c p2
723.54 168.70 1.78 c p2
726.10 169.89 1.78 c p2
728.66 169.89 1.78 c p2
731.23 169.89 1.78 c p2
733.79 169.89 1.78 c p2
736.35 172.27 1.78 c p2
0.4784 0.4784 0.4784 srgb
1.50 setlinewidth
[ 0.00 6.00] 0 setdash
1 setlinecap
1 setlinejoin
10.00 setmiterlimit
np
441.60 48.47 m
0 128.56 l
o
np
492.86 48.47 m
0 128.56 l
o
np
544.12 48.47 m
0 128.56 l
o
np
595.38 48.47 m
0 128.56 l
o
np
646.64 48.47 m
0 128.56 l
o
np
697.91 48.47 m
0 128.56 l
o
np
432.47 53.23 m
315.57 0 l
o
np
432.47 77.04 m
315.57 0 l
o
np
432.47 100.85 m
315.57 0 l
o
np
432.47 124.66 m
315.57 0 l
o
np
432.47 148.46 m
315.57 0 l
o
np
432.47 172.27 m
315.57 0 l
o
0 0 0 srgb
0.75 setlinewidth
[] 0 setdash
441.60 172.27 57.40 -42.77 r p1
452.29 158.02 2.67 c p1
452.29 143.76 2.67 c p2
/Font1 findfont 12 s
462.98 153.71 (Z) 0 0 t
462.98 139.45 (Z star) 0 0 t
816.47 48.47 1132.04 177.03 cl
0 0 0 srgb
0.75 setlinewidth
[] 0 setdash
1 setlinecap
1 setlinejoin
10.00 setmiterlimit
828.16 56.80 1.78 c p1
834.00 60.37 1.78 c p1
839.85 63.95 1.78 c p1
845.69 67.52 1.78 c p1
851.53 71.09 1.78 c p1
857.38 74.66 1.78 c p1
863.22 78.23 1.78 c p1
869.07 81.80 1.78 c p1
874.91 85.37 1.78 c p1
880.75 88.94 1.78 c p1
886.60 92.52 1.78 c p1
892.44 93.71 1.78 c p1
898.29 98.47 1.78 c p1
904.13 103.23 1.78 c p1
909.97 106.80 1.78 c p1
915.82 110.37 1.78 c p1
921.66 112.75 1.78 c p1
927.50 115.13 1.78 c p1
933.35 117.51 1.78 c p1
939.19 119.89 1.78 c p1
945.04 122.28 1.78 c p1
950.88 125.85 1.78 c p1
956.72 128.23 1.78 c p1
962.57 129.42 1.78 c p1
968.41 131.80 1.78 c p1
974.26 135.37 1.78 c p1
980.10 138.94 1.78 c p1
985.94 140.13 1.78 c p1
991.79 141.32 1.78 c p1
997.63 143.70 1.78 c p1
1003.48 143.70 1.78 c p1
1009.32 143.70 1.78 c p1
1015.16 144.89 1.78 c p1
1021.01 147.27 1.78 c p1
1026.85 153.23 1.78 c p1
1032.70 154.42 1.78 c p1
1038.54 156.80 1.78 c p1
1044.38 156.80 1.78 c p1
1050.23 159.18 1.78 c p1
1056.07 161.56 1.78 c p1
1061.91 162.75 1.78 c p1
1067.76 162.75 1.78 c p1
1073.60 163.94 1.78 c p1
1079.45 163.94 1.78 c p1
1085.29 163.94 1.78 c p1
1091.13 165.13 1.78 c p1
1096.98 166.32 1.78 c p1
1102.82 166.32 1.78 c p1
1108.67 166.32 1.78 c p1
1114.51 166.32 1.78 c p1
1120.35 169.89 1.78 c p1
0.00 0.00 1152.00 216.00 cl
0 0 0 srgb
0.75 setlinewidth
[] 0 setdash
1 setlinecap
1 setlinejoin
10.00 setmiterlimit
np
822.31 48.47 m
292.20 0 l
o
np
822.31 48.47 m
0 3.86 l
o
np
880.75 48.47 m
0 3.86 l
o
np
939.19 48.47 m
0 3.86 l
o
np
997.63 48.47 m
0 3.86 l
o
np
1056.07 48.47 m
0 3.86 l
o
np
1114.51 48.47 m
0 3.86 l
o
/Font1 findfont 16 s
822.31 31.36 (0) .5 0 t
880.75 31.36 (10) .5 0 t
939.19 31.36 (20) .5 0 t
997.63 31.36 (30) .5 0 t
1056.07 31.36 (40) .5 0 t
1114.51 31.36 (50) .5 0 t
np
816.47 53.23 m
0 119.04 l
o
np
816.47 53.23 m
3.86 0 l
o
np
816.47 77.04 m
3.86 0 l
o
np
816.47 100.85 m
3.86 0 l
o
np
816.47 124.66 m
3.86 0 l
o
np
816.47 148.46 m
3.86 0 l
o
np
816.47 172.27 m
3.86 0 l
o
805.07 53.23 (0) .5 90 t
805.07 100.85 (40) .5 90 t
805.07 148.46 (80) .5 90 t
np
816.47 48.47 m
315.57 0 l
0 128.56 l
-315.57 0 l
0 -128.56 l
o
768.00 0.00 1152.00 216.00 cl
/Font2 findfont 16 s
0 0 0 srgb
892.02 190.77 (Lar) 0 ta
-0.240 (g) tb
0.160 (e population siz) tb
0.160 (e) tb gr
/Font1 findfont 16 s
941.35 12.36 (Iter) 0 ta
-0.160 (ations) tb gr
786.06 82.07 (Bit inde) 90 ta
-0.480 (x) tb gr
816.47 48.47 1132.04 177.03 cl
/bg { 1 0 0 srgb } def
828.16 65.14 1.78 c p2
834.00 67.52 1.78 c p2
839.85 73.47 1.78 c p2
845.69 78.23 1.78 c p2
851.53 79.42 1.78 c p2
857.38 85.37 1.78 c p2
863.22 90.13 1.78 c p2
869.07 92.52 1.78 c p2
874.91 92.52 1.78 c p2
880.75 93.71 1.78 c p2
886.60 99.66 1.78 c p2
892.44 105.61 1.78 c p2
898.29 105.61 1.78 c p2
904.13 111.56 1.78 c p2
909.97 117.51 1.78 c p2
915.82 119.89 1.78 c p2
921.66 119.89 1.78 c p2
927.50 128.23 1.78 c p2
933.35 125.85 1.78 c p2
939.19 125.85 1.78 c p2
945.04 130.61 1.78 c p2
950.88 130.61 1.78 c p2
956.72 138.94 1.78 c p2
962.57 137.75 1.78 c p2
968.41 140.13 1.78 c p2
974.26 141.32 1.78 c p2
980.10 143.70 1.78 c p2
985.94 143.70 1.78 c p2
991.79 148.46 1.78 c p2
997.63 148.46 1.78 c p2
1003.48 149.65 1.78 c p2
1009.32 153.23 1.78 c p2
1015.16 156.80 1.78 c p2
1021.01 156.80 1.78 c p2
1026.85 156.80 1.78 c p2
1032.70 157.99 1.78 c p2
1038.54 161.56 1.78 c p2
1044.38 163.94 1.78 c p2
1050.23 165.13 1.78 c p2
1056.07 163.94 1.78 c p2
1061.91 166.32 1.78 c p2
1067.76 163.94 1.78 c p2
1073.60 166.32 1.78 c p2
1079.45 166.32 1.78 c p2
1085.29 168.70 1.78 c p2
1091.13 167.51 1.78 c p2
1096.98 171.08 1.78 c p2
1102.82 171.08 1.78 c p2
1108.67 171.08 1.78 c p2
1114.51 171.08 1.78 c p2
1120.35 172.27 1.78 c p2
0.4784 0.4784 0.4784 srgb
1.50 setlinewidth
[ 0.00 6.00] 0 setdash
1 setlinecap
1 setlinejoin
10.00 setmiterlimit
np
822.31 48.47 m
0 128.56 l
o
np
880.75 48.47 m
0 128.56 l
o
np
939.19 48.47 m
0 128.56 l
o
np
997.63 48.47 m
0 128.56 l
o
np
1056.07 48.47 m
0 128.56 l
o
np
1114.51 48.47 m
0 128.56 l
o
np
816.47 53.23 m
315.57 0 l
o
np
816.47 77.04 m
315.57 0 l
o
np
816.47 100.85 m
315.57 0 l
o
np
816.47 124.66 m
315.57 0 l
o
np
816.47 148.46 m
315.57 0 l
o
np
816.47 172.27 m
315.57 0 l
o
0 0 0 srgb
0.75 setlinewidth
[] 0 setdash
822.31 172.27 57.40 -42.77 r p1
833.01 158.02 2.67 c p1
833.01 143.76 2.67 c p2
/Font1 findfont 12 s
843.70 153.71 (Z) 0 0 t
843.70 139.45 (Z star) 0 0 t
ep
%%Trailer
%%Pages: 1
%%EOF
