%!PS-Adobe-3.0 EPSF-3.0
%%DocumentNeededResources: font Helvetica
%%+ font Helvetica-Bold
%%+ font Helvetica-Oblique
%%+ font Helvetica-BoldOblique
%%+ font Symbol
%%Title: R Graphics Output
%%Creator: R Software
%%Pages: (atend)
%%BoundingBox: 0 0 1008 504
%%EndComments
%%BeginProlog
/bp  { gs sRGB gs } def
% begin .ps.prolog
/gs  { gsave } bind def
/gr  { grestore } bind def
/ep  { showpage gr gr } bind def
/m   { moveto } bind def
/l  { rlineto } bind def
/np  { newpath } bind def
/cp  { closepath } bind def
/f   { fill } bind def
/o   { stroke } bind def
/c   { newpath 0 360 arc } bind def
/r   { 4 2 roll moveto 1 copy 3 -1 roll exch 0 exch rlineto 0 rlineto -1 mul 0 exch rlineto closepath } bind def
/p1  { stroke } bind def
/p2  { gsave bg fill grestore newpath } bind def
/p3  { gsave bg fill grestore stroke } bind def
/p6  { gsave bg eofill grestore newpath } bind def
/p7  { gsave bg eofill grestore stroke } bind def
/t   { 5 -2 roll moveto gsave rotate
       1 index stringwidth pop
       mul neg 0 rmoveto show grestore } bind def
/ta  { 4 -2 roll moveto gsave rotate show } bind def
/tb  { 2 -1 roll 0 rmoveto show } bind def
/cl  { grestore gsave newpath 3 index 3 index moveto 1 index
       4 -1 roll lineto  exch 1 index lineto lineto
       closepath clip newpath } bind def
/rgb { setrgbcolor } bind def
/s   { scalefont setfont } bind def
% end   .ps.prolog
/sRGB { [ /CIEBasedABC
          << /DecodeLMN
               [ { dup 0.03928 le
                        {12.92321 div}
                        {0.055 add 1.055 div 2.4 exp }
                     ifelse
                 } bind dup dup
               ]
             /MatrixLMN [0.412457 0.212673 0.019334
                         0.357576 0.715152 0.119192
                         0.180437 0.072175 0.950301]
             /WhitePoint [0.9505 1.0 1.0890]
           >>
         ] setcolorspace } bind def
/srgb { setcolor } bind def
%%IncludeResource: font Helvetica
/Helvetica findfont
dup length dict begin
  {1 index /FID ne {def} {pop pop} ifelse} forall
  /Encoding ISOLatin1Encoding def
  currentdict
  end
/Font1 exch definefont pop
%%IncludeResource: font Helvetica-Bold
/Helvetica-Bold findfont
dup length dict begin
  {1 index /FID ne {def} {pop pop} ifelse} forall
  /Encoding ISOLatin1Encoding def
  currentdict
  end
/Font2 exch definefont pop
%%IncludeResource: font Helvetica-Oblique
/Helvetica-Oblique findfont
dup length dict begin
  {1 index /FID ne {def} {pop pop} ifelse} forall
  /Encoding ISOLatin1Encoding def
  currentdict
  end
/Font3 exch definefont pop
%%IncludeResource: font Helvetica-BoldOblique
/Helvetica-BoldOblique findfont
dup length dict begin
  {1 index /FID ne {def} {pop pop} ifelse} forall
  /Encoding ISOLatin1Encoding def
  currentdict
  end
/Font4 exch definefont pop
%%IncludeResource: font Symbol
/Symbol findfont
dup length dict begin
  {1 index /FID ne {def} {pop pop} ifelse} forall
  currentdict
  end
/Font5 exch definefont pop
%%EndProlog
%%Page: 1 1
bp
73.44 73.44 977.76 444.96 cl
/bg { 1 0 0 srgb } def
np
 111.12 426.30 m
33.49 0 l
0 2.09 l
-33.49 0 l
cp p2
0 0 0 srgb
2.25 setlinewidth
[] 0 setdash
0 setlinecap
1 setlinejoin
10.00 setmiterlimit
np
111.12 427.57 m
33.49 0 l
o
0.75 setlinewidth
[ 2.25 3.75] 0 setdash
1 setlinecap
np
127.87 423.23 m
0 3.07 l
o
np
127.87 431.20 m
0 -2.81 l
o
0.75 setlinewidth
[] 0 setdash
np
119.49 423.23 m
16.75 0 l
o
np
119.49 431.20 m
16.75 0 l
o
np
111.12 426.30 m
33.49 0 l
0 2.09 l
-33.49 0 l
0 -2.09 l
o
127.87 420.92 2.70 c p1
127.87 422.32 2.70 c p1
np
 152.99 326.25 m
33.49 0 l
0 2.56 l
-33.49 0 l
cp p2
2.25 setlinewidth
[] 0 setdash
0 setlinecap
np
152.99 327.54 m
33.49 0 l
o
0.75 setlinewidth
[ 2.25 3.75] 0 setdash
1 setlinecap
np
169.73 322.87 m
0 3.38 l
o
np
169.73 332.44 m
0 -3.63 l
o
0.75 setlinewidth
[] 0 setdash
np
161.36 322.87 m
16.75 0 l
o
np
161.36 332.44 m
16.75 0 l
o
np
152.99 326.25 m
33.49 0 l
0 2.56 l
-33.49 0 l
0 -2.56 l
o
169.73 319.27 2.70 c p1
np
 194.85 269.86 m
33.50 0 l
0 3.15 l
-33.50 0 l
cp p2
2.25 setlinewidth
[] 0 setdash
0 setlinecap
np
194.85 271.46 m
33.50 0 l
o
0.75 setlinewidth
[ 2.25 3.75] 0 setdash
1 setlinecap
np
211.60 266.52 m
0 3.34 l
o
np
211.60 277.42 m
0 -4.41 l
o
0.75 setlinewidth
[] 0 setdash
np
203.23 266.52 m
16.74 0 l
o
np
203.23 277.42 m
16.74 0 l
o
np
194.85 269.86 m
33.50 0 l
0 3.15 l
-33.50 0 l
0 -3.15 l
o
211.60 262.04 2.70 c p1
211.60 278.81 2.70 c p1
211.60 263.87 2.70 c p1
np
 236.72 231.49 m
33.49 0 l
0 4.38 l
-33.49 0 l
cp p2
2.25 setlinewidth
[] 0 setdash
0 setlinecap
np
236.72 233.73 m
33.49 0 l
o
0.75 setlinewidth
[ 2.25 3.75] 0 setdash
1 setlinecap
np
253.47 225.23 m
0 6.26 l
o
np
253.47 241.08 m
0 -5.21 l
o
0.75 setlinewidth
[] 0 setdash
np
245.09 225.23 m
16.75 0 l
o
np
245.09 241.08 m
16.75 0 l
o
np
236.72 231.49 m
33.49 0 l
0 4.38 l
-33.49 0 l
0 -4.38 l
o
253.47 222.09 2.70 c p1
np
 278.59 203.37 m
33.49 0 l
0 5.52 l
-33.49 0 l
cp p2
2.25 setlinewidth
[] 0 setdash
0 setlinecap
np
278.59 207.11 m
33.49 0 l
o
0.75 setlinewidth
[ 2.25 3.75] 0 setdash
1 setlinecap
np
295.33 196.15 m
0 7.22 l
o
np
295.33 217.00 m
0 -8.11 l
o
0.75 setlinewidth
[] 0 setdash
np
286.96 196.15 m
16.75 0 l
o
np
286.96 217.00 m
16.75 0 l
o
np
278.59 203.37 m
33.49 0 l
0 5.52 l
-33.49 0 l
0 -5.52 l
o
295.33 191.56 2.70 c p1
295.33 218.49 2.70 c p1
295.33 219.22 2.70 c p1
np
 320.45 183.54 m
33.50 0 l
0 7.24 l
-33.50 0 l
cp p2
2.25 setlinewidth
[] 0 setdash
0 setlinecap
np
320.45 187.72 m
33.50 0 l
o
0.75 setlinewidth
[ 2.25 3.75] 0 setdash
1 setlinecap
np
337.20 175.21 m
0 8.33 l
o
np
337.20 200.11 m
0 -9.33 l
o
0.75 setlinewidth
[] 0 setdash
np
328.83 175.21 m
16.74 0 l
o
np
328.83 200.11 m
16.74 0 l
o
np
320.45 183.54 m
33.50 0 l
0 7.24 l
-33.50 0 l
0 -7.24 l
o
np
 362.32 165.97 m
33.49 0 l
0 8.56 l
-33.49 0 l
cp p2
2.25 setlinewidth
[] 0 setdash
0 setlinecap
np
362.32 170.19 m
33.49 0 l
o
0.75 setlinewidth
[ 2.25 3.75] 0 setdash
1 setlinecap
np
379.07 155.83 m
0 10.14 l
o
np
379.07 186.49 m
0 -11.96 l
o
0.75 setlinewidth
[] 0 setdash
np
370.69 155.83 m
16.75 0 l
o
np
370.69 186.49 m
16.75 0 l
o
np
362.32 165.97 m
33.49 0 l
0 8.56 l
-33.49 0 l
0 -8.56 l
o
379.07 148.30 2.70 c p1
np
 404.19 154.34 m
33.49 0 l
0 10.65 l
-33.49 0 l
cp p2
2.25 setlinewidth
[] 0 setdash
0 setlinecap
np
404.19 159.51 m
33.49 0 l
o
0.75 setlinewidth
[ 2.25 3.75] 0 setdash
1 setlinecap
np
420.93 139.98 m
0 14.36 l
o
np
420.93 176.98 m
0 -11.99 l
o
0.75 setlinewidth
[] 0 setdash
np
412.56 139.98 m
16.75 0 l
o
np
412.56 176.98 m
16.75 0 l
o
np
404.19 154.34 m
33.49 0 l
0 10.65 l
-33.49 0 l
0 -10.65 l
o
420.93 183.20 2.70 c p1
np
 446.05 145.96 m
33.50 0 l
0 8.79 l
-33.50 0 l
cp p2
2.25 setlinewidth
[] 0 setdash
0 setlinecap
np
446.05 151.85 m
33.50 0 l
o
0.75 setlinewidth
[ 2.25 3.75] 0 setdash
1 setlinecap
np
462.80 133.46 m
0 12.50 l
o
np
462.80 166.76 m
0 -12.01 l
o
0.75 setlinewidth
[] 0 setdash
np
454.43 133.46 m
16.74 0 l
o
np
454.43 166.76 m
16.74 0 l
o
np
446.05 145.96 m
33.50 0 l
0 8.79 l
-33.50 0 l
0 -8.79 l
o
462.80 130.25 2.70 c p1
462.80 168.99 2.70 c p1
462.80 173.69 2.70 c p1
np
 487.92 138.96 m
33.49 0 l
0 12.52 l
-33.49 0 l
cp p2
2.25 setlinewidth
[] 0 setdash
0 setlinecap
np
487.92 145.07 m
33.49 0 l
o
0.75 setlinewidth
[ 2.25 3.75] 0 setdash
1 setlinecap
np
504.67 123.74 m
0 15.22 l
o
np
504.67 163.89 m
0 -12.41 l
o
0.75 setlinewidth
[] 0 setdash
np
496.29 123.74 m
16.75 0 l
o
np
496.29 163.89 m
16.75 0 l
o
np
487.92 138.96 m
33.49 0 l
0 12.52 l
-33.49 0 l
0 -12.52 l
o
np
 529.79 134.10 m
33.49 0 l
0 10.66 l
-33.49 0 l
cp p2
2.25 setlinewidth
[] 0 setdash
0 setlinecap
np
529.79 139.23 m
33.49 0 l
o
0.75 setlinewidth
[ 2.25 3.75] 0 setdash
1 setlinecap
np
546.53 120.45 m
0 13.65 l
o
np
546.53 156.88 m
0 -12.12 l
o
0.75 setlinewidth
[] 0 setdash
np
538.16 120.45 m
16.75 0 l
o
np
538.16 156.88 m
16.75 0 l
o
np
529.79 134.10 m
33.49 0 l
0 10.66 l
-33.49 0 l
0 -10.66 l
o
546.53 161.16 2.70 c p1
546.53 107.94 2.70 c p1
546.53 117.80 2.70 c p1
np
 571.65 128.86 m
33.50 0 l
0 11.97 l
-33.50 0 l
cp p2
2.25 setlinewidth
[] 0 setdash
0 setlinecap
np
571.65 135.31 m
33.50 0 l
o
0.75 setlinewidth
[ 2.25 3.75] 0 setdash
1 setlinecap
np
588.40 115.25 m
0 13.61 l
o
np
588.40 147.26 m
0 -6.43 l
o
0.75 setlinewidth
[] 0 setdash
np
580.03 115.25 m
16.74 0 l
o
np
580.03 147.26 m
16.74 0 l
o
np
571.65 128.86 m
33.50 0 l
0 11.97 l
-33.50 0 l
0 -11.97 l
o
np
 613.52 126.39 m
33.49 0 l
0 11.75 l
-33.49 0 l
cp p2
2.25 setlinewidth
[] 0 setdash
0 setlinecap
np
613.52 132.09 m
33.49 0 l
o
0.75 setlinewidth
[ 2.25 3.75] 0 setdash
1 setlinecap
np
630.27 111.45 m
0 14.94 l
o
np
630.27 151.74 m
0 -13.60 l
o
0.75 setlinewidth
[] 0 setdash
np
621.89 111.45 m
16.75 0 l
o
np
621.89 151.74 m
16.75 0 l
o
np
613.52 126.39 m
33.49 0 l
0 11.75 l
-33.49 0 l
0 -11.75 l
o
630.27 106.20 2.70 c p1
630.27 106.98 2.70 c p1
np
 655.39 122.14 m
33.49 0 l
0 12.30 l
-33.49 0 l
cp p2
2.25 setlinewidth
[] 0 setdash
0 setlinecap
np
655.39 128.99 m
33.49 0 l
o
0.75 setlinewidth
[ 2.25 3.75] 0 setdash
1 setlinecap
np
672.13 105.20 m
0 16.94 l
o
np
672.13 148.64 m
0 -14.20 l
o
0.75 setlinewidth
[] 0 setdash
np
663.76 105.20 m
16.75 0 l
o
np
663.76 148.64 m
16.75 0 l
o
np
655.39 122.14 m
33.49 0 l
0 12.30 l
-33.49 0 l
0 -12.30 l
o
672.13 153.74 2.70 c p1
np
 697.25 119.81 m
33.50 0 l
0 11.41 l
-33.50 0 l
cp p2
2.25 setlinewidth
[] 0 setdash
0 setlinecap
np
697.25 125.71 m
33.50 0 l
o
0.75 setlinewidth
[ 2.25 3.75] 0 setdash
1 setlinecap
np
714.00 105.40 m
0 14.41 l
o
np
714.00 145.93 m
0 -14.71 l
o
0.75 setlinewidth
[] 0 setdash
np
705.63 105.40 m
16.74 0 l
o
np
705.63 145.93 m
16.74 0 l
o
np
697.25 119.81 m
33.50 0 l
0 11.41 l
-33.50 0 l
0 -11.41 l
o
714.00 101.69 2.70 c p1
np
 739.12 119.63 m
33.49 0 l
0 14.07 l
-33.49 0 l
cp p2
2.25 setlinewidth
[] 0 setdash
0 setlinecap
np
739.12 125.11 m
33.49 0 l
o
0.75 setlinewidth
[ 2.25 3.75] 0 setdash
1 setlinecap
np
755.87 104.60 m
0 15.03 l
o
np
755.87 146.94 m
0 -13.24 l
o
0.75 setlinewidth
[] 0 setdash
np
747.49 104.60 m
16.75 0 l
o
np
747.49 146.94 m
16.75 0 l
o
np
739.12 119.63 m
33.49 0 l
0 14.07 l
-33.49 0 l
0 -14.07 l
o
np
 780.99 119.22 m
33.49 0 l
0 11.71 l
-33.49 0 l
cp p2
2.25 setlinewidth
[] 0 setdash
0 setlinecap
np
780.99 126.03 m
33.49 0 l
o
0.75 setlinewidth
[ 2.25 3.75] 0 setdash
1 setlinecap
np
797.73 104.80 m
0 14.42 l
o
np
797.73 143.69 m
0 -12.76 l
o
0.75 setlinewidth
[] 0 setdash
np
789.36 104.80 m
16.75 0 l
o
np
789.36 143.69 m
16.75 0 l
o
np
780.99 119.22 m
33.49 0 l
0 11.71 l
-33.49 0 l
0 -11.71 l
o
797.73 87.20 2.70 c p1
np
 822.85 119.43 m
33.50 0 l
0 11.67 l
-33.50 0 l
cp p2
2.25 setlinewidth
[] 0 setdash
0 setlinecap
np
822.85 125.85 m
33.50 0 l
o
0.75 setlinewidth
[ 2.25 3.75] 0 setdash
1 setlinecap
np
839.60 109.63 m
0 9.80 l
o
np
839.60 148.18 m
0 -17.08 l
o
0.75 setlinewidth
[] 0 setdash
np
831.23 109.63 m
16.74 0 l
o
np
831.23 148.18 m
16.74 0 l
o
np
822.85 119.43 m
33.50 0 l
0 11.67 l
-33.50 0 l
0 -11.67 l
o
839.60 96.31 2.70 c p1
839.60 96.31 2.70 c p1
np
 864.72 117.86 m
33.49 0 l
0 11.71 l
-33.49 0 l
cp p2
2.25 setlinewidth
[] 0 setdash
0 setlinecap
np
864.72 123.31 m
33.49 0 l
o
0.75 setlinewidth
[ 2.25 3.75] 0 setdash
1 setlinecap
np
881.47 104.60 m
0 13.26 l
o
np
881.47 143.59 m
0 -14.02 l
o
0.75 setlinewidth
[] 0 setdash
np
873.09 104.60 m
16.75 0 l
o
np
873.09 143.59 m
16.75 0 l
o
np
864.72 117.86 m
33.49 0 l
0 11.71 l
-33.49 0 l
0 -11.71 l
o
np
 906.59 115.66 m
33.49 0 l
0 15.54 l
-33.49 0 l
cp p2
2.25 setlinewidth
[] 0 setdash
0 setlinecap
np
906.59 125.27 m
33.49 0 l
o
0.75 setlinewidth
[ 2.25 3.75] 0 setdash
1 setlinecap
np
923.33 95.36 m
0 20.30 l
o
np
923.33 153.29 m
0 -22.09 l
o
0.75 setlinewidth
[] 0 setdash
np
914.96 95.36 m
16.75 0 l
o
np
914.96 153.29 m
16.75 0 l
o
np
906.59 115.66 m
33.49 0 l
0 15.54 l
-33.49 0 l
0 -15.54 l
o
0.00 0.00 1008.00 504.00 cl
0 0 0 srgb
0.75 setlinewidth
[] 0 setdash
1 setlinecap
1 setlinejoin
10.00 setmiterlimit
np
127.87 73.44 m
795.46 0 l
o
np
127.87 73.44 m
0 -7.20 l
o
np
169.73 73.44 m
0 -7.20 l
o
np
211.60 73.44 m
0 -7.20 l
o
np
253.47 73.44 m
0 -7.20 l
o
np
295.33 73.44 m
0 -7.20 l
o
np
337.20 73.44 m
0 -7.20 l
o
np
379.07 73.44 m
0 -7.20 l
o
np
420.93 73.44 m
0 -7.20 l
o
np
462.80 73.44 m
0 -7.20 l
o
np
504.67 73.44 m
0 -7.20 l
o
np
546.53 73.44 m
0 -7.20 l
o
np
588.40 73.44 m
0 -7.20 l
o
np
630.27 73.44 m
0 -7.20 l
o
np
672.13 73.44 m
0 -7.20 l
o
np
714.00 73.44 m
0 -7.20 l
o
np
755.87 73.44 m
0 -7.20 l
o
np
797.73 73.44 m
0 -7.20 l
o
np
839.60 73.44 m
0 -7.20 l
o
np
881.47 73.44 m
0 -7.20 l
o
np
923.33 73.44 m
0 -7.20 l
o
/Font1 findfont 24 s
127.87 47.52 (0.05) .5 0 t
211.60 47.52 (0.15) .5 0 t
295.33 47.52 (0.25) .5 0 t
379.07 47.52 (0.35) .5 0 t
462.80 47.52 (0.45) .5 0 t
546.53 47.52 (0.55) .5 0 t
630.27 47.52 (0.65) .5 0 t
714.00 47.52 (0.75) .5 0 t
797.73 47.52 (0.85) .5 0 t
881.47 47.52 (0.95) .5 0 t
np
73.44 143.00 m
0 229.11 l
o
np
73.44 143.00 m
-7.20 0 l
o
np
73.44 219.37 m
-7.20 0 l
o
np
73.44 295.74 m
-7.20 0 l
o
np
73.44 372.11 m
-7.20 0 l
o
56.16 143.00 (14) .5 90 t
56.16 219.37 (16) .5 90 t
56.16 295.74 (18) .5 90 t
56.16 372.11 (20) .5 90 t
0.00 0.00 1008.00 504.00 cl
/Font1 findfont 24 s
0 0 0 srgb
408.89 18.72 (Smoothing P) 0 ta
-0.960 (ar) tb
-0.240 (ameter) tb gr
27.36 72.46 (Log Number of Fitness Ev) 90 ta
-0.600 (aluations) tb gr
0.00 0.00 1008.00 504.00 cl
0 0 0 srgb
0.75 setlinewidth
[] 0 setdash
1 setlinecap
1 setlinejoin
10.00 setmiterlimit
np
73.44 73.44 m
904.32 0 l
0 371.52 l
-904.32 0 l
0 -371.52 l
o
73.44 73.44 977.76 444.96 cl
0.4784 0.4784 0.4784 srgb
1.50 setlinewidth
[ 0.00 6.00] 0 setdash
1 setlinecap
1 setlinejoin
10.00 setmiterlimit
np
86.00 73.44 m
0 371.52 l
o
np
295.33 73.44 m
0 371.52 l
o
np
504.67 73.44 m
0 371.52 l
o
np
714.00 73.44 m
0 371.52 l
o
np
923.33 73.44 m
0 371.52 l
o
np
73.44 143.00 m
904.32 0 l
o
np
73.44 219.37 m
904.32 0 l
o
np
73.44 295.74 m
904.32 0 l
o
np
73.44 372.11 m
904.32 0 l
o
ep
%%Trailer
%%Pages: 1
%%EOF
