%!PS-Adobe-3.0 EPSF-3.0
%%DocumentNeededResources: font Helvetica
%%+ font Helvetica-Bold
%%+ font Helvetica-Oblique
%%+ font Helvetica-BoldOblique
%%+ font Symbol
%%Title: R Graphics Output
%%Creator: R Software
%%Pages: (atend)
%%BoundingBox: 0 0 1008 504
%%EndComments
%%BeginProlog
/bp  { gs sRGB gs } def
% begin .ps.prolog
/gs  { gsave } bind def
/gr  { grestore } bind def
/ep  { showpage gr gr } bind def
/m   { moveto } bind def
/l  { rlineto } bind def
/np  { newpath } bind def
/cp  { closepath } bind def
/f   { fill } bind def
/o   { stroke } bind def
/c   { newpath 0 360 arc } bind def
/r   { 4 2 roll moveto 1 copy 3 -1 roll exch 0 exch rlineto 0 rlineto -1 mul 0 exch rlineto closepath } bind def
/p1  { stroke } bind def
/p2  { gsave bg fill grestore newpath } bind def
/p3  { gsave bg fill grestore stroke } bind def
/p6  { gsave bg eofill grestore newpath } bind def
/p7  { gsave bg eofill grestore stroke } bind def
/t   { 5 -2 roll moveto gsave rotate
       1 index stringwidth pop
       mul neg 0 rmoveto show grestore } bind def
/ta  { 4 -2 roll moveto gsave rotate show } bind def
/tb  { 2 -1 roll 0 rmoveto show } bind def
/cl  { grestore gsave newpath 3 index 3 index moveto 1 index
       4 -1 roll lineto  exch 1 index lineto lineto
       closepath clip newpath } bind def
/rgb { setrgbcolor } bind def
/s   { scalefont setfont } bind def
% end   .ps.prolog
/sRGB { [ /CIEBasedABC
          << /DecodeLMN
               [ { dup 0.03928 le
                        {12.92321 div}
                        {0.055 add 1.055 div 2.4 exp }
                     ifelse
                 } bind dup dup
               ]
             /MatrixLMN [0.412457 0.212673 0.019334
                         0.357576 0.715152 0.119192
                         0.180437 0.072175 0.950301]
             /WhitePoint [0.9505 1.0 1.0890]
           >>
         ] setcolorspace } bind def
/srgb { setcolor } bind def
%%IncludeResource: font Helvetica
/Helvetica findfont
dup length dict begin
  {1 index /FID ne {def} {pop pop} ifelse} forall
  /Encoding ISOLatin1Encoding def
  currentdict
  end
/Font1 exch definefont pop
%%IncludeResource: font Helvetica-Bold
/Helvetica-Bold findfont
dup length dict begin
  {1 index /FID ne {def} {pop pop} ifelse} forall
  /Encoding ISOLatin1Encoding def
  currentdict
  end
/Font2 exch definefont pop
%%IncludeResource: font Helvetica-Oblique
/Helvetica-Oblique findfont
dup length dict begin
  {1 index /FID ne {def} {pop pop} ifelse} forall
  /Encoding ISOLatin1Encoding def
  currentdict
  end
/Font3 exch definefont pop
%%IncludeResource: font Helvetica-BoldOblique
/Helvetica-BoldOblique findfont
dup length dict begin
  {1 index /FID ne {def} {pop pop} ifelse} forall
  /Encoding ISOLatin1Encoding def
  currentdict
  end
/Font4 exch definefont pop
%%IncludeResource: font Symbol
/Symbol findfont
dup length dict begin
  {1 index /FID ne {def} {pop pop} ifelse} forall
  currentdict
  end
/Font5 exch definefont pop
%%EndProlog
%%Page: 1 1
bp
73.44 73.44 977.76 444.96 cl
/bg { 1 0 0 srgb } def
np
 111.12 181.36 m
33.49 0 l
0 5.33 l
-33.49 0 l
cp p2
0 0 0 srgb
2.25 setlinewidth
[] 0 setdash
0 setlinecap
1 setlinejoin
10.00 setmiterlimit
np
111.12 184.56 m
33.49 0 l
o
0.75 setlinewidth
[ 2.25 3.75] 0 setdash
1 setlinecap
np
127.87 173.90 m
0 7.46 l
o
np
127.87 194.15 m
0 -7.46 l
o
0.75 setlinewidth
[] 0 setdash
np
119.49 173.90 m
16.75 0 l
o
np
119.49 194.15 m
16.75 0 l
o
np
111.12 181.36 m
33.49 0 l
0 5.33 l
-33.49 0 l
0 -5.33 l
o
127.87 168.57 2.70 c p1
127.87 171.77 2.70 c p1
np
 152.99 133.31 m
33.49 0 l
0 4.26 l
-33.49 0 l
cp p2
2.25 setlinewidth
[] 0 setdash
0 setlinecap
np
152.99 135.44 m
33.49 0 l
o
0.75 setlinewidth
[ 2.25 3.75] 0 setdash
1 setlinecap
np
169.73 127.99 m
0 5.32 l
o
np
169.73 143.96 m
0 -6.39 l
o
0.75 setlinewidth
[] 0 setdash
np
161.36 127.99 m
16.75 0 l
o
np
161.36 143.96 m
16.75 0 l
o
np
152.99 133.31 m
33.49 0 l
0 4.26 l
-33.49 0 l
0 -4.26 l
o
169.73 122.66 2.70 c p1
np
 194.85 116.18 m
33.50 0 l
0 4.25 l
-33.50 0 l
cp p2
2.25 setlinewidth
[] 0 setdash
0 setlinecap
np
194.85 118.30 m
33.50 0 l
o
0.75 setlinewidth
[ 2.25 3.75] 0 setdash
1 setlinecap
np
211.60 111.92 m
0 4.26 l
o
np
211.60 126.81 m
0 -6.38 l
o
0.75 setlinewidth
[] 0 setdash
np
203.23 111.92 m
16.74 0 l
o
np
203.23 126.81 m
16.74 0 l
o
np
194.85 116.18 m
33.50 0 l
0 4.25 l
-33.50 0 l
0 -4.25 l
o
211.60 106.60 2.70 c p1
211.60 128.94 2.70 c p1
211.60 108.73 2.70 c p1
np
 236.72 107.93 m
33.49 0 l
0 5.30 l
-33.49 0 l
cp p2
2.25 setlinewidth
[] 0 setdash
0 setlinecap
np
236.72 110.58 m
33.49 0 l
o
0.75 setlinewidth
[ 2.25 3.75] 0 setdash
1 setlinecap
np
253.47 101.05 m
0 6.88 l
o
np
253.47 120.11 m
0 -6.88 l
o
0.75 setlinewidth
[] 0 setdash
np
245.09 101.05 m
16.75 0 l
o
np
245.09 120.11 m
16.75 0 l
o
np
236.72 107.93 m
33.49 0 l
0 5.30 l
-33.49 0 l
0 -5.30 l
o
253.47 97.87 2.70 c p1
np
 278.59 103.95 m
33.49 0 l
0 6.32 l
-33.49 0 l
cp p2
2.25 setlinewidth
[] 0 setdash
0 setlinecap
np
278.59 108.16 m
33.49 0 l
o
0.75 setlinewidth
[ 2.25 3.75] 0 setdash
1 setlinecap
np
295.33 96.57 m
0 7.38 l
o
np
295.33 119.76 m
0 -9.49 l
o
0.75 setlinewidth
[] 0 setdash
np
286.96 96.57 m
16.75 0 l
o
np
286.96 119.76 m
16.75 0 l
o
np
278.59 103.95 m
33.49 0 l
0 6.32 l
-33.49 0 l
0 -6.32 l
o
295.33 92.35 2.70 c p1
295.33 122.92 2.70 c p1
295.33 120.81 2.70 c p1
295.33 123.97 2.70 c p1
np
 320.45 104.23 m
33.50 0 l
0 8.47 l
-33.50 0 l
cp p2
2.25 setlinewidth
[] 0 setdash
0 setlinecap
np
320.45 108.99 m
33.50 0 l
o
0.75 setlinewidth
[ 2.25 3.75] 0 setdash
1 setlinecap
np
337.20 95.75 m
0 8.48 l
o
np
337.20 125.41 m
0 -12.71 l
o
0.75 setlinewidth
[] 0 setdash
np
328.83 95.75 m
16.74 0 l
o
np
328.83 125.41 m
16.74 0 l
o
np
320.45 104.23 m
33.50 0 l
0 8.47 l
-33.50 0 l
0 -8.47 l
o
np
 362.32 103.59 m
33.49 0 l
0 10.04 l
-33.49 0 l
cp p2
2.25 setlinewidth
[] 0 setdash
0 setlinecap
np
362.32 108.34 m
33.49 0 l
o
0.75 setlinewidth
[ 2.25 3.75] 0 setdash
1 setlinecap
np
379.07 93.54 m
0 10.05 l
o
np
379.07 124.20 m
0 -10.57 l
o
0.75 setlinewidth
[] 0 setdash
np
370.69 93.54 m
16.75 0 l
o
np
370.69 124.20 m
16.75 0 l
o
np
362.32 103.59 m
33.49 0 l
0 10.04 l
-33.49 0 l
0 -10.04 l
o
379.07 87.20 2.70 c p1
379.07 130.54 2.70 c p1
379.07 129.48 2.70 c p1
np
 404.19 107.03 m
33.49 0 l
0 13.46 l
-33.49 0 l
cp p2
2.25 setlinewidth
[] 0 setdash
0 setlinecap
np
404.19 113.24 m
33.49 0 l
o
0.75 setlinewidth
[ 2.25 3.75] 0 setdash
1 setlinecap
np
420.93 92.53 m
0 14.50 l
o
np
420.93 139.13 m
0 -18.64 l
o
0.75 setlinewidth
[] 0 setdash
np
412.56 92.53 m
16.75 0 l
o
np
412.56 139.13 m
16.75 0 l
o
np
404.19 107.03 m
33.49 0 l
0 13.46 l
-33.49 0 l
0 -13.46 l
o
420.93 150.52 2.70 c p1
np
 446.05 112.53 m
33.50 0 l
0 11.87 l
-33.50 0 l
cp p2
2.25 setlinewidth
[] 0 setdash
0 setlinecap
np
446.05 120.27 m
33.50 0 l
o
0.75 setlinewidth
[ 2.25 3.75] 0 setdash
1 setlinecap
np
462.80 95.49 m
0 17.04 l
o
np
462.80 141.95 m
0 -17.55 l
o
0.75 setlinewidth
[] 0 setdash
np
454.43 95.49 m
16.74 0 l
o
np
454.43 141.95 m
16.74 0 l
o
np
446.05 112.53 m
33.50 0 l
0 11.87 l
-33.50 0 l
0 -11.87 l
o
462.80 144.02 2.70 c p1
462.80 148.15 2.70 c p1
462.80 157.44 2.70 c p1
462.80 144.02 2.70 c p1
np
 487.92 118.51 m
33.49 0 l
0 19.05 l
-33.49 0 l
cp p2
2.25 setlinewidth
[] 0 setdash
0 setlinecap
np
487.92 127.26 m
33.49 0 l
o
0.75 setlinewidth
[ 2.25 3.75] 0 setdash
1 setlinecap
np
504.67 100.49 m
0 18.02 l
o
np
504.67 161.24 m
0 -23.68 l
o
0.75 setlinewidth
[] 0 setdash
np
496.29 100.49 m
16.75 0 l
o
np
496.29 161.24 m
16.75 0 l
o
np
487.92 118.51 m
33.49 0 l
0 19.05 l
-33.49 0 l
0 -19.05 l
o
np
 529.79 126.56 m
33.49 0 l
0 17.65 l
-33.49 0 l
cp p2
2.25 setlinewidth
[] 0 setdash
0 setlinecap
np
529.79 134.63 m
33.49 0 l
o
0.75 setlinewidth
[ 2.25 3.75] 0 setdash
1 setlinecap
np
546.53 105.38 m
0 21.18 l
o
np
546.53 168.92 m
0 -24.71 l
o
0.75 setlinewidth
[] 0 setdash
np
538.16 105.38 m
16.75 0 l
o
np
538.16 168.92 m
16.75 0 l
o
np
529.79 126.56 m
33.49 0 l
0 17.65 l
-33.49 0 l
0 -17.65 l
o
546.53 179.01 2.70 c p1
546.53 95.30 2.70 c p1
np
 571.65 133.35 m
33.50 0 l
0 21.71 l
-33.50 0 l
cp p2
2.25 setlinewidth
[] 0 setdash
0 setlinecap
np
571.65 144.47 m
33.50 0 l
o
0.75 setlinewidth
[ 2.25 3.75] 0 setdash
1 setlinecap
np
588.40 113.76 m
0 19.59 l
o
np
588.40 168.83 m
0 -13.77 l
o
0.75 setlinewidth
[] 0 setdash
np
580.03 113.76 m
16.74 0 l
o
np
580.03 168.83 m
16.74 0 l
o
np
571.65 133.35 m
33.50 0 l
0 21.71 l
-33.50 0 l
0 -21.71 l
o
np
 613.52 144.29 m
33.49 0 l
0 23.86 l
-33.49 0 l
cp p2
2.25 setlinewidth
[] 0 setdash
0 setlinecap
np
613.52 155.22 m
33.49 0 l
o
0.75 setlinewidth
[ 2.25 3.75] 0 setdash
1 setlinecap
np
630.27 113.46 m
0 30.83 l
o
np
630.27 202.95 m
0 -34.80 l
o
0.75 setlinewidth
[] 0 setdash
np
621.89 113.46 m
16.75 0 l
o
np
621.89 202.95 m
16.75 0 l
o
np
613.52 144.29 m
33.49 0 l
0 23.86 l
-33.49 0 l
0 -23.86 l
o
np
 655.39 151.68 m
33.49 0 l
0 26.96 l
-33.49 0 l
cp p2
2.25 setlinewidth
[] 0 setdash
0 setlinecap
np
655.39 165.95 m
33.49 0 l
o
0.75 setlinewidth
[ 2.25 3.75] 0 setdash
1 setlinecap
np
672.13 123.14 m
0 28.54 l
o
np
672.13 218.28 m
0 -39.64 l
o
0.75 setlinewidth
[] 0 setdash
np
663.76 123.14 m
16.75 0 l
o
np
663.76 218.28 m
16.75 0 l
o
np
655.39 151.68 m
33.49 0 l
0 26.96 l
-33.49 0 l
0 -26.96 l
o
672.13 235.19 2.70 c p1
np
 697.25 162.51 m
33.50 0 l
0 27.30 l
-33.50 0 l
cp p2
2.25 setlinewidth
[] 0 setdash
0 setlinecap
np
697.25 175.91 m
33.50 0 l
o
0.75 setlinewidth
[ 2.25 3.75] 0 setdash
1 setlinecap
np
714.00 129.25 m
0 33.26 l
o
np
714.00 214.63 m
0 -24.82 l
o
0.75 setlinewidth
[] 0 setdash
np
705.63 129.25 m
16.74 0 l
o
np
705.63 214.63 m
16.74 0 l
o
np
697.25 162.51 m
33.50 0 l
0 27.30 l
-33.50 0 l
0 -27.30 l
o
714.00 234.49 2.70 c p1
np
 739.12 178.41 m
33.49 0 l
0 39.17 l
-33.49 0 l
cp p2
2.25 setlinewidth
[] 0 setdash
0 setlinecap
np
739.12 192.47 m
33.49 0 l
o
0.75 setlinewidth
[ 2.25 3.75] 0 setdash
1 setlinecap
np
755.87 146.28 m
0 32.13 l
o
np
755.87 264.77 m
0 -47.19 l
o
0.75 setlinewidth
[] 0 setdash
np
747.49 146.28 m
16.75 0 l
o
np
747.49 264.77 m
16.75 0 l
o
np
739.12 178.41 m
33.49 0 l
0 39.17 l
-33.49 0 l
0 -39.17 l
o
np
 780.99 194.63 m
33.49 0 l
0 35.70 l
-33.49 0 l
cp p2
2.25 setlinewidth
[] 0 setdash
0 setlinecap
np
780.99 214.46 m
33.49 0 l
o
0.75 setlinewidth
[ 2.25 3.75] 0 setdash
1 setlinecap
np
797.73 159.91 m
0 34.72 l
o
np
797.73 278.94 m
0 -48.61 l
o
0.75 setlinewidth
[] 0 setdash
np
789.36 159.91 m
16.75 0 l
o
np
789.36 278.94 m
16.75 0 l
o
np
780.99 194.63 m
33.49 0 l
0 35.70 l
-33.49 0 l
0 -35.70 l
o
797.73 128.17 2.70 c p1
np
 822.85 213.52 m
33.50 0 l
0 40.03 l
-33.50 0 l
cp p2
2.25 setlinewidth
[] 0 setdash
0 setlinecap
np
822.85 234.49 m
33.50 0 l
o
0.75 setlinewidth
[ 2.25 3.75] 0 setdash
1 setlinecap
np
839.60 155.38 m
0 58.14 l
o
np
839.60 312.65 m
0 -59.10 l
o
0.75 setlinewidth
[] 0 setdash
np
831.23 155.38 m
16.74 0 l
o
np
831.23 312.65 m
16.74 0 l
o
np
822.85 213.52 m
33.50 0 l
0 40.03 l
-33.50 0 l
0 -40.03 l
o
839.60 327.90 2.70 c p1
839.60 329.80 2.70 c p1
np
 864.72 227.59 m
33.49 0 l
0 43.54 l
-33.49 0 l
cp p2
2.25 setlinewidth
[] 0 setdash
0 setlinecap
np
864.72 246.70 m
33.49 0 l
o
0.75 setlinewidth
[ 2.25 3.75] 0 setdash
1 setlinecap
np
881.47 188.29 m
0 39.30 l
o
np
881.47 328.48 m
0 -57.35 l
o
0.75 setlinewidth
[] 0 setdash
np
873.09 188.29 m
16.75 0 l
o
np
873.09 328.48 m
16.75 0 l
o
np
864.72 227.59 m
33.49 0 l
0 43.54 l
-33.49 0 l
0 -43.54 l
o
881.47 336.97 2.70 c p1
np
 906.59 239.49 m
33.49 0 l
0 63.74 l
-33.49 0 l
cp p2
2.25 setlinewidth
[] 0 setdash
0 setlinecap
np
906.59 276.75 m
33.49 0 l
o
0.75 setlinewidth
[ 2.25 3.75] 0 setdash
1 setlinecap
np
923.33 179.18 m
0 60.31 l
o
np
923.33 348.83 m
0 -45.60 l
o
0.75 setlinewidth
[] 0 setdash
np
914.96 179.18 m
16.75 0 l
o
np
914.96 348.83 m
16.75 0 l
o
np
906.59 239.49 m
33.49 0 l
0 63.74 l
-33.49 0 l
0 -63.74 l
o
923.33 431.20 2.70 c p1
0.00 0.00 1008.00 504.00 cl
0 0 0 srgb
0.75 setlinewidth
[] 0 setdash
1 setlinecap
1 setlinejoin
10.00 setmiterlimit
np
127.87 73.44 m
795.46 0 l
o
np
127.87 73.44 m
0 -7.20 l
o
np
169.73 73.44 m
0 -7.20 l
o
np
211.60 73.44 m
0 -7.20 l
o
np
253.47 73.44 m
0 -7.20 l
o
np
295.33 73.44 m
0 -7.20 l
o
np
337.20 73.44 m
0 -7.20 l
o
np
379.07 73.44 m
0 -7.20 l
o
np
420.93 73.44 m
0 -7.20 l
o
np
462.80 73.44 m
0 -7.20 l
o
np
504.67 73.44 m
0 -7.20 l
o
np
546.53 73.44 m
0 -7.20 l
o
np
588.40 73.44 m
0 -7.20 l
o
np
630.27 73.44 m
0 -7.20 l
o
np
672.13 73.44 m
0 -7.20 l
o
np
714.00 73.44 m
0 -7.20 l
o
np
755.87 73.44 m
0 -7.20 l
o
np
797.73 73.44 m
0 -7.20 l
o
np
839.60 73.44 m
0 -7.20 l
o
np
881.47 73.44 m
0 -7.20 l
o
np
923.33 73.44 m
0 -7.20 l
o
/Font1 findfont 24 s
127.87 47.52 (0.05) .5 0 t
211.60 47.52 (0.15) .5 0 t
295.33 47.52 (0.25) .5 0 t
379.07 47.52 (0.35) .5 0 t
462.80 47.52 (0.45) .5 0 t
546.53 47.52 (0.55) .5 0 t
630.27 47.52 (0.65) .5 0 t
714.00 47.52 (0.75) .5 0 t
797.73 47.52 (0.85) .5 0 t
881.47 47.52 (0.95) .5 0 t
np
73.44 97.17 m
0 319.87 l
o
np
73.44 97.17 m
-7.20 0 l
o
np
73.44 150.48 m
-7.20 0 l
o
np
73.44 203.79 m
-7.20 0 l
o
np
73.44 257.10 m
-7.20 0 l
o
np
73.44 310.42 m
-7.20 0 l
o
np
73.44 363.73 m
-7.20 0 l
o
np
73.44 417.04 m
-7.20 0 l
o
56.16 97.17 (50) .5 90 t
56.16 203.79 (150) .5 90 t
56.16 310.42 (250) .5 90 t
56.16 417.04 (350) .5 90 t
0.00 0.00 1008.00 504.00 cl
/Font1 findfont 24 s
0 0 0 srgb
408.89 18.72 (Smoothing P) 0 ta
-0.960 (ar) tb
-0.240 (ameter) tb gr
27.36 97.80 (Actual Number of Gener) 90 ta
-0.240 (ations) tb gr
0.00 0.00 1008.00 504.00 cl
0 0 0 srgb
0.75 setlinewidth
[] 0 setdash
1 setlinecap
1 setlinejoin
10.00 setmiterlimit
np
73.44 73.44 m
904.32 0 l
0 371.52 l
-904.32 0 l
0 -371.52 l
o
73.44 73.44 977.76 444.96 cl
0.4784 0.4784 0.4784 srgb
1.50 setlinewidth
[ 0.00 6.00] 0 setdash
1 setlinecap
1 setlinejoin
10.00 setmiterlimit
np
86.00 73.44 m
0 371.52 l
o
np
295.33 73.44 m
0 371.52 l
o
np
504.67 73.44 m
0 371.52 l
o
np
714.00 73.44 m
0 371.52 l
o
np
923.33 73.44 m
0 371.52 l
o
np
73.44 97.17 m
904.32 0 l
o
np
73.44 150.48 m
904.32 0 l
o
np
73.44 203.79 m
904.32 0 l
o
np
73.44 257.10 m
904.32 0 l
o
np
73.44 310.42 m
904.32 0 l
o
np
73.44 363.73 m
904.32 0 l
o
np
73.44 417.04 m
904.32 0 l
o
ep
%%Trailer
%%Pages: 1
%%EOF
