%!PS-Adobe-3.0 EPSF-3.0
%%DocumentNeededResources: font Helvetica
%%+ font Helvetica-Bold
%%+ font Helvetica-Oblique
%%+ font Helvetica-BoldOblique
%%+ font Symbol
%%Title: R Graphics Output
%%Creator: R Software
%%Pages: (atend)
%%BoundingBox: 0 0 504 504
%%EndComments
%%BeginProlog
/bp  { gs sRGB gs } def
% begin .ps.prolog
/gs  { gsave } bind def
/gr  { grestore } bind def
/ep  { showpage gr gr } bind def
/m   { moveto } bind def
/l  { rlineto } bind def
/np  { newpath } bind def
/cp  { closepath } bind def
/f   { fill } bind def
/o   { stroke } bind def
/c   { newpath 0 360 arc } bind def
/r   { 4 2 roll moveto 1 copy 3 -1 roll exch 0 exch rlineto 0 rlineto -1 mul 0 exch rlineto closepath } bind def
/p1  { stroke } bind def
/p2  { gsave bg fill grestore newpath } bind def
/p3  { gsave bg fill grestore stroke } bind def
/p6  { gsave bg eofill grestore newpath } bind def
/p7  { gsave bg eofill grestore stroke } bind def
/t   { 5 -2 roll moveto gsave rotate
       1 index stringwidth pop
       mul neg 0 rmoveto show grestore } bind def
/ta  { 4 -2 roll moveto gsave rotate show } bind def
/tb  { 2 -1 roll 0 rmoveto show } bind def
/cl  { grestore gsave newpath 3 index 3 index moveto 1 index
       4 -1 roll lineto  exch 1 index lineto lineto
       closepath clip newpath } bind def
/rgb { setrgbcolor } bind def
/s   { scalefont setfont } bind def
% end   .ps.prolog
/sRGB { [ /CIEBasedABC
          << /DecodeLMN
               [ { dup 0.03928 le
                        {12.92321 div}
                        {0.055 add 1.055 div 2.4 exp }
                     ifelse
                 } bind dup dup
               ]
             /MatrixLMN [0.412457 0.212673 0.019334
                         0.357576 0.715152 0.119192
                         0.180437 0.072175 0.950301]
             /WhitePoint [0.9505 1.0 1.0890]
           >>
         ] setcolorspace } bind def
/srgb { setcolor } bind def
%%IncludeResource: font Helvetica
/Helvetica findfont
dup length dict begin
  {1 index /FID ne {def} {pop pop} ifelse} forall
  /Encoding ISOLatin1Encoding def
  currentdict
  end
/Font1 exch definefont pop
%%IncludeResource: font Helvetica-Bold
/Helvetica-Bold findfont
dup length dict begin
  {1 index /FID ne {def} {pop pop} ifelse} forall
  /Encoding ISOLatin1Encoding def
  currentdict
  end
/Font2 exch definefont pop
%%IncludeResource: font Helvetica-Oblique
/Helvetica-Oblique findfont
dup length dict begin
  {1 index /FID ne {def} {pop pop} ifelse} forall
  /Encoding ISOLatin1Encoding def
  currentdict
  end
/Font3 exch definefont pop
%%IncludeResource: font Helvetica-BoldOblique
/Helvetica-BoldOblique findfont
dup length dict begin
  {1 index /FID ne {def} {pop pop} ifelse} forall
  /Encoding ISOLatin1Encoding def
  currentdict
  end
/Font4 exch definefont pop
%%IncludeResource: font Symbol
/Symbol findfont
dup length dict begin
  {1 index /FID ne {def} {pop pop} ifelse} forall
  currentdict
  end
/Font5 exch definefont pop
%%EndProlog
%%Page: 1 1
bp
59.04 73.44 473.76 444.96 cl
0 0 0 srgb
2.25 setlinewidth
[] 0 setdash
0 setlinecap
1 setlinejoin
10.00 setmiterlimit
np
76.42 427.57 m
16.17 0 l
o
0.75 setlinewidth
[ 2.25 3.75] 0 setdash
1 setlinecap
np
84.51 423.23 m
0 3.07 l
o
np
84.51 431.20 m
0 -2.81 l
o
0.75 setlinewidth
[] 0 setdash
np
80.46 423.23 m
8.09 0 l
o
np
80.46 431.20 m
8.09 0 l
o
np
76.42 426.30 m
16.17 0 l
0 2.09 l
-16.17 0 l
0 -2.09 l
o
84.51 420.92 2.70 c p1
84.51 422.32 2.70 c p1
2.25 setlinewidth
[] 0 setdash
0 setlinecap
np
96.63 327.54 m
16.17 0 l
o
0.75 setlinewidth
[ 2.25 3.75] 0 setdash
1 setlinecap
np
104.72 322.87 m
0 3.38 l
o
np
104.72 332.44 m
0 -3.63 l
o
0.75 setlinewidth
[] 0 setdash
np
100.67 322.87 m
8.09 0 l
o
np
100.67 332.44 m
8.09 0 l
o
np
96.63 326.25 m
16.17 0 l
0 2.56 l
-16.17 0 l
0 -2.56 l
o
104.72 319.27 2.70 c p1
2.25 setlinewidth
[] 0 setdash
0 setlinecap
np
116.84 271.46 m
16.17 0 l
o
0.75 setlinewidth
[ 2.25 3.75] 0 setdash
1 setlinecap
np
124.93 266.52 m
0 3.34 l
o
np
124.93 277.42 m
0 -4.41 l
o
0.75 setlinewidth
[] 0 setdash
np
120.88 266.52 m
8.09 0 l
o
np
120.88 277.42 m
8.09 0 l
o
np
116.84 269.86 m
16.17 0 l
0 3.15 l
-16.17 0 l
0 -3.15 l
o
124.93 262.04 2.70 c p1
124.93 278.81 2.70 c p1
124.93 263.87 2.70 c p1
2.25 setlinewidth
[] 0 setdash
0 setlinecap
np
137.05 233.73 m
16.17 0 l
o
0.75 setlinewidth
[ 2.25 3.75] 0 setdash
1 setlinecap
np
145.14 225.23 m
0 6.26 l
o
np
145.14 241.08 m
0 -5.21 l
o
0.75 setlinewidth
[] 0 setdash
np
141.09 225.23 m
8.09 0 l
o
np
141.09 241.08 m
8.09 0 l
o
np
137.05 231.49 m
16.17 0 l
0 4.38 l
-16.17 0 l
0 -4.38 l
o
145.14 222.09 2.70 c p1
2.25 setlinewidth
[] 0 setdash
0 setlinecap
np
157.26 207.11 m
16.17 0 l
o
0.75 setlinewidth
[ 2.25 3.75] 0 setdash
1 setlinecap
np
165.35 196.15 m
0 7.22 l
o
np
165.35 217.00 m
0 -8.11 l
o
0.75 setlinewidth
[] 0 setdash
np
161.31 196.15 m
8.08 0 l
o
np
161.31 217.00 m
8.08 0 l
o
np
157.26 203.37 m
16.17 0 l
0 5.52 l
-16.17 0 l
0 -5.52 l
o
165.35 191.56 2.70 c p1
165.35 218.49 2.70 c p1
165.35 219.22 2.70 c p1
2.25 setlinewidth
[] 0 setdash
0 setlinecap
np
177.47 187.72 m
16.17 0 l
o
0.75 setlinewidth
[ 2.25 3.75] 0 setdash
1 setlinecap
np
185.56 175.21 m
0 8.33 l
o
np
185.56 200.11 m
0 -9.33 l
o
0.75 setlinewidth
[] 0 setdash
np
181.52 175.21 m
8.08 0 l
o
np
181.52 200.11 m
8.08 0 l
o
np
177.47 183.54 m
16.17 0 l
0 7.24 l
-16.17 0 l
0 -7.24 l
o
2.25 setlinewidth
[] 0 setdash
0 setlinecap
np
197.68 170.19 m
16.17 0 l
o
0.75 setlinewidth
[ 2.25 3.75] 0 setdash
1 setlinecap
np
205.77 155.83 m
0 10.14 l
o
np
205.77 186.49 m
0 -11.96 l
o
0.75 setlinewidth
[] 0 setdash
np
201.73 155.83 m
8.08 0 l
o
np
201.73 186.49 m
8.08 0 l
o
np
197.68 165.97 m
16.17 0 l
0 8.56 l
-16.17 0 l
0 -8.56 l
o
205.77 148.30 2.70 c p1
2.25 setlinewidth
[] 0 setdash
0 setlinecap
np
217.89 159.51 m
16.17 0 l
o
0.75 setlinewidth
[ 2.25 3.75] 0 setdash
1 setlinecap
np
225.98 139.98 m
0 14.36 l
o
np
225.98 176.98 m
0 -11.99 l
o
0.75 setlinewidth
[] 0 setdash
np
221.94 139.98 m
8.08 0 l
o
np
221.94 176.98 m
8.08 0 l
o
np
217.89 154.34 m
16.17 0 l
0 10.65 l
-16.17 0 l
0 -10.65 l
o
225.98 183.20 2.70 c p1
2.25 setlinewidth
[] 0 setdash
0 setlinecap
np
238.11 151.85 m
16.16 0 l
o
0.75 setlinewidth
[ 2.25 3.75] 0 setdash
1 setlinecap
np
246.19 133.46 m
0 12.50 l
o
np
246.19 166.76 m
0 -12.01 l
o
0.75 setlinewidth
[] 0 setdash
np
242.15 133.46 m
8.08 0 l
o
np
242.15 166.76 m
8.08 0 l
o
np
238.11 145.96 m
16.16 0 l
0 8.79 l
-16.16 0 l
0 -8.79 l
o
246.19 130.25 2.70 c p1
246.19 168.99 2.70 c p1
246.19 173.69 2.70 c p1
2.25 setlinewidth
[] 0 setdash
0 setlinecap
np
258.32 145.07 m
16.16 0 l
o
0.75 setlinewidth
[ 2.25 3.75] 0 setdash
1 setlinecap
np
266.40 123.74 m
0 15.22 l
o
np
266.40 163.89 m
0 -12.41 l
o
0.75 setlinewidth
[] 0 setdash
np
262.36 123.74 m
8.08 0 l
o
np
262.36 163.89 m
8.08 0 l
o
np
258.32 138.96 m
16.16 0 l
0 12.52 l
-16.16 0 l
0 -12.52 l
o
2.25 setlinewidth
[] 0 setdash
0 setlinecap
np
278.53 139.23 m
16.16 0 l
o
0.75 setlinewidth
[ 2.25 3.75] 0 setdash
1 setlinecap
np
286.61 120.45 m
0 13.65 l
o
np
286.61 156.88 m
0 -12.12 l
o
0.75 setlinewidth
[] 0 setdash
np
282.57 120.45 m
8.08 0 l
o
np
282.57 156.88 m
8.08 0 l
o
np
278.53 134.10 m
16.16 0 l
0 10.66 l
-16.16 0 l
0 -10.66 l
o
286.61 161.16 2.70 c p1
286.61 107.94 2.70 c p1
286.61 117.80 2.70 c p1
2.25 setlinewidth
[] 0 setdash
0 setlinecap
np
298.74 135.31 m
16.17 0 l
o
0.75 setlinewidth
[ 2.25 3.75] 0 setdash
1 setlinecap
np
306.82 115.25 m
0 13.61 l
o
np
306.82 147.26 m
0 -6.43 l
o
0.75 setlinewidth
[] 0 setdash
np
302.78 115.25 m
8.08 0 l
o
np
302.78 147.26 m
8.08 0 l
o
np
298.74 128.86 m
16.17 0 l
0 11.97 l
-16.17 0 l
0 -11.97 l
o
2.25 setlinewidth
[] 0 setdash
0 setlinecap
np
318.95 132.09 m
16.17 0 l
o
0.75 setlinewidth
[ 2.25 3.75] 0 setdash
1 setlinecap
np
327.03 111.45 m
0 14.94 l
o
np
327.03 151.74 m
0 -13.60 l
o
0.75 setlinewidth
[] 0 setdash
np
322.99 111.45 m
8.08 0 l
o
np
322.99 151.74 m
8.08 0 l
o
np
318.95 126.39 m
16.17 0 l
0 11.75 l
-16.17 0 l
0 -11.75 l
o
327.03 106.20 2.70 c p1
327.03 106.98 2.70 c p1
2.25 setlinewidth
[] 0 setdash
0 setlinecap
np
339.16 128.99 m
16.17 0 l
o
0.75 setlinewidth
[ 2.25 3.75] 0 setdash
1 setlinecap
np
347.24 105.20 m
0 16.94 l
o
np
347.24 148.64 m
0 -14.20 l
o
0.75 setlinewidth
[] 0 setdash
np
343.20 105.20 m
8.08 0 l
o
np
343.20 148.64 m
8.08 0 l
o
np
339.16 122.14 m
16.17 0 l
0 12.30 l
-16.17 0 l
0 -12.30 l
o
347.24 153.74 2.70 c p1
2.25 setlinewidth
[] 0 setdash
0 setlinecap
np
359.37 125.71 m
16.17 0 l
o
0.75 setlinewidth
[ 2.25 3.75] 0 setdash
1 setlinecap
np
367.45 105.40 m
0 14.41 l
o
np
367.45 145.93 m
0 -14.71 l
o
0.75 setlinewidth
[] 0 setdash
np
363.41 105.40 m
8.08 0 l
o
np
363.41 145.93 m
8.08 0 l
o
np
359.37 119.81 m
16.17 0 l
0 11.41 l
-16.17 0 l
0 -11.41 l
o
367.45 101.69 2.70 c p1
2.25 setlinewidth
[] 0 setdash
0 setlinecap
np
379.58 125.11 m
16.17 0 l
o
0.75 setlinewidth
[ 2.25 3.75] 0 setdash
1 setlinecap
np
387.66 104.60 m
0 15.03 l
o
np
387.66 146.94 m
0 -13.24 l
o
0.75 setlinewidth
[] 0 setdash
np
383.62 104.60 m
8.09 0 l
o
np
383.62 146.94 m
8.09 0 l
o
np
379.58 119.63 m
16.17 0 l
0 14.07 l
-16.17 0 l
0 -14.07 l
o
2.25 setlinewidth
[] 0 setdash
0 setlinecap
np
399.79 126.03 m
16.17 0 l
o
0.75 setlinewidth
[ 2.25 3.75] 0 setdash
1 setlinecap
np
407.87 104.80 m
0 14.42 l
o
np
407.87 143.69 m
0 -12.76 l
o
0.75 setlinewidth
[] 0 setdash
np
403.83 104.80 m
8.09 0 l
o
np
403.83 143.69 m
8.09 0 l
o
np
399.79 119.22 m
16.17 0 l
0 11.71 l
-16.17 0 l
0 -11.71 l
o
407.87 87.20 2.70 c p1
2.25 setlinewidth
[] 0 setdash
0 setlinecap
np
420.00 125.85 m
16.17 0 l
o
0.75 setlinewidth
[ 2.25 3.75] 0 setdash
1 setlinecap
np
428.08 109.63 m
0 9.80 l
o
np
428.08 148.18 m
0 -17.08 l
o
0.75 setlinewidth
[] 0 setdash
np
424.04 109.63 m
8.09 0 l
o
np
424.04 148.18 m
8.09 0 l
o
np
420.00 119.43 m
16.17 0 l
0 11.67 l
-16.17 0 l
0 -11.67 l
o
428.08 96.31 2.70 c p1
428.08 96.31 2.70 c p1
2.25 setlinewidth
[] 0 setdash
0 setlinecap
np
440.21 123.31 m
16.17 0 l
o
0.75 setlinewidth
[ 2.25 3.75] 0 setdash
1 setlinecap
np
448.29 104.60 m
0 13.26 l
o
np
448.29 143.59 m
0 -14.02 l
o
0.75 setlinewidth
[] 0 setdash
np
444.25 104.60 m
8.09 0 l
o
np
444.25 143.59 m
8.09 0 l
o
np
440.21 117.86 m
16.17 0 l
0 11.71 l
-16.17 0 l
0 -11.71 l
o
0.00 0.00 504.00 504.00 cl
0 0 0 srgb
0.75 setlinewidth
[] 0 setdash
1 setlinecap
1 setlinejoin
10.00 setmiterlimit
np
84.51 73.44 m
363.78 0 l
o
np
84.51 73.44 m
0 -7.20 l
o
np
104.72 73.44 m
0 -7.20 l
o
np
124.93 73.44 m
0 -7.20 l
o
np
145.14 73.44 m
0 -7.20 l
o
np
165.35 73.44 m
0 -7.20 l
o
np
185.56 73.44 m
0 -7.20 l
o
np
205.77 73.44 m
0 -7.20 l
o
np
225.98 73.44 m
0 -7.20 l
o
np
246.19 73.44 m
0 -7.20 l
o
np
266.40 73.44 m
0 -7.20 l
o
np
286.61 73.44 m
0 -7.20 l
o
np
306.82 73.44 m
0 -7.20 l
o
np
327.03 73.44 m
0 -7.20 l
o
np
347.24 73.44 m
0 -7.20 l
o
np
367.45 73.44 m
0 -7.20 l
o
np
387.66 73.44 m
0 -7.20 l
o
np
407.87 73.44 m
0 -7.20 l
o
np
428.08 73.44 m
0 -7.20 l
o
np
448.29 73.44 m
0 -7.20 l
o
/Font1 findfont 12 s
84.51 47.52 (0.05) .5 0 t
124.93 47.52 (0.15) .5 0 t
165.35 47.52 (0.25) .5 0 t
205.77 47.52 (0.35) .5 0 t
246.19 47.52 (0.45) .5 0 t
286.61 47.52 (0.55) .5 0 t
327.03 47.52 (0.65) .5 0 t
367.45 47.52 (0.75) .5 0 t
407.87 47.52 (0.85) .5 0 t
448.29 47.52 (0.95) .5 0 t
np
59.04 143.00 m
0 229.11 l
o
np
59.04 143.00 m
-7.20 0 l
o
np
59.04 219.37 m
-7.20 0 l
o
np
59.04 295.74 m
-7.20 0 l
o
np
59.04 372.11 m
-7.20 0 l
o
41.76 143.00 (14) .5 90 t
41.76 219.37 (16) .5 90 t
41.76 295.74 (18) .5 90 t
41.76 372.11 (20) .5 90 t
0.00 0.00 504.00 504.00 cl
/Font1 findfont 12 s
0 0 0 srgb
208.71 18.72 (Smoothing par) 0 ta
-0.120 (ameter) tb gr
12.96 129.48 (Binar) 90 ta
0.360 (y logar) tb
0.180 (ithm of n) tb
-0.120 (umber of fitness e) tb
-0.360 (v) tb
-0.300 (aluations) tb gr
0.00 0.00 504.00 504.00 cl
0 0 0 srgb
0.75 setlinewidth
[] 0 setdash
1 setlinecap
1 setlinejoin
10.00 setmiterlimit
np
59.04 73.44 m
414.72 0 l
0 371.52 l
-414.72 0 l
0 -371.52 l
o
ep
%%Trailer
%%Pages: 1
%%EOF
