%!PS-Adobe-3.0 EPSF-3.0
%%DocumentNeededResources: font Helvetica
%%+ font Helvetica-Bold
%%+ font Helvetica-Oblique
%%+ font Helvetica-BoldOblique
%%+ font Symbol
%%Title: R Graphics Output
%%Creator: R Software
%%Pages: (atend)
%%BoundingBox: 0 0 504 576
%%EndComments
%%BeginProlog
/bp  { gs sRGB gs } def
% begin .ps.prolog
/gs  { gsave } bind def
/gr  { grestore } bind def
/ep  { showpage gr gr } bind def
/m   { moveto } bind def
/l  { rlineto } bind def
/np  { newpath } bind def
/cp  { closepath } bind def
/f   { fill } bind def
/o   { stroke } bind def
/c   { newpath 0 360 arc } bind def
/r   { 4 2 roll moveto 1 copy 3 -1 roll exch 0 exch rlineto 0 rlineto -1 mul 0 exch rlineto closepath } bind def
/p1  { stroke } bind def
/p2  { gsave bg fill grestore newpath } bind def
/p3  { gsave bg fill grestore stroke } bind def
/p6  { gsave bg eofill grestore newpath } bind def
/p7  { gsave bg eofill grestore stroke } bind def
/t   { 5 -2 roll moveto gsave rotate
       1 index stringwidth pop
       mul neg 0 rmoveto show grestore } bind def
/ta  { 4 -2 roll moveto gsave rotate show } bind def
/tb  { 2 -1 roll 0 rmoveto show } bind def
/cl  { grestore gsave newpath 3 index 3 index moveto 1 index
       4 -1 roll lineto  exch 1 index lineto lineto
       closepath clip newpath } bind def
/rgb { setrgbcolor } bind def
/s   { scalefont setfont } bind def
% end   .ps.prolog
/sRGB { [ /CIEBasedABC
          << /DecodeLMN
               [ { dup 0.03928 le
                        {12.92321 div}
                        {0.055 add 1.055 div 2.4 exp }
                     ifelse
                 } bind dup dup
               ]
             /MatrixLMN [0.412457 0.212673 0.019334
                         0.357576 0.715152 0.119192
                         0.180437 0.072175 0.950301]
             /WhitePoint [0.9505 1.0 1.0890]
           >>
         ] setcolorspace } bind def
/srgb { setcolor } bind def
%%IncludeResource: font Helvetica
/Helvetica findfont
dup length dict begin
  {1 index /FID ne {def} {pop pop} ifelse} forall
  /Encoding ISOLatin1Encoding def
  currentdict
  end
/Font1 exch definefont pop
%%IncludeResource: font Helvetica-Bold
/Helvetica-Bold findfont
dup length dict begin
  {1 index /FID ne {def} {pop pop} ifelse} forall
  /Encoding ISOLatin1Encoding def
  currentdict
  end
/Font2 exch definefont pop
%%IncludeResource: font Helvetica-Oblique
/Helvetica-Oblique findfont
dup length dict begin
  {1 index /FID ne {def} {pop pop} ifelse} forall
  /Encoding ISOLatin1Encoding def
  currentdict
  end
/Font3 exch definefont pop
%%IncludeResource: font Helvetica-BoldOblique
/Helvetica-BoldOblique findfont
dup length dict begin
  {1 index /FID ne {def} {pop pop} ifelse} forall
  /Encoding ISOLatin1Encoding def
  currentdict
  end
/Font4 exch definefont pop
%%IncludeResource: font Symbol
/Symbol findfont
dup length dict begin
  {1 index /FID ne {def} {pop pop} ifelse} forall
  currentdict
  end
/Font5 exch definefont pop
%%EndProlog
%%Page: 1 1
bp
0.00 0.00 504.00 576.00 cl
0 0 0 srgb
0.75 setlinewidth
[] 0 setdash
1 setlinecap
1 setlinejoin
10.00 setmiterlimit
np
146.79 73.44 m
312.14 0 l
o
np
146.79 73.44 m
0 -7.20 l
o
np
224.83 73.44 m
0 -7.20 l
o
np
302.86 73.44 m
0 -7.20 l
o
np
380.90 73.44 m
0 -7.20 l
o
np
458.93 73.44 m
0 -7.20 l
o
/Font1 findfont 18 s
146.79 47.52 (200) .5 0 t
224.83 47.52 (400) .5 0 t
302.86 47.52 (600) .5 0 t
380.90 47.52 (800) .5 0 t
458.93 47.52 (1000) .5 0 t
np
73.44 89.87 m
0 393.40 l
o
np
73.44 89.87 m
-7.20 0 l
o
np
73.44 155.43 m
-7.20 0 l
o
np
73.44 221.00 m
-7.20 0 l
o
np
73.44 286.57 m
-7.20 0 l
o
np
73.44 352.14 m
-7.20 0 l
o
np
73.44 417.70 m
-7.20 0 l
o
np
73.44 483.27 m
-7.20 0 l
o
56.16 89.87 (0e+00) .5 90 t
56.16 155.43 (1e+06) .5 90 t
56.16 221.00 (2e+06) .5 90 t
56.16 286.57 (3e+06) .5 90 t
56.16 352.14 (4e+06) .5 90 t
56.16 417.70 (5e+06) .5 90 t
56.16 483.27 (6e+06) .5 90 t
np
73.44 73.44 m
400.32 0 l
0 443.52 l
-400.32 0 l
0 -443.52 l
o
0.00 0.00 504.00 576.00 cl
/Font1 findfont 18 s
0 0 0 srgb
220.09 18.72 (Prob) 0 ta
-0.360 (lem Siz) tb
-0.270 (e) tb gr
27.36 295.20 (Actual Running Time) .5 90 t
73.44 73.44 473.76 516.96 cl
0.7451 0.7451 0.7451 srgb
1.50 setlinewidth
[ 0.00 6.00] 0 setdash
1 setlinecap
1 setlinejoin
10.00 setmiterlimit
np
146.79 73.44 m
0 443.52 l
o
np
224.83 73.44 m
0 443.52 l
o
np
302.86 73.44 m
0 443.52 l
o
np
380.90 73.44 m
0 443.52 l
o
np
458.93 73.44 m
0 443.52 l
o
np
73.44 89.87 m
400.32 0 l
o
np
73.44 155.43 m
400.32 0 l
o
np
73.44 221.00 m
400.32 0 l
o
np
73.44 286.57 m
400.32 0 l
o
np
73.44 352.14 m
400.32 0 l
o
np
73.44 417.70 m
400.32 0 l
o
np
73.44 483.27 m
400.32 0 l
o
/bg { 1 0.7529 0.7961 srgb } def
np
 88.27 91.91 m
19.51 4.24 l
19.50 5.93 l
19.51 7.99 l
19.51 7.94 l
19.51 10.68 l
19.51 9.45 l
19.51 12.98 l
19.51 14.40 l
19.51 13.54 l
19.50 19.11 l
19.51 15.34 l
19.51 14.66 l
19.51 25.33 l
19.51 18.00 l
19.51 19.12 l
19.51 32.58 l
19.51 14.42 l
19.50 29.48 l
19.51 16.10 l
0 -46.65 l
-19.51 -26.81 l
-19.50 -20.45 l
-19.51 -16.66 l
-19.51 -16.46 l
-19.51 -17.17 l
-19.51 -25.32 l
-19.51 -16.49 l
-19.51 -5.14 l
-19.51 -18.51 l
-19.50 -9.67 l
-19.51 -13.22 l
-19.51 -10.33 l
-19.51 -12.21 l
-19.51 -7.55 l
-19.51 -9.85 l
-19.51 -5.48 l
-19.51 -6.44 l
-19.50 -3.97 l
-19.51 -3.65 l
cp p2
1 0 0 srgb
1.50 setlinewidth
[] 0 setdash
np
88.27 91.55 m
19.51 3.87 l
19.50 5.22 l
19.51 6.85 l
19.51 6.92 l
19.51 9.61 l
19.51 9.27 l
19.51 12.57 l
19.51 11.90 l
19.51 12.89 l
19.50 13.66 l
19.51 16.16 l
19.51 14.65 l
19.51 18.02 l
19.51 20.40 l
19.51 18.31 l
19.51 21.26 l
19.51 19.81 l
19.50 21.40 l
19.51 24.15 l
o
0 0 1 srgb
np
88.27 90.85 m
19.51 2.95 l
19.50 4.92 l
19.51 6.88 l
19.51 8.85 l
19.51 10.82 l
19.51 12.79 l
19.51 14.75 l
19.51 16.72 l
19.51 18.69 l
19.50 20.65 l
19.51 22.62 l
19.51 24.59 l
19.51 26.55 l
19.51 28.53 l
19.51 30.49 l
19.51 32.45 l
19.51 34.42 l
19.50 36.39 l
19.51 38.36 l
o
0.00 0.00 504.00 576.00 cl
0 0 0 srgb
0.75 setlinewidth
[] 0 setdash
1 setlinecap
1 setlinejoin
10.00 setmiterlimit
np
73.44 89.87 m
0 0.06 l
o
np
73.44 89.87 m
-7.20 0 l
o
np
73.44 89.87 m
-7.20 0 l
o
np
73.44 89.88 m
-7.20 0 l
o
np
73.44 89.89 m
-7.20 0 l
o
np
73.44 89.89 m
-7.20 0 l
o
np
73.44 89.90 m
-7.20 0 l
o
np
73.44 89.91 m
-7.20 0 l
o
np
73.44 89.91 m
-7.20 0 l
o
np
73.44 89.92 m
-7.20 0 l
o
np
73.44 89.93 m
-7.20 0 l
o
np
73.44 89.93 m
-7.20 0 l
o
/Font1 findfont 12 s
56.16 89.87 (0) .5 90 t
73.44 73.44 473.76 516.96 cl
0 0 0 srgb
0.75 setlinewidth
[] 0 setdash
1 setlinecap
1 setlinejoin
10.00 setmiterlimit
73.44 516.96 219.96 -64.80 r p1
0 0 1 srgb
1.50 setlinewidth
[] 0 setdash
np
89.64 495.36 m
32.40 0 l
o
1 0 0 srgb
np
89.64 473.76 m
32.40 0 l
o
/Font1 findfont 18 s
0 0 0 srgb
138.24 486.49 (6) 0 0 t
/Font5 findfont 18 s
148.25 486.49 ( ) 0 0 t
/Font1 findfont 18 s
152.75 486.49 (n) 0 0 t
/Font1 findfont 13 s
162.76 495.43 (2) 0 0 t
/Font1 findfont 18 s
138.24 467.43 (PBIL Act) 0 0 t
208.28 467.43 (. Runtime) 0 0 t
ep
%%Trailer
%%Pages: 1
%%EOF
